tick=2654441708000 1 cpu_id=0 next_pid=-1 next_tgid=-1 next_task=kernel
tick=2654450757500 0 cpu_id=0 next_pid=698 next_tgid=698 next_task=m5
tick=2654525305500 2 cpu_id=0 next_pid=677 next_tgid=677 next_task=script
tick=2654835748500 3 cpu_id=0 next_pid=699 next_tgid=699 next_task=script
tick=2655430199000 2 cpu_id=0 next_pid=677 next_tgid=677 next_task=script
tick=2655525216000 4 cpu_id=0 next_pid=700 next_tgid=700 next_task=script
tick=2655973523000 1 cpu_id=0 next_pid=-1 next_tgid=-1 next_task=kernel
tick=2655976608500 1 cpu_id=0 next_pid=-1 next_tgid=-1 next_task=kernel
tick=2655988466500 1 cpu_id=0 next_pid=-1 next_tgid=-1 next_task=kernel
tick=2655990869500 4 cpu_id=0 next_pid=700 next_tgid=700 next_task=chmod
tick=2656252364000 2 cpu_id=0 next_pid=677 next_tgid=677 next_task=script
tick=2657252179500 1 cpu_id=0 next_pid=-1 next_tgid=-1 next_task=kernel
tick=2657255634500 5 cpu_id=0 next_pid=1 next_tgid=1 next_task=init
tick=2657283659000 6 cpu_id=0 next_pid=703 next_tgid=703 next_task=sh
tick=2657545511000 7 cpu_id=0 next_pid=704 next_tgid=704 next_task=init
tick=2657661685000 5 cpu_id=0 next_pid=1 next_tgid=1 next_task=init
tick=2657669904500 7 cpu_id=0 next_pid=704 next_tgid=704 next_task=getty
tick=2657964767000 1 cpu_id=0 next_pid=-1 next_tgid=-1 next_task=kernel
tick=2657968340500 6 cpu_id=0 next_pid=703 next_tgid=703 next_task=sh
tick=2658031030500 8 cpu_id=0 next_pid=702 next_tgid=702 next_task=sh
tick=2658123668000 6 cpu_id=0 next_pid=703 next_tgid=703 next_task=sh
tick=2658248012000 7 cpu_id=0 next_pid=704 next_tgid=704 next_task=getty
tick=2658671929000 8 cpu_id=0 next_pid=702 next_tgid=702 next_task=sh
tick=2658849741500 6 cpu_id=0 next_pid=703 next_tgid=703 next_task=sh
tick=2659054368000 1 cpu_id=0 next_pid=-1 next_tgid=-1 next_task=kernel
tick=2659071843500 1 cpu_id=0 next_pid=-1 next_tgid=-1 next_task=kernel
tick=2659072992000 6 cpu_id=0 next_pid=703 next_tgid=703 next_task=Bubblesort
tick=2659119428500 8 cpu_id=0 next_pid=702 next_tgid=702 next_task=sh
tick=2659310350000 6 cpu_id=0 next_pid=703 next_tgid=703 next_task=Bubblesort
tick=2659394332500 8 cpu_id=0 next_pid=702 next_tgid=702 next_task=Treesort
tick=2659401988500 9 cpu_id=0 next_pid=701 next_tgid=701 next_task=sh
tick=2659726409000 6 cpu_id=0 next_pid=703 next_tgid=703 next_task=Bubblesort
tick=2659848546000 8 cpu_id=0 next_pid=702 next_tgid=702 next_task=Treesort
tick=2660041745500 1 cpu_id=0 next_pid=-1 next_tgid=-1 next_task=kernel
tick=2660045069000 6 cpu_id=0 next_pid=703 next_tgid=703 next_task=Bubblesort
tick=2660086953000 9 cpu_id=0 next_pid=701 next_tgid=701 next_task=sh
tick=2660339856000 6 cpu_id=0 next_pid=703 next_tgid=703 next_task=Bubblesort
tick=2660437629500 8 cpu_id=0 next_pid=702 next_tgid=702 next_task=Treesort
tick=2660609842500 6 cpu_id=0 next_pid=703 next_tgid=703 next_task=Bubblesort
tick=2660966629500 1 cpu_id=0 next_pid=-1 next_tgid=-1 next_task=kernel
tick=2660968952000 1 cpu_id=0 next_pid=-1 next_tgid=-1 next_task=kernel
tick=2660972039000 8 cpu_id=0 next_pid=702 next_tgid=702 next_task=Treesort
tick=2661054423000 6 cpu_id=0 next_pid=703 next_tgid=703 next_task=Bubblesort
tick=2662960118000 8 cpu_id=0 next_pid=702 next_tgid=702 next_task=Treesort
tick=2663162081000 9 cpu_id=0 next_pid=701 next_tgid=701 next_task=Quicksort
tick=2663168035000 6 cpu_id=0 next_pid=703 next_tgid=703 next_task=Bubblesort
tick=2663223668500 8 cpu_id=0 next_pid=702 next_tgid=702 next_task=Treesort
tick=2665415912500 9 cpu_id=0 next_pid=701 next_tgid=701 next_task=Quicksort
tick=2665499806500 6 cpu_id=0 next_pid=703 next_tgid=703 next_task=Bubblesort
tick=2665565350000 9 cpu_id=0 next_pid=701 next_tgid=701 next_task=Quicksort
tick=2665681242500 6 cpu_id=0 next_pid=703 next_tgid=703 next_task=Bubblesort
tick=2665813651500 9 cpu_id=0 next_pid=701 next_tgid=701 next_task=Quicksort
tick=2665895374000 6 cpu_id=0 next_pid=703 next_tgid=703 next_task=Bubblesort
tick=2665919516500 9 cpu_id=0 next_pid=701 next_tgid=701 next_task=Quicksort
tick=2666016319000 1 cpu_id=0 next_pid=-1 next_tgid=-1 next_task=kernel
tick=2666018677500 6 cpu_id=0 next_pid=703 next_tgid=703 next_task=Bubblesort
tick=2666076885000 9 cpu_id=0 next_pid=701 next_tgid=701 next_task=Quicksort
tick=2666964619000 1 cpu_id=0 next_pid=-1 next_tgid=-1 next_task=kernel
tick=2666966944000 9 cpu_id=0 next_pid=701 next_tgid=701 next_task=Quicksort
tick=2667607621000 6 cpu_id=0 next_pid=703 next_tgid=703 next_task=Bubblesort
tick=2667761546500 9 cpu_id=0 next_pid=701 next_tgid=701 next_task=Quicksort
tick=2668963288500 1 cpu_id=0 next_pid=-1 next_tgid=-1 next_task=kernel
tick=2668965750500 8 cpu_id=0 next_pid=702 next_tgid=702 next_task=Treesort
tick=2669964176000 1 cpu_id=0 next_pid=-1 next_tgid=-1 next_task=kernel
tick=2669966469000 6 cpu_id=0 next_pid=703 next_tgid=703 next_task=Bubblesort
tick=2672960545000 9 cpu_id=0 next_pid=701 next_tgid=701 next_task=Quicksort
tick=2675960587000 8 cpu_id=0 next_pid=702 next_tgid=702 next_task=Treesort
tick=2678962074500 6 cpu_id=0 next_pid=703 next_tgid=703 next_task=Bubblesort
tick=2681960314000 9 cpu_id=0 next_pid=701 next_tgid=701 next_task=Quicksort
tick=2684960328000 8 cpu_id=0 next_pid=702 next_tgid=702 next_task=Treesort
tick=2687962018500 6 cpu_id=0 next_pid=703 next_tgid=703 next_task=Bubblesort
tick=2690959517500 9 cpu_id=0 next_pid=701 next_tgid=701 next_task=Quicksort
tick=2693960259000 8 cpu_id=0 next_pid=702 next_tgid=702 next_task=Treesort
tick=2696961930000 6 cpu_id=0 next_pid=703 next_tgid=703 next_task=Bubblesort
tick=2699960133000 9 cpu_id=0 next_pid=701 next_tgid=701 next_task=Quicksort
tick=2702960130500 8 cpu_id=0 next_pid=702 next_tgid=702 next_task=Treesort
tick=2705962069000 6 cpu_id=0 next_pid=703 next_tgid=703 next_task=Bubblesort
tick=2708959432500 9 cpu_id=0 next_pid=701 next_tgid=701 next_task=Quicksort
tick=2711960098000 8 cpu_id=0 next_pid=702 next_tgid=702 next_task=Treesort
tick=2714964536500 1 cpu_id=0 next_pid=-1 next_tgid=-1 next_task=kernel
tick=2714968506500 6 cpu_id=0 next_pid=703 next_tgid=703 next_task=Bubblesort
tick=2716963161000 1 cpu_id=0 next_pid=-1 next_tgid=-1 next_task=kernel
tick=2716971047500 9 cpu_id=0 next_pid=701 next_tgid=701 next_task=Quicksort
tick=2719960152500 8 cpu_id=0 next_pid=702 next_tgid=702 next_task=Treesort
tick=2722961841500 6 cpu_id=0 next_pid=703 next_tgid=703 next_task=Bubblesort
tick=2725959884500 9 cpu_id=0 next_pid=701 next_tgid=701 next_task=Quicksort
tick=2728959837500 8 cpu_id=0 next_pid=702 next_tgid=702 next_task=Treesort
tick=2731961712000 6 cpu_id=0 next_pid=703 next_tgid=703 next_task=Bubblesort
tick=2734959248500 9 cpu_id=0 next_pid=701 next_tgid=701 next_task=Quicksort
tick=2737959242000 8 cpu_id=0 next_pid=702 next_tgid=702 next_task=Treesort
tick=2740961572500 6 cpu_id=0 next_pid=703 next_tgid=703 next_task=Bubblesort
tick=2743959623000 9 cpu_id=0 next_pid=701 next_tgid=701 next_task=Quicksort
tick=2746959224500 8 cpu_id=0 next_pid=702 next_tgid=702 next_task=Treesort
tick=2749961489500 6 cpu_id=0 next_pid=703 next_tgid=703 next_task=Bubblesort
tick=2752958949500 9 cpu_id=0 next_pid=701 next_tgid=701 next_task=Quicksort
tick=2755959571000 8 cpu_id=0 next_pid=702 next_tgid=702 next_task=Treesort
tick=2758961790000 6 cpu_id=0 next_pid=703 next_tgid=703 next_task=Bubblesort
tick=2761959347500 9 cpu_id=0 next_pid=701 next_tgid=701 next_task=Quicksort
tick=2764959416000 8 cpu_id=0 next_pid=702 next_tgid=702 next_task=Treesort
tick=2767961220000 6 cpu_id=0 next_pid=703 next_tgid=703 next_task=Bubblesort
