tick=2654441708000 1 cpu_id=0 next_pid=-1 next_tgid=-1 next_task=kernel
tick=2654450757500 0 cpu_id=0 next_pid=698 next_tgid=698 next_task=m5
tick=2654525305500 2 cpu_id=0 next_pid=677 next_tgid=677 next_task=script
tick=2654835748500 3 cpu_id=0 next_pid=699 next_tgid=699 next_task=script
tick=2655430199000 2 cpu_id=0 next_pid=677 next_tgid=677 next_task=script
tick=2655525216000 4 cpu_id=0 next_pid=700 next_tgid=700 next_task=script
tick=2655973523000 1 cpu_id=0 next_pid=-1 next_tgid=-1 next_task=kernel
tick=2655976608500 1 cpu_id=0 next_pid=-1 next_tgid=-1 next_task=kernel
tick=2655988466500 1 cpu_id=0 next_pid=-1 next_tgid=-1 next_task=kernel
tick=2655990869500 4 cpu_id=0 next_pid=700 next_tgid=700 next_task=chmod
tick=2656252364000 2 cpu_id=0 next_pid=677 next_tgid=677 next_task=script
tick=2657252179500 1 cpu_id=0 next_pid=-1 next_tgid=-1 next_task=kernel
tick=2657255634500 5 cpu_id=0 next_pid=1 next_tgid=1 next_task=init
tick=2657283659000 6 cpu_id=0 next_pid=703 next_tgid=703 next_task=sh
tick=2657545560000 7 cpu_id=0 next_pid=704 next_tgid=704 next_task=init
tick=2657660997000 5 cpu_id=0 next_pid=1 next_tgid=1 next_task=init
tick=2657669139500 7 cpu_id=0 next_pid=704 next_tgid=704 next_task=getty
tick=2657965138500 1 cpu_id=0 next_pid=-1 next_tgid=-1 next_task=kernel
tick=2657968684500 6 cpu_id=0 next_pid=703 next_tgid=703 next_task=sh
tick=2658022234500 8 cpu_id=0 next_pid=702 next_tgid=702 next_task=sh
tick=2658125090000 6 cpu_id=0 next_pid=703 next_tgid=703 next_task=sh
tick=2658250437500 7 cpu_id=0 next_pid=704 next_tgid=704 next_task=getty
tick=2658675433500 8 cpu_id=0 next_pid=702 next_tgid=702 next_task=sh
tick=2658738613500 6 cpu_id=0 next_pid=703 next_tgid=703 next_task=sh
tick=2658924303500 8 cpu_id=0 next_pid=702 next_tgid=702 next_task=sh
tick=2659066552000 1 cpu_id=0 next_pid=-1 next_tgid=-1 next_task=kernel
tick=2659078754000 1 cpu_id=0 next_pid=-1 next_tgid=-1 next_task=kernel
tick=2659079903000 8 cpu_id=0 next_pid=702 next_tgid=702 next_task=sh
tick=2659257483500 6 cpu_id=0 next_pid=703 next_tgid=703 next_task=Bubblesort
tick=2659314576000 8 cpu_id=0 next_pid=702 next_tgid=702 next_task=Treesort
tick=2659370991000 6 cpu_id=0 next_pid=703 next_tgid=703 next_task=Bubblesort
tick=2659453792000 8 cpu_id=0 next_pid=702 next_tgid=702 next_task=Treesort
tick=2659483739000 9 cpu_id=0 next_pid=701 next_tgid=701 next_task=sh
tick=2659813903500 6 cpu_id=0 next_pid=703 next_tgid=703 next_task=Bubblesort
tick=2659936197500 8 cpu_id=0 next_pid=702 next_tgid=702 next_task=Treesort
tick=2660016306500 1 cpu_id=0 next_pid=-1 next_tgid=-1 next_task=kernel
tick=2660019319000 1 cpu_id=0 next_pid=-1 next_tgid=-1 next_task=kernel
tick=2660066749500 8 cpu_id=0 next_pid=702 next_tgid=702 next_task=Treesort
tick=2660175801500 6 cpu_id=0 next_pid=703 next_tgid=703 next_task=Bubblesort
tick=2660369470500 8 cpu_id=0 next_pid=702 next_tgid=702 next_task=Treesort
tick=2660461457500 6 cpu_id=0 next_pid=703 next_tgid=703 next_task=Bubblesort
tick=2660558387500 8 cpu_id=0 next_pid=702 next_tgid=702 next_task=Treesort
tick=2660822641000 9 cpu_id=0 next_pid=701 next_tgid=701 next_task=sh
tick=2660967715500 1 cpu_id=0 next_pid=-1 next_tgid=-1 next_task=kernel
tick=2660969855000 1 cpu_id=0 next_pid=-1 next_tgid=-1 next_task=kernel
tick=2660973008500 6 cpu_id=0 next_pid=703 next_tgid=703 next_task=Bubblesort
tick=2663250114500 9 cpu_id=0 next_pid=701 next_tgid=701 next_task=sh
tick=2663374391500 8 cpu_id=0 next_pid=702 next_tgid=702 next_task=Treesort
tick=2665516320000 9 cpu_id=0 next_pid=701 next_tgid=701 next_task=Quicksort
tick=2665573557500 8 cpu_id=0 next_pid=702 next_tgid=702 next_task=Treesort
tick=2665584170500 9 cpu_id=0 next_pid=701 next_tgid=701 next_task=Quicksort
tick=2665656043000 8 cpu_id=0 next_pid=702 next_tgid=702 next_task=Treesort
tick=2665721554500 9 cpu_id=0 next_pid=701 next_tgid=701 next_task=Quicksort
tick=2665837406000 6 cpu_id=0 next_pid=703 next_tgid=703 next_task=Bubblesort
tick=2665969487000 1 cpu_id=0 next_pid=-1 next_tgid=-1 next_task=kernel
tick=2665975249000 1 cpu_id=0 next_pid=-1 next_tgid=-1 next_task=kernel
tick=2665977462500 9 cpu_id=0 next_pid=701 next_tgid=701 next_task=Quicksort
tick=2666058653000 8 cpu_id=0 next_pid=702 next_tgid=702 next_task=Treesort
tick=2666084401500 9 cpu_id=0 next_pid=701 next_tgid=701 next_task=Quicksort
tick=2666169988500 8 cpu_id=0 next_pid=702 next_tgid=702 next_task=Treesort
tick=2666230221000 9 cpu_id=0 next_pid=701 next_tgid=701 next_task=Quicksort
tick=2666964456000 1 cpu_id=0 next_pid=-1 next_tgid=-1 next_task=kernel
tick=2666967034000 9 cpu_id=0 next_pid=701 next_tgid=701 next_task=Quicksort
tick=2667747806000 8 cpu_id=0 next_pid=702 next_tgid=702 next_task=Treesort
tick=2668965625500 1 cpu_id=0 next_pid=-1 next_tgid=-1 next_task=kernel
tick=2668968283500 9 cpu_id=0 next_pid=701 next_tgid=701 next_task=Quicksort
tick=2669963325500 1 cpu_id=0 next_pid=-1 next_tgid=-1 next_task=kernel
tick=2669965581500 6 cpu_id=0 next_pid=703 next_tgid=703 next_task=Bubblesort
tick=2672960832000 9 cpu_id=0 next_pid=701 next_tgid=701 next_task=Quicksort
tick=2675960691000 8 cpu_id=0 next_pid=702 next_tgid=702 next_task=Treesort
tick=2678961692500 6 cpu_id=0 next_pid=703 next_tgid=703 next_task=Bubblesort
tick=2681960358000 9 cpu_id=0 next_pid=701 next_tgid=701 next_task=Quicksort
tick=2684960367000 8 cpu_id=0 next_pid=702 next_tgid=702 next_task=Treesort
tick=2687962061500 6 cpu_id=0 next_pid=703 next_tgid=703 next_task=Bubblesort
tick=2690959371500 9 cpu_id=0 next_pid=701 next_tgid=701 next_task=Quicksort
tick=2693960160000 8 cpu_id=0 next_pid=702 next_tgid=702 next_task=Treesort
tick=2696962338000 6 cpu_id=0 next_pid=703 next_tgid=703 next_task=Bubblesort
tick=2699960267500 9 cpu_id=0 next_pid=701 next_tgid=701 next_task=Quicksort
tick=2702960128500 8 cpu_id=0 next_pid=702 next_tgid=702 next_task=Treesort
tick=2705962142000 6 cpu_id=0 next_pid=703 next_tgid=703 next_task=Bubblesort
tick=2708959150500 9 cpu_id=0 next_pid=701 next_tgid=701 next_task=Quicksort
tick=2711960118000 8 cpu_id=0 next_pid=702 next_tgid=702 next_task=Treesort
tick=2714963523500 1 cpu_id=0 next_pid=-1 next_tgid=-1 next_task=kernel
tick=2714967527500 6 cpu_id=0 next_pid=703 next_tgid=703 next_task=Bubblesort
tick=2716962746500 1 cpu_id=0 next_pid=-1 next_tgid=-1 next_task=kernel
tick=2716970633500 9 cpu_id=0 next_pid=701 next_tgid=701 next_task=Quicksort
tick=2719959725000 8 cpu_id=0 next_pid=702 next_tgid=702 next_task=Treesort
tick=2722961738000 6 cpu_id=0 next_pid=703 next_tgid=703 next_task=Bubblesort
tick=2725960071000 9 cpu_id=0 next_pid=701 next_tgid=701 next_task=Quicksort
tick=2728959931000 8 cpu_id=0 next_pid=702 next_tgid=702 next_task=Treesort
tick=2731961587000 6 cpu_id=0 next_pid=703 next_tgid=703 next_task=Bubblesort
tick=2734958769000 9 cpu_id=0 next_pid=701 next_tgid=701 next_task=Quicksort
tick=2737959743000 8 cpu_id=0 next_pid=702 next_tgid=702 next_task=Treesort
tick=2740961702000 6 cpu_id=0 next_pid=703 next_tgid=703 next_task=Bubblesort
tick=2743959651000 9 cpu_id=0 next_pid=701 next_tgid=701 next_task=Quicksort
tick=2746959670000 8 cpu_id=0 next_pid=702 next_tgid=702 next_task=Treesort
tick=2749961606000 6 cpu_id=0 next_pid=703 next_tgid=703 next_task=Bubblesort
tick=2752958704000 9 cpu_id=0 next_pid=701 next_tgid=701 next_task=Quicksort
tick=2755959609000 8 cpu_id=0 next_pid=702 next_tgid=702 next_task=Treesort
tick=2758961596000 6 cpu_id=0 next_pid=703 next_tgid=703 next_task=Bubblesort
tick=2761959485500 9 cpu_id=0 next_pid=701 next_tgid=701 next_task=Quicksort
tick=2764959462000 8 cpu_id=0 next_pid=702 next_tgid=702 next_task=Treesort
tick=2767961725000 6 cpu_id=0 next_pid=703 next_tgid=703 next_task=Bubblesort
