tick=2654441504500 1 cpu_id=0 next_pid=-1 next_tgid=-1 next_task=kernel
tick=2654450269000 0 cpu_id=0 next_pid=698 next_tgid=698 next_task=m5
tick=2654518762500 2 cpu_id=0 next_pid=677 next_tgid=677 next_task=script
tick=2654789974000 3 cpu_id=0 next_pid=699 next_tgid=699 next_task=script
tick=2655314321000 2 cpu_id=0 next_pid=677 next_tgid=677 next_task=script
tick=2655396024000 4 cpu_id=0 next_pid=700 next_tgid=700 next_task=script
tick=2655972300500 2 cpu_id=0 next_pid=677 next_tgid=677 next_task=script
tick=2656969541500 1 cpu_id=0 next_pid=-1 next_tgid=-1 next_task=kernel
tick=2656972540000 1 cpu_id=0 next_pid=-1 next_tgid=-1 next_task=kernel
tick=2656980189500 1 cpu_id=0 next_pid=-1 next_tgid=-1 next_task=kernel
tick=2656982033000 2 cpu_id=0 next_pid=677 next_tgid=677 next_task=sh
tick=2657243989500 5 cpu_id=0 next_pid=1 next_tgid=1 next_task=init
tick=2657271673000 6 cpu_id=0 next_pid=705 next_tgid=705 next_task=sh
tick=2657514712000 7 cpu_id=0 next_pid=706 next_tgid=706 next_task=sh
tick=2657589172500 8 cpu_id=0 next_pid=712 next_tgid=712 next_task=init
tick=2657694189500 5 cpu_id=0 next_pid=1 next_tgid=1 next_task=init
tick=2657702310000 8 cpu_id=0 next_pid=712 next_tgid=712 next_task=getty
tick=2657970658500 1 cpu_id=0 next_pid=-1 next_tgid=-1 next_task=kernel
tick=2657974006500 1 cpu_id=0 next_pid=-1 next_tgid=-1 next_task=kernel
tick=2657984127500 1 cpu_id=0 next_pid=-1 next_tgid=-1 next_task=kernel
tick=2657986202000 8 cpu_id=0 next_pid=712 next_tgid=712 next_task=getty
tick=2658290606500 9 cpu_id=0 next_pid=707 next_tgid=707 next_task=sh
tick=2658367618500 10 cpu_id=0 next_pid=708 next_tgid=708 next_task=sh
tick=2658439986500 11 cpu_id=0 next_pid=709 next_tgid=709 next_task=sh
tick=2658513233000 12 cpu_id=0 next_pid=710 next_tgid=710 next_task=sh
tick=2658585219500 13 cpu_id=0 next_pid=711 next_tgid=711 next_task=sh
tick=2658658801000 14 cpu_id=0 next_pid=704 next_tgid=704 next_task=sh
tick=2658729733000 6 cpu_id=0 next_pid=705 next_tgid=705 next_task=sh
tick=2658786995500 7 cpu_id=0 next_pid=706 next_tgid=706 next_task=sh
tick=2658802443500 9 cpu_id=0 next_pid=707 next_tgid=707 next_task=sh
tick=2658804860500 10 cpu_id=0 next_pid=708 next_tgid=708 next_task=sh
tick=2658807060500 11 cpu_id=0 next_pid=709 next_tgid=709 next_task=sh
tick=2658809218000 12 cpu_id=0 next_pid=710 next_tgid=710 next_task=sh
tick=2658811402000 13 cpu_id=0 next_pid=711 next_tgid=711 next_task=sh
tick=2658813585000 14 cpu_id=0 next_pid=704 next_tgid=704 next_task=sh
tick=2658815460500 15 cpu_id=0 next_pid=703 next_tgid=703 next_task=sh
tick=2658890543000 6 cpu_id=0 next_pid=705 next_tgid=705 next_task=sh
tick=2658981443000 1 cpu_id=0 next_pid=-1 next_tgid=-1 next_task=kernel
tick=2658984119500 1 cpu_id=0 next_pid=-1 next_tgid=-1 next_task=kernel
tick=2659029930000 7 cpu_id=0 next_pid=706 next_tgid=706 next_task=sh
tick=2659087313500 6 cpu_id=0 next_pid=705 next_tgid=705 next_task=sh
tick=2659264138000 7 cpu_id=0 next_pid=706 next_tgid=706 next_task=sh
tick=2659385404000 9 cpu_id=0 next_pid=707 next_tgid=707 next_task=sh
tick=2659512963500 10 cpu_id=0 next_pid=708 next_tgid=708 next_task=sh
tick=2659683055000 11 cpu_id=0 next_pid=709 next_tgid=709 next_task=sh
tick=2659854365500 12 cpu_id=0 next_pid=710 next_tgid=710 next_task=sh
tick=2659931152000 13 cpu_id=0 next_pid=711 next_tgid=711 next_task=sh
tick=2660060185000 1 cpu_id=0 next_pid=-1 next_tgid=-1 next_task=kernel
tick=2660062418500 13 cpu_id=0 next_pid=711 next_tgid=711 next_task=sh
tick=2660163989000 12 cpu_id=0 next_pid=710 next_tgid=710 next_task=sh
tick=2660334354500 14 cpu_id=0 next_pid=704 next_tgid=704 next_task=sh
tick=2660458811000 9 cpu_id=0 next_pid=707 next_tgid=707 next_task=sh
tick=2660627642500 13 cpu_id=0 next_pid=711 next_tgid=711 next_task=sh
tick=2660796055000 10 cpu_id=0 next_pid=708 next_tgid=708 next_task=sh
tick=2660980101500 11 cpu_id=0 next_pid=709 next_tgid=709 next_task=sh
tick=2661144411000 7 cpu_id=0 next_pid=706 next_tgid=706 next_task=sh
tick=2661311076500 14 cpu_id=0 next_pid=704 next_tgid=704 next_task=sh
tick=2661479117000 12 cpu_id=0 next_pid=710 next_tgid=710 next_task=Oscar
tick=2661534074000 15 cpu_id=0 next_pid=703 next_tgid=703 next_task=sh
tick=2661659947000 12 cpu_id=0 next_pid=710 next_tgid=710 next_task=Oscar
tick=2661729956000 9 cpu_id=0 next_pid=707 next_tgid=707 next_task=RealMM
tick=2661740055500 13 cpu_id=0 next_pid=711 next_tgid=711 next_task=Towers
tick=2661746023000 11 cpu_id=0 next_pid=709 next_tgid=709 next_task=Perm
tick=2661749543000 10 cpu_id=0 next_pid=708 next_tgid=708 next_task=IntMM
tick=2661753289500 7 cpu_id=0 next_pid=706 next_tgid=706 next_task=FloatMM
tick=2661758841000 16 cpu_id=0 next_pid=702 next_tgid=702 next_task=sh
tick=2662212809000 9 cpu_id=0 next_pid=707 next_tgid=707 next_task=RealMM
tick=2662282226000 13 cpu_id=0 next_pid=711 next_tgid=711 next_task=Towers
tick=2662306666500 11 cpu_id=0 next_pid=709 next_tgid=709 next_task=Perm
tick=2662383759000 10 cpu_id=0 next_pid=708 next_tgid=708 next_task=IntMM
tick=2662458522500 13 cpu_id=0 next_pid=711 next_tgid=711 next_task=Towers
tick=2662626754000 7 cpu_id=0 next_pid=706 next_tgid=706 next_task=FloatMM
tick=2662794168500 12 cpu_id=0 next_pid=710 next_tgid=710 next_task=Oscar
tick=2663141385500 15 cpu_id=0 next_pid=703 next_tgid=703 next_task=sh
tick=2663315977500 9 cpu_id=0 next_pid=707 next_tgid=707 next_task=RealMM
tick=2663426023500 14 cpu_id=0 next_pid=704 next_tgid=704 next_task=Treesort
tick=2663431413500 11 cpu_id=0 next_pid=709 next_tgid=709 next_task=Perm
tick=2663683942000 14 cpu_id=0 next_pid=704 next_tgid=704 next_task=Treesort
tick=2663850515000 10 cpu_id=0 next_pid=708 next_tgid=708 next_task=IntMM
tick=2664015297000 6 cpu_id=0 next_pid=705 next_tgid=705 next_task=Bubblesort
tick=2664068800500 9 cpu_id=0 next_pid=707 next_tgid=707 next_task=RealMM
tick=2664200944000 13 cpu_id=0 next_pid=711 next_tgid=711 next_task=Towers
tick=2664288751500 7 cpu_id=0 next_pid=706 next_tgid=706 next_task=FloatMM
tick=2664399984000 6 cpu_id=0 next_pid=705 next_tgid=705 next_task=Bubblesort
tick=2664567477000 15 cpu_id=0 next_pid=703 next_tgid=703 next_task=Quicksort
tick=2664574239000 14 cpu_id=0 next_pid=704 next_tgid=704 next_task=Treesort
tick=2664733473000 15 cpu_id=0 next_pid=703 next_tgid=703 next_task=Quicksort
tick=2664899484000 10 cpu_id=0 next_pid=708 next_tgid=708 next_task=IntMM
tick=2664988259500 13 cpu_id=0 next_pid=711 next_tgid=711 next_task=Towers
tick=2665186997000 9 cpu_id=0 next_pid=707 next_tgid=707 next_task=RealMM
tick=2665317815000 7 cpu_id=0 next_pid=706 next_tgid=706 next_task=FloatMM
tick=2665451310000 11 cpu_id=0 next_pid=709 next_tgid=709 next_task=Perm
tick=2665538961000 17 cpu_id=0 next_pid=701 next_tgid=701 next_task=sh
tick=2665696803000 10 cpu_id=0 next_pid=708 next_tgid=708 next_task=IntMM
tick=2665828390500 6 cpu_id=0 next_pid=705 next_tgid=705 next_task=Bubblesort
tick=2665999719500 1 cpu_id=0 next_pid=-1 next_tgid=-1 next_task=kernel
tick=2666002241000 1 cpu_id=0 next_pid=-1 next_tgid=-1 next_task=kernel
tick=2666049353500 12 cpu_id=0 next_pid=710 next_tgid=710 next_task=Oscar
tick=2666185083500 15 cpu_id=0 next_pid=703 next_tgid=703 next_task=Quicksort
tick=2666342598000 14 cpu_id=0 next_pid=704 next_tgid=704 next_task=Treesort
tick=2666520252500 9 cpu_id=0 next_pid=707 next_tgid=707 next_task=RealMM
tick=2666965047500 1 cpu_id=0 next_pid=-1 next_tgid=-1 next_task=kernel
tick=2666967342000 9 cpu_id=0 next_pid=707 next_tgid=707 next_task=RealMM
tick=2667603124000 11 cpu_id=0 next_pid=709 next_tgid=709 next_task=Perm
tick=2667690673000 7 cpu_id=0 next_pid=706 next_tgid=706 next_task=FloatMM
tick=2667823612000 13 cpu_id=0 next_pid=711 next_tgid=711 next_task=Towers
tick=2668960609000 10 cpu_id=0 next_pid=708 next_tgid=708 next_task=IntMM
tick=2669880187000 16 cpu_id=0 next_pid=702 next_tgid=702 next_task=sh
tick=2670062489500 17 cpu_id=0 next_pid=701 next_tgid=701 next_task=sh
tick=2670238185500 11 cpu_id=0 next_pid=709 next_tgid=709 next_task=Perm
tick=2670357848500 12 cpu_id=0 next_pid=710 next_tgid=710 next_task=Oscar
tick=2670543442500 6 cpu_id=0 next_pid=705 next_tgid=705 next_task=Bubblesort
tick=2670627842000 15 cpu_id=0 next_pid=703 next_tgid=703 next_task=Quicksort
tick=2670714308000 14 cpu_id=0 next_pid=704 next_tgid=704 next_task=Treesort
tick=2670910501000 7 cpu_id=0 next_pid=706 next_tgid=706 next_task=FloatMM
tick=2671962087500 6 cpu_id=0 next_pid=705 next_tgid=705 next_task=Bubblesort
tick=2672040576000 11 cpu_id=0 next_pid=709 next_tgid=709 next_task=Perm
tick=2672960922500 15 cpu_id=0 next_pid=703 next_tgid=703 next_task=Quicksort
tick=2673035365000 17 cpu_id=0 next_pid=701 next_tgid=701 next_task=Queens
tick=2673041508000 16 cpu_id=0 next_pid=702 next_tgid=702 next_task=Puzzle
tick=2673194911500 17 cpu_id=0 next_pid=701 next_tgid=701 next_task=Queens
tick=2673265919000 6 cpu_id=0 next_pid=705 next_tgid=705 next_task=Bubblesort
tick=2674959311500 12 cpu_id=0 next_pid=710 next_tgid=710 next_task=Oscar
tick=2675960094500 15 cpu_id=0 next_pid=703 next_tgid=703 next_task=Quicksort
tick=2676961870000 17 cpu_id=0 next_pid=701 next_tgid=701 next_task=Queens
tick=2677069110500 14 cpu_id=0 next_pid=704 next_tgid=704 next_task=Treesort
tick=2677965559000 1 cpu_id=0 next_pid=-1 next_tgid=-1 next_task=kernel
tick=2677968511000 16 cpu_id=0 next_pid=702 next_tgid=702 next_task=Puzzle
tick=2678033676500 17 cpu_id=0 next_pid=701 next_tgid=701 next_task=Queens
tick=2678070934500 10 cpu_id=0 next_pid=708 next_tgid=708 next_task=IntMM
tick=2678962639000 1 cpu_id=0 next_pid=-1 next_tgid=-1 next_task=kernel
tick=2678964628500 17 cpu_id=0 next_pid=701 next_tgid=701 next_task=Queens
tick=2679041853500 16 cpu_id=0 next_pid=702 next_tgid=702 next_task=Puzzle
tick=2679427765500 17 cpu_id=0 next_pid=701 next_tgid=701 next_task=Queens
tick=2680124282500 16 cpu_id=0 next_pid=702 next_tgid=702 next_task=Puzzle
tick=2680209874500 9 cpu_id=0 next_pid=707 next_tgid=707 next_task=RealMM
tick=2680963443000 1 cpu_id=0 next_pid=-1 next_tgid=-1 next_task=kernel
tick=2680965633000 9 cpu_id=0 next_pid=707 next_tgid=707 next_task=RealMM
tick=2681960804000 1 cpu_id=0 next_pid=-1 next_tgid=-1 next_task=kernel
tick=2681962734500 16 cpu_id=0 next_pid=702 next_tgid=702 next_task=Puzzle
tick=2682094625500 11 cpu_id=0 next_pid=709 next_tgid=709 next_task=Perm
tick=2682209537000 16 cpu_id=0 next_pid=702 next_tgid=702 next_task=Puzzle
tick=2682963738000 13 cpu_id=0 next_pid=711 next_tgid=711 next_task=Towers
tick=2683122145000 7 cpu_id=0 next_pid=706 next_tgid=706 next_task=FloatMM
tick=2683203556500 14 cpu_id=0 next_pid=704 next_tgid=704 next_task=Treesort
tick=2683960698500 11 cpu_id=0 next_pid=709 next_tgid=709 next_task=Perm
tick=2684960709500 17 cpu_id=0 next_pid=701 next_tgid=701 next_task=Queens
tick=2685960454000 12 cpu_id=0 next_pid=710 next_tgid=710 next_task=Oscar
tick=2686960548000 15 cpu_id=0 next_pid=703 next_tgid=703 next_task=Quicksort
tick=2687213501500 7 cpu_id=0 next_pid=706 next_tgid=706 next_task=FloatMM
tick=2688960107500 13 cpu_id=0 next_pid=711 next_tgid=711 next_task=Towers
tick=2689960092500 15 cpu_id=0 next_pid=703 next_tgid=703 next_task=Quicksort
tick=2690960371500 16 cpu_id=0 next_pid=702 next_tgid=702 next_task=Puzzle
tick=2691958957500 10 cpu_id=0 next_pid=708 next_tgid=708 next_task=IntMM
tick=2692959532000 6 cpu_id=0 next_pid=705 next_tgid=705 next_task=Bubblesort
tick=2693065576500 14 cpu_id=0 next_pid=704 next_tgid=704 next_task=Treesort
tick=2693578957500 6 cpu_id=0 next_pid=705 next_tgid=705 next_task=Bubblesort
tick=2694958613000 11 cpu_id=0 next_pid=709 next_tgid=709 next_task=Perm
tick=2695959579000 17 cpu_id=0 next_pid=701 next_tgid=701 next_task=Queens
tick=2696959625000 12 cpu_id=0 next_pid=710 next_tgid=710 next_task=Oscar
tick=2697978200500 13 cpu_id=0 next_pid=711 next_tgid=711 next_task=Towers
tick=2698959712500 14 cpu_id=0 next_pid=704 next_tgid=704 next_task=Treesort
tick=2699961969000 15 cpu_id=0 next_pid=703 next_tgid=703 next_task=Quicksort
tick=2700958631500 9 cpu_id=0 next_pid=707 next_tgid=707 next_task=RealMM
tick=2701960345500 16 cpu_id=0 next_pid=702 next_tgid=702 next_task=Puzzle
tick=2702958652500 10 cpu_id=0 next_pid=708 next_tgid=708 next_task=IntMM
tick=2703959556000 7 cpu_id=0 next_pid=706 next_tgid=706 next_task=FloatMM
tick=2704960236500 11 cpu_id=0 next_pid=709 next_tgid=709 next_task=Perm
tick=2705959671000 17 cpu_id=0 next_pid=701 next_tgid=701 next_task=Queens
tick=2706959449500 12 cpu_id=0 next_pid=710 next_tgid=710 next_task=Oscar
tick=2707959263000 13 cpu_id=0 next_pid=711 next_tgid=711 next_task=Towers
tick=2708959618000 6 cpu_id=0 next_pid=705 next_tgid=705 next_task=Bubblesort
tick=2709959420500 14 cpu_id=0 next_pid=704 next_tgid=704 next_task=Treesort
tick=2710960931500 15 cpu_id=0 next_pid=703 next_tgid=703 next_task=Quicksort
tick=2711959588000 9 cpu_id=0 next_pid=707 next_tgid=707 next_task=RealMM
tick=2712959889000 16 cpu_id=0 next_pid=702 next_tgid=702 next_task=Puzzle
tick=2713958593500 10 cpu_id=0 next_pid=708 next_tgid=708 next_task=IntMM
tick=2714961416500 1 cpu_id=0 next_pid=-1 next_tgid=-1 next_task=kernel
tick=2714964659500 7 cpu_id=0 next_pid=706 next_tgid=706 next_task=FloatMM
tick=2715960126500 11 cpu_id=0 next_pid=709 next_tgid=709 next_task=Perm
tick=2716962273000 1 cpu_id=0 next_pid=-1 next_tgid=-1 next_task=kernel
tick=2716970420500 17 cpu_id=0 next_pid=701 next_tgid=701 next_task=Queens
tick=2717959889000 12 cpu_id=0 next_pid=710 next_tgid=710 next_task=Oscar
tick=2718959846000 13 cpu_id=0 next_pid=711 next_tgid=711 next_task=Towers
tick=2719959560000 6 cpu_id=0 next_pid=705 next_tgid=705 next_task=Bubblesort
tick=2720959355000 14 cpu_id=0 next_pid=704 next_tgid=704 next_task=Treesort
tick=2721960734500 15 cpu_id=0 next_pid=703 next_tgid=703 next_task=Quicksort
tick=2722959315000 9 cpu_id=0 next_pid=707 next_tgid=707 next_task=RealMM
tick=2723959780000 16 cpu_id=0 next_pid=702 next_tgid=702 next_task=Puzzle
tick=2724958426000 10 cpu_id=0 next_pid=708 next_tgid=708 next_task=IntMM
tick=2725959187000 7 cpu_id=0 next_pid=706 next_tgid=706 next_task=FloatMM
tick=2726959912000 17 cpu_id=0 next_pid=701 next_tgid=701 next_task=Queens
tick=2727959272000 11 cpu_id=0 next_pid=709 next_tgid=709 next_task=Perm
tick=2728959064000 12 cpu_id=0 next_pid=710 next_tgid=710 next_task=Oscar
tick=2729976352500 13 cpu_id=0 next_pid=711 next_tgid=711 next_task=Towers
tick=2730959382500 6 cpu_id=0 next_pid=705 next_tgid=705 next_task=Bubblesort
tick=2731958055500 14 cpu_id=0 next_pid=704 next_tgid=704 next_task=Treesort
tick=2732960115000 15 cpu_id=0 next_pid=703 next_tgid=703 next_task=Quicksort
tick=2733959087000 9 cpu_id=0 next_pid=707 next_tgid=707 next_task=RealMM
tick=2734959620000 16 cpu_id=0 next_pid=702 next_tgid=702 next_task=Puzzle
