tick=2654441708000 1 cpu_id=0 next_pid=-1 next_tgid=-1 next_task=kernel
tick=2654450757500 0 cpu_id=0 next_pid=698 next_tgid=698 next_task=m5
tick=2654525305500 2 cpu_id=0 next_pid=677 next_tgid=677 next_task=script
tick=2654835748500 3 cpu_id=0 next_pid=699 next_tgid=699 next_task=script
tick=2655428495000 2 cpu_id=0 next_pid=677 next_tgid=677 next_task=script
tick=2655523449000 4 cpu_id=0 next_pid=700 next_tgid=700 next_task=script
tick=2655974371000 1 cpu_id=0 next_pid=-1 next_tgid=-1 next_task=kernel
tick=2655977439500 1 cpu_id=0 next_pid=-1 next_tgid=-1 next_task=kernel
tick=2655989385500 1 cpu_id=0 next_pid=-1 next_tgid=-1 next_task=kernel
tick=2655991774000 4 cpu_id=0 next_pid=700 next_tgid=700 next_task=chmod
tick=2656235935000 2 cpu_id=0 next_pid=677 next_tgid=677 next_task=script
tick=2657085124000 1 cpu_id=0 next_pid=-1 next_tgid=-1 next_task=kernel
tick=2657088430500 5 cpu_id=0 next_pid=701 next_tgid=701 next_task=sh
tick=2657642081000 2 cpu_id=0 next_pid=677 next_tgid=677 next_task=sh
tick=2657848669500 6 cpu_id=0 next_pid=1 next_tgid=1 next_task=init
tick=2657876589000 7 cpu_id=0 next_pid=704 next_tgid=704 next_task=init
tick=2657969131000 1 cpu_id=0 next_pid=-1 next_tgid=-1 next_task=kernel
tick=2657972241000 7 cpu_id=0 next_pid=704 next_tgid=704 next_task=init
tick=2658001632500 6 cpu_id=0 next_pid=1 next_tgid=1 next_task=init
tick=2658009936500 7 cpu_id=0 next_pid=704 next_tgid=704 next_task=getty
tick=2658630608500 8 cpu_id=0 next_pid=703 next_tgid=703 next_task=sh
tick=2658915787500 9 cpu_id=0 next_pid=702 next_tgid=702 next_task=sh
tick=2658973684000 1 cpu_id=0 next_pid=-1 next_tgid=-1 next_task=kernel
tick=2658976579000 1 cpu_id=0 next_pid=-1 next_tgid=-1 next_task=kernel
tick=2658987571500 1 cpu_id=0 next_pid=-1 next_tgid=-1 next_task=kernel
tick=2658990180000 8 cpu_id=0 next_pid=703 next_tgid=703 next_task=sh
tick=2659347647000 9 cpu_id=0 next_pid=702 next_tgid=702 next_task=sh
tick=2659520839000 8 cpu_id=0 next_pid=703 next_tgid=703 next_task=Puzzle
tick=2659626754500 9 cpu_id=0 next_pid=702 next_tgid=702 next_task=sh
tick=2659809877500 8 cpu_id=0 next_pid=703 next_tgid=703 next_task=Puzzle
tick=2659893774000 9 cpu_id=0 next_pid=702 next_tgid=702 next_task=Queens
tick=2659903369500 10 cpu_id=0 next_pid=0 next_tgid=0 next_task=swapper/0
tick=2660017644500 1 cpu_id=0 next_pid=-1 next_tgid=-1 next_task=kernel
tick=2660020740000 1 cpu_id=0 next_pid=-1 next_tgid=-1 next_task=kernel
tick=2660022744500 8 cpu_id=0 next_pid=703 next_tgid=703 next_task=Puzzle
tick=2660235115000 9 cpu_id=0 next_pid=702 next_tgid=702 next_task=Queens
tick=2660363716500 8 cpu_id=0 next_pid=703 next_tgid=703 next_task=Puzzle
tick=2660404777000 10 cpu_id=0 next_pid=0 next_tgid=0 next_task=swapper/0
tick=2660459561000 9 cpu_id=0 next_pid=702 next_tgid=702 next_task=Queens
tick=2660580947000 8 cpu_id=0 next_pid=703 next_tgid=703 next_task=Puzzle
tick=2660771346500 9 cpu_id=0 next_pid=702 next_tgid=702 next_task=Queens
tick=2660905925500 8 cpu_id=0 next_pid=703 next_tgid=703 next_task=Puzzle
tick=2660967103500 1 cpu_id=0 next_pid=-1 next_tgid=-1 next_task=kernel
tick=2660969365500 8 cpu_id=0 next_pid=703 next_tgid=703 next_task=Puzzle
tick=2661069425500 9 cpu_id=0 next_pid=702 next_tgid=702 next_task=Queens
tick=2661163294000 8 cpu_id=0 next_pid=703 next_tgid=703 next_task=Puzzle
tick=2661964380000 1 cpu_id=0 next_pid=-1 next_tgid=-1 next_task=kernel
tick=2661966754500 9 cpu_id=0 next_pid=702 next_tgid=702 next_task=Queens
tick=2663040496000 8 cpu_id=0 next_pid=703 next_tgid=703 next_task=Puzzle
tick=2663964324000 1 cpu_id=0 next_pid=-1 next_tgid=-1 next_task=kernel
tick=2663966438500 9 cpu_id=0 next_pid=702 next_tgid=702 next_task=Queens
tick=2664963315000 1 cpu_id=0 next_pid=-1 next_tgid=-1 next_task=kernel
tick=2664965355500 8 cpu_id=0 next_pid=703 next_tgid=703 next_task=Puzzle
tick=2668959886500 9 cpu_id=0 next_pid=702 next_tgid=702 next_task=Queens
tick=2672960449500 8 cpu_id=0 next_pid=703 next_tgid=703 next_task=Puzzle
tick=2676959889000 9 cpu_id=0 next_pid=702 next_tgid=702 next_task=Queens
tick=2680960409000 8 cpu_id=0 next_pid=703 next_tgid=703 next_task=Puzzle
tick=2684959782500 9 cpu_id=0 next_pid=702 next_tgid=702 next_task=Queens
tick=2688960073500 8 cpu_id=0 next_pid=703 next_tgid=703 next_task=Puzzle
tick=2692959522000 9 cpu_id=0 next_pid=702 next_tgid=702 next_task=Queens
tick=2696960076500 8 cpu_id=0 next_pid=703 next_tgid=703 next_task=Puzzle
tick=2700959566500 9 cpu_id=0 next_pid=702 next_tgid=702 next_task=Queens
tick=2704959971500 8 cpu_id=0 next_pid=703 next_tgid=703 next_task=Puzzle
tick=2708959421500 9 cpu_id=0 next_pid=702 next_tgid=702 next_task=Queens
tick=2712959935500 8 cpu_id=0 next_pid=703 next_tgid=703 next_task=Puzzle
tick=2714961389000 1 cpu_id=0 next_pid=-1 next_tgid=-1 next_task=kernel
tick=2714964715500 9 cpu_id=0 next_pid=702 next_tgid=702 next_task=Queens
tick=2716963045500 1 cpu_id=0 next_pid=-1 next_tgid=-1 next_task=kernel
tick=2716970849500 8 cpu_id=0 next_pid=703 next_tgid=703 next_task=Puzzle
tick=2720959434000 9 cpu_id=0 next_pid=702 next_tgid=702 next_task=Queens
tick=2724959694500 8 cpu_id=0 next_pid=703 next_tgid=703 next_task=Puzzle
tick=2728959052000 9 cpu_id=0 next_pid=702 next_tgid=702 next_task=Queens
tick=2732959613500 8 cpu_id=0 next_pid=703 next_tgid=703 next_task=Puzzle
tick=2736959119000 9 cpu_id=0 next_pid=702 next_tgid=702 next_task=Queens
