<?xml version="1.0" encoding="utf-8" standalone="no"?>
<!DOCTYPE svg PUBLIC "-//W3C//DTD SVG 1.1//EN"
  "http://www.w3.org/Graphics/SVG/1.1/DTD/svg11.dtd">
<!-- Created with matplotlib (http://matplotlib.org/) -->
<svg height="360pt" version="1.1" viewBox="0 0 864 360" width="864pt" xmlns="http://www.w3.org/2000/svg" xmlns:xlink="http://www.w3.org/1999/xlink">
 <defs>
  <style type="text/css">
*{stroke-linecap:butt;stroke-linejoin:round;}
  </style>
 </defs>
 <g id="figure_1">
  <g id="patch_1">
   <path d="
M0 360
L864 360
L864 0
L0 0
z
" style="fill:#ffffff;"/>
  </g>
  <g id="axes_1">
   <g id="patch_2">
    <path d="
M108 315
L412.364 315
L412.364 36
L108 36
z
" style="fill:#ffffff;"/>
   </g>
   <g id="line2d_1">
    <path clip-path="url(#pa399c4f1e5)" d="
M106.617 312.677
L108 312.677
L108 312.677
L108 312.677
L109.383 312.677
L109.383 312.677
L109.383 312.677
L110.767 312.677
L110.767 312.677
L110.767 312.677
L112.15 312.677
L112.15 312.677
L112.15 312.677
L112.15 310.355
L112.15 310.355
L112.15 310.355
L113.534 310.355
L113.534 310.355
L113.534 310.355
L114.917 310.355
L114.917 310.355
L114.917 310.355
L116.301 310.355
L116.301 310.355
L116.301 310.355
L117.684 310.355
L117.684 310.355
L117.684 310.355
L119.068 310.355
L119.068 310.355
L119.068 310.355
L120.451 310.355
L120.451 310.355
L120.451 310.355
L121.835 310.355
L121.835 310.355
L121.835 310.355
L123.218 310.355
L123.218 310.355
L123.218 310.355
L124.602 310.355
L124.602 310.355
L124.602 310.355
L125.985 310.355
L125.985 310.355
L125.985 310.355
L127.369 310.355
L127.369 310.355
L127.369 310.355
L127.369 312.677
L127.369 312.677
L127.369 312.677
L128.752 312.677
L128.752 312.677
L128.752 312.677
L130.136 312.677
L130.136 312.677
L130.136 312.677
L131.519 312.677
L131.519 312.677
L131.519 312.677
L132.902 312.677
L132.902 312.677
L132.902 312.677
L134.286 312.677
L134.286 312.677
L134.286 312.677
L134.286 310.355
L134.286 310.355
L134.286 310.355
L135.669 310.355
L135.669 282.483
L137.053 277.837
L137.053 252.288
L138.436 249.965
L138.436 236.029
L138.436 236.029
L139.82 231.384
L139.82 215.125
L141.203 212.802
L141.203 198.866
L142.587 198.866
L142.587 189.575
L143.97 189.575
L143.97 189.575
L143.97 177.962
L145.354 177.962
L145.354 177.962
L145.354 166.349
L145.354 166.349
L146.737 164.026
L146.737 145.445
L146.737 145.445
L148.121 145.445
L148.121 145.445
L148.121 138.477
L148.121 138.477
L149.504 136.154
L149.504 136.154
L149.504 122.218
L149.504 122.218
L150.888 122.218
L150.888 105.959
L150.888 105.959
L152.271 105.959
L152.271 105.959
L152.271 98.991
L152.271 98.991
L153.655 98.991
L153.655 98.991
L153.655 94.3457
L153.655 94.3457
L155.038 92.023
L155.038 92.023
L155.038 82.7323
L155.038 82.7323
L156.421 82.7323
L156.421 82.7323
L156.421 78.0869
L156.421 78.0869
L156.421 78.0869
L156.421 103.636
L157.805 105.959
L157.805 140.799
L157.805 138.477
L159.188 138.477
L159.188 161.703
L159.188 161.703
L160.572 168.671
L160.572 187.253
L160.572 187.253
L161.955 189.575
L161.955 189.575
L161.955 173.317
L161.955 175.639
L163.339 175.639
L163.339 175.639
L163.339 191.898
L164.722 191.898
L164.722 215.125
L164.722 215.125
L166.106 215.125
L166.106 215.125
L166.106 224.416
L166.106 224.416
L167.489 226.738
L167.489 226.738
L167.489 252.288
L168.873 252.288
L168.873 261.578
L168.873 261.578
L170.256 261.578
L170.256 261.578
L170.256 266.224
L170.256 263.901
L170.256 263.901
L170.256 261.578
L170.256 261.578
L171.64 261.578
L171.64 277.837
L171.64 277.837
L173.023 277.837
L173.023 280.16
L173.023 280.16
L173.023 280.16
L173.023 273.192
L173.023 273.192
L174.407 273.192
L174.407 273.192
L174.407 270.869
L174.407 270.869
L174.407 270.869
L174.407 273.192
L174.407 273.192
L175.79 273.192
L175.79 273.192
L175.79 270.869
L177.174 270.869
L177.174 270.869
L177.174 275.514
L178.557 277.837
L178.557 294.096
L178.557 294.096
L184.091 294.096
L184.091 294.096
L184.091 273.192
L185.474 270.869
L185.474 270.869
L185.474 263.901
L186.858 263.901
L186.858 263.901
L186.858 259.256
L186.858 259.256
L188.241 259.256
L188.241 254.61
L188.241 254.61
L189.625 254.61
L189.625 254.61
L189.625 263.901
L191.008 263.901
L191.008 263.901
L191.008 266.224
L191.008 266.224
L192.392 266.224
L192.392 263.901
L192.392 263.901
L192.392 263.901
L192.392 266.224
L192.392 266.224
L193.775 266.224
L193.775 266.224
L193.775 261.578
L193.775 261.578
L195.159 261.578
L195.159 261.578
L195.159 259.256
L195.159 259.256
L196.542 259.256
L196.542 259.256
L196.542 249.965
L196.542 249.965
L197.926 249.965
L197.926 249.965
L197.926 247.642
L197.926 247.642
L199.309 247.642
L199.309 247.642
L199.309 245.32
L199.309 245.32
L200.693 245.32
L200.693 245.32
L200.693 261.578
L202.076 263.901
L202.076 275.514
L202.076 275.514
L203.46 275.514
L203.46 275.514
L203.46 287.128
L203.46 287.128
L204.843 287.128
L204.843 287.128
L204.843 289.451
L204.843 289.451
L206.226 289.451
L206.226 289.451
L207.61 287.128
L207.61 287.128
L207.61 268.546
L207.61 270.869
L208.993 270.869
L208.993 270.869
L208.993 268.546
L208.993 268.546
L210.377 266.224
L210.377 266.224
L210.377 261.578
L210.377 261.578
L211.76 261.578
L211.76 261.578
L211.76 259.256
L211.76 259.256
L211.76 259.256
L211.76 261.578
L211.76 261.578
L213.144 261.578
L213.144 261.578
L213.144 270.869
L213.144 270.869
L214.527 270.869
L214.527 270.869
L214.527 273.192
L214.527 273.192
L214.527 273.192
L214.527 270.869
L214.527 270.869
L215.911 270.869
L215.911 270.869
L215.911 273.192
L215.911 273.192
L217.294 270.869
L217.294 270.869
L218.678 270.869
L218.678 270.869
L218.678 263.901
L218.678 263.901
L220.061 263.901
L220.061 259.256
L220.061 259.256
L222.828 259.256
L222.828 259.256
L222.828 256.933
L222.828 256.933
L224.212 256.933
L224.212 256.933
L224.212 277.837
L224.212 277.837
L225.595 280.16
L225.595 280.16
L225.595 287.128
L225.595 287.128
L226.979 289.451
L226.979 289.451
L226.979 294.096
L226.979 294.096
L229.745 294.096
L229.745 294.096
L229.745 287.128
L229.745 287.128
L231.129 287.128
L231.129 287.128
L231.129 289.451
L231.129 289.451
L232.512 289.451
L232.512 289.451
L232.512 291.773
L232.512 291.773
L233.896 291.773
L233.896 291.773
L235.279 294.096
L235.279 294.096
L235.279 303.387
L235.279 303.387
L238.046 303.387
L238.046 303.387
L238.046 305.709
L238.046 305.709
L238.046 305.709
L238.046 301.064
L238.046 301.064
L240.813 301.064
L240.813 301.064
L240.813 291.773
L243.58 291.773
L243.58 291.773
L243.58 289.451
L243.58 289.451
L244.964 289.451
L244.964 289.451
L244.964 294.096
L244.964 294.096
L246.347 296.419
L246.347 296.419
L251.881 296.419
L251.881 296.419
L251.881 289.451
L251.881 289.451
L254.648 289.451
L254.648 289.451
L254.648 294.096
L254.648 294.096
L256.031 294.096
L256.031 294.096
L256.031 301.064
L257.415 301.064
L257.415 301.064
L257.415 303.387
L257.415 303.387
L258.798 303.387
L258.798 303.387
L260.182 305.709
L260.182 305.709
L260.182 301.064
L260.182 301.064
L262.949 301.064
L262.949 301.064
L262.949 291.773
L262.949 291.773
L265.716 291.773
L265.716 291.773
L265.716 289.451
L265.716 289.451
L267.099 289.451
L267.099 289.451
L267.099 296.419
L267.099 296.419
L272.633 296.419
L272.633 296.419
L272.633 294.096
L274.017 291.773
L274.017 291.773
L274.017 289.451
L274.017 289.451
L275.4 289.451
L275.4 289.451
L275.4 291.773
L275.4 291.773
L276.783 294.096
L276.783 294.096
L278.167 294.096
L278.167 294.096
L278.167 303.387
L278.167 303.387
L280.934 303.387
L280.934 303.387
L280.934 305.709
L280.934 305.709
L282.317 305.709
L282.317 305.709
L282.317 301.064
L282.317 301.064
L283.701 301.064
L283.701 301.064
L283.701 298.741
L285.084 298.741
L285.084 291.773
L285.084 291.773
L287.851 291.773
L287.851 291.773
L287.851 289.451
L287.851 289.451
L289.235 289.451
L289.235 289.451
L289.235 296.419
L289.235 296.419
L294.769 296.419
L294.769 296.419
L294.769 289.451
L297.536 289.451
L297.536 289.451
L297.536 294.096
L297.536 294.096
L300.302 294.096
L300.302 294.096
L300.302 303.387
L300.302 303.387
L303.069 303.387
L303.069 303.387
L303.069 305.709
L303.069 305.709
L303.069 305.709
L303.069 303.387
L304.453 303.387
L304.453 301.064
L304.453 301.064
L305.836 301.064
L305.836 301.064
L305.836 294.096
L307.22 294.096
L307.22 294.096
L307.22 291.773
L307.22 291.773
L309.987 291.773
L309.987 291.773
L309.987 289.451
L309.987 289.451
L311.37 289.451
L311.37 289.451
L311.37 296.419
L311.37 296.419
L316.904 296.419
L316.904 296.419
L316.904 291.773
L316.904 291.773
L319.671 291.773
L319.671 291.773
L319.671 296.419
L319.671 296.419
L321.055 296.419
L321.055 296.419
L321.055 298.741
L322.438 298.741
L322.438 305.709
L322.438 305.709
L325.205 305.709
L325.205 305.709
L325.205 308.032
L325.205 308.032
L327.972 308.032
L327.972 308.032
L327.972 298.741
L327.972 298.741
L330.739 298.741
L330.739 298.741
L330.739 296.419
L330.739 296.419
L332.122 296.419
L332.122 296.419
L332.122 301.064
L332.122 301.064
L339.04 301.064
L339.04 294.096
L339.04 294.096
L343.19 294.096
L343.19 294.096
L343.19 303.387
L345.957 303.387
L345.957 303.387
L345.957 305.709
L345.957 305.709
L347.34 305.709
L347.34 305.709
L347.34 303.387
L347.34 303.387
L348.724 303.387
L348.724 303.387
L350.107 301.064
L350.107 301.064
L350.107 294.096
L350.107 294.096
L351.491 294.096
L351.491 294.096
L351.491 291.773
L351.491 291.773
L352.874 291.773
L352.874 291.773
L352.874 289.451
L352.874 289.451
L354.258 289.451
L354.258 289.451
L354.258 296.419
L354.258 296.419
L359.792 296.419
L359.792 296.419
L359.792 291.773
L361.175 291.773
L361.175 289.451
L361.175 289.451
L362.559 289.451
L362.559 289.451
L362.559 291.773
L362.559 291.773
L365.326 291.773
L365.326 291.773
L365.326 301.064
L365.326 301.064
L366.709 301.064
L366.709 301.064
L366.709 303.387
L366.709 303.387
L368.093 303.387
L368.093 303.387
L368.093 305.709
L368.093 305.709
L369.476 303.387
L369.476 303.387
L369.476 301.064
L369.476 301.064
L370.86 301.064
L370.86 301.064
L370.86 298.741
L370.86 298.741
L372.243 296.419
L372.243 291.773
L372.243 291.773
L375.01 291.773
L375.01 291.773
L375.01 289.451
L375.01 289.451
L376.393 289.451
L376.393 289.451
L376.393 296.419
L376.393 296.419
L381.927 296.419
L381.927 296.419
L381.927 289.451
L381.927 289.451
L384.694 289.451
L384.694 289.451
L384.694 294.096
L384.694 294.096
L387.461 294.096
L387.461 294.096
L387.461 303.387
L387.461 303.387
L390.228 303.387
L390.228 303.387
L390.228 305.709
L390.228 305.709
L390.228 305.709
L390.228 303.387
L390.228 303.387
L391.612 301.064
L391.612 301.064
L392.995 301.064
L392.995 301.064
L392.995 294.096
L392.995 294.096
L394.379 291.773
L394.379 291.773
L395.762 291.773
L395.762 291.773
L397.145 289.451
L397.145 289.451
L397.145 291.773
L398.529 294.096
L398.529 294.096
L398.529 296.419
L398.529 296.419
L404.063 296.419
L404.063 296.419
L404.063 289.451
L404.063 289.451
L406.83 289.451
L406.83 289.451
L406.83 294.096
L406.83 294.096
L408.213 294.096
L408.213 294.096
L408.213 296.419
L408.213 296.419
L409.597 298.741
L409.597 303.387
L409.597 303.387
L412.364 303.387
L412.364 303.387
L412.364 305.709
L412.364 305.709
L412.364 305.709
L412.364 301.064
L412.364 301.064
L413.747 301.064
L413.747 301.064" style="fill:none;stroke:#0000ff;stroke-linecap:square;stroke-width:0.8;"/>
   </g>
   <g id="patch_3">
    <path d="
M108 36
L412.364 36" style="fill:none;stroke:#000000;stroke-linecap:square;stroke-linejoin:miter;"/>
   </g>
   <g id="patch_4">
    <path d="
M412.364 315
L412.364 36" style="fill:none;stroke:#000000;stroke-linecap:square;stroke-linejoin:miter;"/>
   </g>
   <g id="patch_5">
    <path d="
M108 315
L412.364 315" style="fill:none;stroke:#000000;stroke-linecap:square;stroke-linejoin:miter;"/>
   </g>
   <g id="patch_6">
    <path d="
M108 315
L108 36" style="fill:none;stroke:#000000;stroke-linecap:square;stroke-linejoin:miter;"/>
   </g>
   <g id="matplotlib.axis_1">
    <g id="xtick_1">
     <g id="line2d_2">
      <path clip-path="url(#pa399c4f1e5)" d="
M135.669 315
L135.669 36" style="fill:none;stroke:#000000;stroke-dasharray:1.000000,3.000000;stroke-dashoffset:0.0;stroke-width:0.5;"/>
     </g>
     <g id="line2d_3">
      <defs>
       <path d="
M0 0
L0 -4" id="m93b0483c22" style="stroke:#000000;stroke-width:0.5;"/>
      </defs>
      <g>
       <use style="stroke:#000000;stroke-width:0.5;" x="135.669421488" xlink:href="#m93b0483c22" y="315.0"/>
      </g>
     </g>
     <g id="line2d_4">
      <defs>
       <path d="
M0 0
L0 4" id="m741efc42ff" style="stroke:#000000;stroke-width:0.5;"/>
      </defs>
      <g>
       <use style="stroke:#000000;stroke-width:0.5;" x="135.669421488" xlink:href="#m741efc42ff" y="36.0"/>
      </g>
     </g>
     <g id="text_1">
      <!-- 0 -->
      <defs>
       <path d="
M31.7812 66.4062
Q24.1719 66.4062 20.3281 58.9062
Q16.5 51.4219 16.5 36.375
Q16.5 21.3906 20.3281 13.8906
Q24.1719 6.39062 31.7812 6.39062
Q39.4531 6.39062 43.2812 13.8906
Q47.125 21.3906 47.125 36.375
Q47.125 51.4219 43.2812 58.9062
Q39.4531 66.4062 31.7812 66.4062
M31.7812 74.2188
Q44.0469 74.2188 50.5156 64.5156
Q56.9844 54.8281 56.9844 36.375
Q56.9844 17.9688 50.5156 8.26562
Q44.0469 -1.42188 31.7812 -1.42188
Q19.5312 -1.42188 13.0625 8.26562
Q6.59375 17.9688 6.59375 36.375
Q6.59375 54.8281 13.0625 64.5156
Q19.5312 74.2188 31.7812 74.2188" id="BitstreamVeraSans-Roman-30"/>
      </defs>
      <g transform="translate(133.149890238 326.5984375)scale(0.1 -0.1)">
       <use xlink:href="#BitstreamVeraSans-Roman-30"/>
      </g>
     </g>
    </g>
    <g id="xtick_2">
     <g id="line2d_5">
      <path clip-path="url(#pa399c4f1e5)" d="
M204.843 315
L204.843 36" style="fill:none;stroke:#000000;stroke-dasharray:1.000000,3.000000;stroke-dashoffset:0.0;stroke-width:0.5;"/>
     </g>
     <g id="line2d_6">
      <g>
       <use style="stroke:#000000;stroke-width:0.5;" x="204.842975207" xlink:href="#m93b0483c22" y="315.0"/>
      </g>
     </g>
     <g id="line2d_7">
      <g>
       <use style="stroke:#000000;stroke-width:0.5;" x="204.842975207" xlink:href="#m741efc42ff" y="36.0"/>
      </g>
     </g>
     <g id="text_2">
      <!-- 50 -->
      <defs>
       <path d="
M10.7969 72.9062
L49.5156 72.9062
L49.5156 64.5938
L19.8281 64.5938
L19.8281 46.7344
Q21.9688 47.4688 24.1094 47.8281
Q26.2656 48.1875 28.4219 48.1875
Q40.625 48.1875 47.75 41.5
Q54.8906 34.8125 54.8906 23.3906
Q54.8906 11.625 47.5625 5.09375
Q40.2344 -1.42188 26.9062 -1.42188
Q22.3125 -1.42188 17.5469 -0.640625
Q12.7969 0.140625 7.71875 1.70312
L7.71875 11.625
Q12.1094 9.23438 16.7969 8.0625
Q21.4844 6.89062 26.7031 6.89062
Q35.1562 6.89062 40.0781 11.3281
Q45.0156 15.7656 45.0156 23.3906
Q45.0156 31 40.0781 35.4375
Q35.1562 39.8906 26.7031 39.8906
Q22.75 39.8906 18.8125 39.0156
Q14.8906 38.1406 10.7969 36.2812
z
" id="BitstreamVeraSans-Roman-35"/>
      </defs>
      <g transform="translate(199.198443957 326.5984375)scale(0.1 -0.1)">
       <use xlink:href="#BitstreamVeraSans-Roman-35"/>
       <use x="63.623046875" xlink:href="#BitstreamVeraSans-Roman-30"/>
      </g>
     </g>
    </g>
    <g id="xtick_3">
     <g id="line2d_8">
      <path clip-path="url(#pa399c4f1e5)" d="
M274.017 315
L274.017 36" style="fill:none;stroke:#000000;stroke-dasharray:1.000000,3.000000;stroke-dashoffset:0.0;stroke-width:0.5;"/>
     </g>
     <g id="line2d_9">
      <g>
       <use style="stroke:#000000;stroke-width:0.5;" x="274.016528926" xlink:href="#m93b0483c22" y="315.0"/>
      </g>
     </g>
     <g id="line2d_10">
      <g>
       <use style="stroke:#000000;stroke-width:0.5;" x="274.016528926" xlink:href="#m741efc42ff" y="36.0"/>
      </g>
     </g>
     <g id="text_3">
      <!-- 100 -->
      <defs>
       <path d="
M12.4062 8.29688
L28.5156 8.29688
L28.5156 63.9219
L10.9844 60.4062
L10.9844 69.3906
L28.4219 72.9062
L38.2812 72.9062
L38.2812 8.29688
L54.3906 8.29688
L54.3906 0
L12.4062 0
z
" id="BitstreamVeraSans-Roman-31"/>
      </defs>
      <g transform="translate(265.354028926 326.5984375)scale(0.1 -0.1)">
       <use xlink:href="#BitstreamVeraSans-Roman-31"/>
       <use x="63.623046875" xlink:href="#BitstreamVeraSans-Roman-30"/>
       <use x="127.24609375" xlink:href="#BitstreamVeraSans-Roman-30"/>
      </g>
     </g>
    </g>
    <g id="xtick_4">
     <g id="line2d_11">
      <path clip-path="url(#pa399c4f1e5)" d="
M343.19 315
L343.19 36" style="fill:none;stroke:#000000;stroke-dasharray:1.000000,3.000000;stroke-dashoffset:0.0;stroke-width:0.5;"/>
     </g>
     <g id="line2d_12">
      <g>
       <use style="stroke:#000000;stroke-width:0.5;" x="343.190082645" xlink:href="#m93b0483c22" y="315.0"/>
      </g>
     </g>
     <g id="line2d_13">
      <g>
       <use style="stroke:#000000;stroke-width:0.5;" x="343.190082645" xlink:href="#m741efc42ff" y="36.0"/>
      </g>
     </g>
     <g id="text_4">
      <!-- 150 -->
      <g transform="translate(334.527582645 326.5984375)scale(0.1 -0.1)">
       <use xlink:href="#BitstreamVeraSans-Roman-31"/>
       <use x="63.623046875" xlink:href="#BitstreamVeraSans-Roman-35"/>
       <use x="127.24609375" xlink:href="#BitstreamVeraSans-Roman-30"/>
      </g>
     </g>
    </g>
    <g id="xtick_5">
     <g id="line2d_14">
      <path clip-path="url(#pa399c4f1e5)" d="
M412.364 315
L412.364 36" style="fill:none;stroke:#000000;stroke-dasharray:1.000000,3.000000;stroke-dashoffset:0.0;stroke-width:0.5;"/>
     </g>
     <g id="line2d_15">
      <g>
       <use style="stroke:#000000;stroke-width:0.5;" x="412.363636364" xlink:href="#m93b0483c22" y="315.0"/>
      </g>
     </g>
     <g id="line2d_16">
      <g>
       <use style="stroke:#000000;stroke-width:0.5;" x="412.363636364" xlink:href="#m741efc42ff" y="36.0"/>
      </g>
     </g>
     <g id="text_5">
      <!-- 200 -->
      <defs>
       <path d="
M19.1875 8.29688
L53.6094 8.29688
L53.6094 0
L7.32812 0
L7.32812 8.29688
Q12.9375 14.1094 22.625 23.8906
Q32.3281 33.6875 34.8125 36.5312
Q39.5469 41.8438 41.4219 45.5312
Q43.3125 49.2188 43.3125 52.7812
Q43.3125 58.5938 39.2344 62.25
Q35.1562 65.9219 28.6094 65.9219
Q23.9688 65.9219 18.8125 64.3125
Q13.6719 62.7031 7.8125 59.4219
L7.8125 69.3906
Q13.7656 71.7812 18.9375 73
Q24.125 74.2188 28.4219 74.2188
Q39.75 74.2188 46.4844 68.5469
Q53.2188 62.8906 53.2188 53.4219
Q53.2188 48.9219 51.5312 44.8906
Q49.8594 40.875 45.4062 35.4062
Q44.1875 33.9844 37.6406 27.2188
Q31.1094 20.4531 19.1875 8.29688" id="BitstreamVeraSans-Roman-32"/>
      </defs>
      <g transform="translate(403.518323864 326.5984375)scale(0.1 -0.1)">
       <use xlink:href="#BitstreamVeraSans-Roman-32"/>
       <use x="63.623046875" xlink:href="#BitstreamVeraSans-Roman-30"/>
       <use x="127.24609375" xlink:href="#BitstreamVeraSans-Roman-30"/>
      </g>
     </g>
    </g>
    <g id="text_6">
     <!-- Instruction (thousands) -->
     <defs>
      <path id="BitstreamVeraSans-Roman-20"/>
      <path d="
M54.8906 33.0156
L54.8906 0
L45.9062 0
L45.9062 32.7188
Q45.9062 40.4844 42.875 44.3281
Q39.8438 48.1875 33.7969 48.1875
Q26.5156 48.1875 22.3125 43.5469
Q18.1094 38.9219 18.1094 30.9062
L18.1094 0
L9.07812 0
L9.07812 54.6875
L18.1094 54.6875
L18.1094 46.1875
Q21.3438 51.125 25.7031 53.5625
Q30.0781 56 35.7969 56
Q45.2188 56 50.0469 50.1719
Q54.8906 44.3438 54.8906 33.0156" id="BitstreamVeraSans-Roman-6e"/>
      <path d="
M31 75.875
Q24.4688 64.6562 21.2812 53.6562
Q18.1094 42.6719 18.1094 31.3906
Q18.1094 20.125 21.3125 9.0625
Q24.5156 -2 31 -13.1875
L23.1875 -13.1875
Q15.875 -1.70312 12.2344 9.375
Q8.59375 20.4531 8.59375 31.3906
Q8.59375 42.2812 12.2031 53.3125
Q15.8281 64.3594 23.1875 75.875
z
" id="BitstreamVeraSans-Roman-28"/>
      <path d="
M30.6094 48.3906
Q23.3906 48.3906 19.1875 42.75
Q14.9844 37.1094 14.9844 27.2969
Q14.9844 17.4844 19.1562 11.8438
Q23.3438 6.20312 30.6094 6.20312
Q37.7969 6.20312 41.9844 11.8594
Q46.1875 17.5312 46.1875 27.2969
Q46.1875 37.0156 41.9844 42.7031
Q37.7969 48.3906 30.6094 48.3906
M30.6094 56
Q42.3281 56 49.0156 48.375
Q55.7188 40.7656 55.7188 27.2969
Q55.7188 13.875 49.0156 6.21875
Q42.3281 -1.42188 30.6094 -1.42188
Q18.8438 -1.42188 12.1719 6.21875
Q5.51562 13.875 5.51562 27.2969
Q5.51562 40.7656 12.1719 48.375
Q18.8438 56 30.6094 56" id="BitstreamVeraSans-Roman-6f"/>
      <path d="
M8.01562 75.875
L15.8281 75.875
Q23.1406 64.3594 26.7812 53.3125
Q30.4219 42.2812 30.4219 31.3906
Q30.4219 20.4531 26.7812 9.375
Q23.1406 -1.70312 15.8281 -13.1875
L8.01562 -13.1875
Q14.5 -2 17.7031 9.0625
Q20.9062 20.125 20.9062 31.3906
Q20.9062 42.6719 17.7031 53.6562
Q14.5 64.6562 8.01562 75.875" id="BitstreamVeraSans-Roman-29"/>
      <path d="
M34.2812 27.4844
Q23.3906 27.4844 19.1875 25
Q14.9844 22.5156 14.9844 16.5
Q14.9844 11.7188 18.1406 8.90625
Q21.2969 6.10938 26.7031 6.10938
Q34.1875 6.10938 38.7031 11.4062
Q43.2188 16.7031 43.2188 25.4844
L43.2188 27.4844
z

M52.2031 31.2031
L52.2031 0
L43.2188 0
L43.2188 8.29688
Q40.1406 3.32812 35.5469 0.953125
Q30.9531 -1.42188 24.3125 -1.42188
Q15.9219 -1.42188 10.9531 3.29688
Q6 8.01562 6 15.9219
Q6 25.1406 12.1719 29.8281
Q18.3594 34.5156 30.6094 34.5156
L43.2188 34.5156
L43.2188 35.4062
Q43.2188 41.6094 39.1406 45
Q35.0625 48.3906 27.6875 48.3906
Q23 48.3906 18.5469 47.2656
Q14.1094 46.1406 10.0156 43.8906
L10.0156 52.2031
Q14.9375 54.1094 19.5781 55.0469
Q24.2188 56 28.6094 56
Q40.4844 56 46.3438 49.8438
Q52.2031 43.7031 52.2031 31.2031" id="BitstreamVeraSans-Roman-61"/>
      <path d="
M9.42188 54.6875
L18.4062 54.6875
L18.4062 0
L9.42188 0
z

M9.42188 75.9844
L18.4062 75.9844
L18.4062 64.5938
L9.42188 64.5938
z
" id="BitstreamVeraSans-Roman-69"/>
      <path d="
M48.7812 52.5938
L48.7812 44.1875
Q44.9688 46.2969 41.1406 47.3438
Q37.3125 48.3906 33.4062 48.3906
Q24.6562 48.3906 19.8125 42.8438
Q14.9844 37.3125 14.9844 27.2969
Q14.9844 17.2812 19.8125 11.7344
Q24.6562 6.20312 33.4062 6.20312
Q37.3125 6.20312 41.1406 7.25
Q44.9688 8.29688 48.7812 10.4062
L48.7812 2.09375
Q45.0156 0.34375 40.9844 -0.53125
Q36.9688 -1.42188 32.4219 -1.42188
Q20.0625 -1.42188 12.7812 6.34375
Q5.51562 14.1094 5.51562 27.2969
Q5.51562 40.6719 12.8594 48.3281
Q20.2188 56 33.0156 56
Q37.1562 56 41.1094 55.1406
Q45.0625 54.2969 48.7812 52.5938" id="BitstreamVeraSans-Roman-63"/>
      <path d="
M45.4062 46.3906
L45.4062 75.9844
L54.3906 75.9844
L54.3906 0
L45.4062 0
L45.4062 8.20312
Q42.5781 3.32812 38.25 0.953125
Q33.9375 -1.42188 27.875 -1.42188
Q17.9688 -1.42188 11.7344 6.48438
Q5.51562 14.4062 5.51562 27.2969
Q5.51562 40.1875 11.7344 48.0938
Q17.9688 56 27.875 56
Q33.9375 56 38.25 53.625
Q42.5781 51.2656 45.4062 46.3906
M14.7969 27.2969
Q14.7969 17.3906 18.875 11.75
Q22.9531 6.10938 30.0781 6.10938
Q37.2031 6.10938 41.2969 11.75
Q45.4062 17.3906 45.4062 27.2969
Q45.4062 37.2031 41.2969 42.8438
Q37.2031 48.4844 30.0781 48.4844
Q22.9531 48.4844 18.875 42.8438
Q14.7969 37.2031 14.7969 27.2969" id="BitstreamVeraSans-Roman-64"/>
      <path d="
M18.3125 70.2188
L18.3125 54.6875
L36.8125 54.6875
L36.8125 47.7031
L18.3125 47.7031
L18.3125 18.0156
Q18.3125 11.3281 20.1406 9.42188
Q21.9688 7.51562 27.5938 7.51562
L36.8125 7.51562
L36.8125 0
L27.5938 0
Q17.1875 0 13.2344 3.875
Q9.28125 7.76562 9.28125 18.0156
L9.28125 47.7031
L2.6875 47.7031
L2.6875 54.6875
L9.28125 54.6875
L9.28125 70.2188
z
" id="BitstreamVeraSans-Roman-74"/>
      <path d="
M8.5 21.5781
L8.5 54.6875
L17.4844 54.6875
L17.4844 21.9219
Q17.4844 14.1562 20.5 10.2656
Q23.5312 6.39062 29.5938 6.39062
Q36.8594 6.39062 41.0781 11.0312
Q45.3125 15.6719 45.3125 23.6875
L45.3125 54.6875
L54.2969 54.6875
L54.2969 0
L45.3125 0
L45.3125 8.40625
Q42.0469 3.42188 37.7188 1
Q33.4062 -1.42188 27.6875 -1.42188
Q18.2656 -1.42188 13.375 4.4375
Q8.5 10.2969 8.5 21.5781" id="BitstreamVeraSans-Roman-75"/>
      <path d="
M41.1094 46.2969
Q39.5938 47.1719 37.8125 47.5781
Q36.0312 48 33.8906 48
Q26.2656 48 22.1875 43.0469
Q18.1094 38.0938 18.1094 28.8125
L18.1094 0
L9.07812 0
L9.07812 54.6875
L18.1094 54.6875
L18.1094 46.1875
Q20.9531 51.1719 25.4844 53.5781
Q30.0312 56 36.5312 56
Q37.4531 56 38.5781 55.875
Q39.7031 55.7656 41.0625 55.5156
z
" id="BitstreamVeraSans-Roman-72"/>
      <path d="
M44.2812 53.0781
L44.2812 44.5781
Q40.4844 46.5312 36.375 47.5
Q32.2812 48.4844 27.875 48.4844
Q21.1875 48.4844 17.8438 46.4375
Q14.5 44.3906 14.5 40.2812
Q14.5 37.1562 16.8906 35.375
Q19.2812 33.5938 26.5156 31.9844
L29.5938 31.2969
Q39.1562 29.25 43.1875 25.5156
Q47.2188 21.7812 47.2188 15.0938
Q47.2188 7.46875 41.1875 3.01562
Q35.1562 -1.42188 24.6094 -1.42188
Q20.2188 -1.42188 15.4531 -0.5625
Q10.6875 0.296875 5.42188 2
L5.42188 11.2812
Q10.4062 8.6875 15.2344 7.39062
Q20.0625 6.10938 24.8125 6.10938
Q31.1562 6.10938 34.5625 8.28125
Q37.9844 10.4531 37.9844 14.4062
Q37.9844 18.0625 35.5156 20.0156
Q33.0625 21.9688 24.7031 23.7812
L21.5781 24.5156
Q13.2344 26.2656 9.51562 29.9062
Q5.8125 33.5469 5.8125 39.8906
Q5.8125 47.6094 11.2812 51.7969
Q16.75 56 26.8125 56
Q31.7812 56 36.1719 55.2656
Q40.5781 54.5469 44.2812 53.0781" id="BitstreamVeraSans-Roman-73"/>
      <path d="
M9.8125 72.9062
L19.6719 72.9062
L19.6719 0
L9.8125 0
z
" id="BitstreamVeraSans-Roman-49"/>
      <path d="
M54.8906 33.0156
L54.8906 0
L45.9062 0
L45.9062 32.7188
Q45.9062 40.4844 42.875 44.3281
Q39.8438 48.1875 33.7969 48.1875
Q26.5156 48.1875 22.3125 43.5469
Q18.1094 38.9219 18.1094 30.9062
L18.1094 0
L9.07812 0
L9.07812 75.9844
L18.1094 75.9844
L18.1094 46.1875
Q21.3438 51.125 25.7031 53.5625
Q30.0781 56 35.7969 56
Q45.2188 56 50.0469 50.1719
Q54.8906 44.3438 54.8906 33.0156" id="BitstreamVeraSans-Roman-68"/>
     </defs>
     <g transform="translate(202.388068182 341.2765625)scale(0.1 -0.1)">
      <use xlink:href="#BitstreamVeraSans-Roman-49"/>
      <use x="29.4921875" xlink:href="#BitstreamVeraSans-Roman-6e"/>
      <use x="92.87109375" xlink:href="#BitstreamVeraSans-Roman-73"/>
      <use x="144.970703125" xlink:href="#BitstreamVeraSans-Roman-74"/>
      <use x="184.1796875" xlink:href="#BitstreamVeraSans-Roman-72"/>
      <use x="225.29296875" xlink:href="#BitstreamVeraSans-Roman-75"/>
      <use x="288.671875" xlink:href="#BitstreamVeraSans-Roman-63"/>
      <use x="343.65234375" xlink:href="#BitstreamVeraSans-Roman-74"/>
      <use x="382.861328125" xlink:href="#BitstreamVeraSans-Roman-69"/>
      <use x="410.64453125" xlink:href="#BitstreamVeraSans-Roman-6f"/>
      <use x="471.826171875" xlink:href="#BitstreamVeraSans-Roman-6e"/>
      <use x="535.205078125" xlink:href="#BitstreamVeraSans-Roman-20"/>
      <use x="566.9921875" xlink:href="#BitstreamVeraSans-Roman-28"/>
      <use x="606.005859375" xlink:href="#BitstreamVeraSans-Roman-74"/>
      <use x="645.21484375" xlink:href="#BitstreamVeraSans-Roman-68"/>
      <use x="708.59375" xlink:href="#BitstreamVeraSans-Roman-6f"/>
      <use x="769.775390625" xlink:href="#BitstreamVeraSans-Roman-75"/>
      <use x="833.154296875" xlink:href="#BitstreamVeraSans-Roman-73"/>
      <use x="885.25390625" xlink:href="#BitstreamVeraSans-Roman-61"/>
      <use x="946.533203125" xlink:href="#BitstreamVeraSans-Roman-6e"/>
      <use x="1009.91210938" xlink:href="#BitstreamVeraSans-Roman-64"/>
      <use x="1073.38867188" xlink:href="#BitstreamVeraSans-Roman-73"/>
      <use x="1125.48828125" xlink:href="#BitstreamVeraSans-Roman-29"/>
     </g>
    </g>
   </g>
   <g id="matplotlib.axis_2">
    <g id="ytick_1">
     <g id="line2d_17">
      <path clip-path="url(#pa399c4f1e5)" d="
M108 315
L412.364 315" style="fill:none;stroke:#000000;stroke-dasharray:1.000000,3.000000;stroke-dashoffset:0.0;stroke-width:0.5;"/>
     </g>
     <g id="line2d_18">
      <defs>
       <path d="
M0 0
L4 0" id="m728421d6d4" style="stroke:#000000;stroke-width:0.5;"/>
      </defs>
      <g>
       <use style="stroke:#000000;stroke-width:0.5;" x="108.0" xlink:href="#m728421d6d4" y="315.0"/>
      </g>
     </g>
     <g id="line2d_19">
      <defs>
       <path d="
M0 0
L-4 0" id="mcb0005524f" style="stroke:#000000;stroke-width:0.5;"/>
      </defs>
      <g>
       <use style="stroke:#000000;stroke-width:0.5;" x="412.363636364" xlink:href="#mcb0005524f" y="315.0"/>
      </g>
     </g>
     <g id="text_7">
      <!-- 0 -->
      <g transform="translate(98.9609375 317.759375)scale(0.1 -0.1)">
       <use xlink:href="#BitstreamVeraSans-Roman-30"/>
      </g>
     </g>
    </g>
    <g id="ytick_2">
     <g id="line2d_20">
      <path clip-path="url(#pa399c4f1e5)" d="
M108 268.5
L412.364 268.5" style="fill:none;stroke:#000000;stroke-dasharray:1.000000,3.000000;stroke-dashoffset:0.0;stroke-width:0.5;"/>
     </g>
     <g id="line2d_21">
      <g>
       <use style="stroke:#000000;stroke-width:0.5;" x="108.0" xlink:href="#m728421d6d4" y="268.5"/>
      </g>
     </g>
     <g id="line2d_22">
      <g>
       <use style="stroke:#000000;stroke-width:0.5;" x="412.363636364" xlink:href="#mcb0005524f" y="268.5"/>
      </g>
     </g>
     <g id="text_8">
      <!-- 2 -->
      <g transform="translate(99.371875 271.259375)scale(0.1 -0.1)">
       <use xlink:href="#BitstreamVeraSans-Roman-32"/>
      </g>
     </g>
    </g>
    <g id="ytick_3">
     <g id="line2d_23">
      <path clip-path="url(#pa399c4f1e5)" d="
M108 222
L412.364 222" style="fill:none;stroke:#000000;stroke-dasharray:1.000000,3.000000;stroke-dashoffset:0.0;stroke-width:0.5;"/>
     </g>
     <g id="line2d_24">
      <g>
       <use style="stroke:#000000;stroke-width:0.5;" x="108.0" xlink:href="#m728421d6d4" y="222.0"/>
      </g>
     </g>
     <g id="line2d_25">
      <g>
       <use style="stroke:#000000;stroke-width:0.5;" x="412.363636364" xlink:href="#mcb0005524f" y="222.0"/>
      </g>
     </g>
     <g id="text_9">
      <!-- 4 -->
      <defs>
       <path d="
M37.7969 64.3125
L12.8906 25.3906
L37.7969 25.3906
z

M35.2031 72.9062
L47.6094 72.9062
L47.6094 25.3906
L58.0156 25.3906
L58.0156 17.1875
L47.6094 17.1875
L47.6094 0
L37.7969 0
L37.7969 17.1875
L4.89062 17.1875
L4.89062 26.7031
z
" id="BitstreamVeraSans-Roman-34"/>
      </defs>
      <g transform="translate(98.6875 224.759375)scale(0.1 -0.1)">
       <use xlink:href="#BitstreamVeraSans-Roman-34"/>
      </g>
     </g>
    </g>
    <g id="ytick_4">
     <g id="line2d_26">
      <path clip-path="url(#pa399c4f1e5)" d="
M108 175.5
L412.364 175.5" style="fill:none;stroke:#000000;stroke-dasharray:1.000000,3.000000;stroke-dashoffset:0.0;stroke-width:0.5;"/>
     </g>
     <g id="line2d_27">
      <g>
       <use style="stroke:#000000;stroke-width:0.5;" x="108.0" xlink:href="#m728421d6d4" y="175.5"/>
      </g>
     </g>
     <g id="line2d_28">
      <g>
       <use style="stroke:#000000;stroke-width:0.5;" x="412.363636364" xlink:href="#mcb0005524f" y="175.5"/>
      </g>
     </g>
     <g id="text_10">
      <!-- 6 -->
      <defs>
       <path d="
M33.0156 40.375
Q26.375 40.375 22.4844 35.8281
Q18.6094 31.2969 18.6094 23.3906
Q18.6094 15.5312 22.4844 10.9531
Q26.375 6.39062 33.0156 6.39062
Q39.6562 6.39062 43.5312 10.9531
Q47.4062 15.5312 47.4062 23.3906
Q47.4062 31.2969 43.5312 35.8281
Q39.6562 40.375 33.0156 40.375
M52.5938 71.2969
L52.5938 62.3125
Q48.875 64.0625 45.0938 64.9844
Q41.3125 65.9219 37.5938 65.9219
Q27.8281 65.9219 22.6719 59.3281
Q17.5312 52.7344 16.7969 39.4062
Q19.6719 43.6562 24.0156 45.9219
Q28.375 48.1875 33.5938 48.1875
Q44.5781 48.1875 50.9531 41.5156
Q57.3281 34.8594 57.3281 23.3906
Q57.3281 12.1562 50.6875 5.35938
Q44.0469 -1.42188 33.0156 -1.42188
Q20.3594 -1.42188 13.6719 8.26562
Q6.98438 17.9688 6.98438 36.375
Q6.98438 53.6562 15.1875 63.9375
Q23.3906 74.2188 37.2031 74.2188
Q40.9219 74.2188 44.7031 73.4844
Q48.4844 72.75 52.5938 71.2969" id="BitstreamVeraSans-Roman-36"/>
      </defs>
      <g transform="translate(98.965625 178.259375)scale(0.1 -0.1)">
       <use xlink:href="#BitstreamVeraSans-Roman-36"/>
      </g>
     </g>
    </g>
    <g id="ytick_5">
     <g id="line2d_29">
      <path clip-path="url(#pa399c4f1e5)" d="
M108 129
L412.364 129" style="fill:none;stroke:#000000;stroke-dasharray:1.000000,3.000000;stroke-dashoffset:0.0;stroke-width:0.5;"/>
     </g>
     <g id="line2d_30">
      <g>
       <use style="stroke:#000000;stroke-width:0.5;" x="108.0" xlink:href="#m728421d6d4" y="129.0"/>
      </g>
     </g>
     <g id="line2d_31">
      <g>
       <use style="stroke:#000000;stroke-width:0.5;" x="412.363636364" xlink:href="#mcb0005524f" y="129.0"/>
      </g>
     </g>
     <g id="text_11">
      <!-- 8 -->
      <defs>
       <path d="
M31.7812 34.625
Q24.75 34.625 20.7188 30.8594
Q16.7031 27.0938 16.7031 20.5156
Q16.7031 13.9219 20.7188 10.1562
Q24.75 6.39062 31.7812 6.39062
Q38.8125 6.39062 42.8594 10.1719
Q46.9219 13.9688 46.9219 20.5156
Q46.9219 27.0938 42.8906 30.8594
Q38.875 34.625 31.7812 34.625
M21.9219 38.8125
Q15.5781 40.375 12.0312 44.7188
Q8.5 49.0781 8.5 55.3281
Q8.5 64.0625 14.7188 69.1406
Q20.9531 74.2188 31.7812 74.2188
Q42.6719 74.2188 48.875 69.1406
Q55.0781 64.0625 55.0781 55.3281
Q55.0781 49.0781 51.5312 44.7188
Q48 40.375 41.7031 38.8125
Q48.8281 37.1562 52.7969 32.3125
Q56.7812 27.4844 56.7812 20.5156
Q56.7812 9.90625 50.3125 4.23438
Q43.8438 -1.42188 31.7812 -1.42188
Q19.7344 -1.42188 13.25 4.23438
Q6.78125 9.90625 6.78125 20.5156
Q6.78125 27.4844 10.7812 32.3125
Q14.7969 37.1562 21.9219 38.8125
M18.3125 54.3906
Q18.3125 48.7344 21.8438 45.5625
Q25.3906 42.3906 31.7812 42.3906
Q38.1406 42.3906 41.7188 45.5625
Q45.3125 48.7344 45.3125 54.3906
Q45.3125 60.0625 41.7188 63.2344
Q38.1406 66.4062 31.7812 66.4062
Q25.3906 66.4062 21.8438 63.2344
Q18.3125 60.0625 18.3125 54.3906" id="BitstreamVeraSans-Roman-38"/>
      </defs>
      <g transform="translate(99.0 131.759375)scale(0.1 -0.1)">
       <use xlink:href="#BitstreamVeraSans-Roman-38"/>
      </g>
     </g>
    </g>
    <g id="ytick_6">
     <g id="line2d_32">
      <path clip-path="url(#pa399c4f1e5)" d="
M108 82.5
L412.364 82.5" style="fill:none;stroke:#000000;stroke-dasharray:1.000000,3.000000;stroke-dashoffset:0.0;stroke-width:0.5;"/>
     </g>
     <g id="line2d_33">
      <g>
       <use style="stroke:#000000;stroke-width:0.5;" x="108.0" xlink:href="#m728421d6d4" y="82.5"/>
      </g>
     </g>
     <g id="line2d_34">
      <g>
       <use style="stroke:#000000;stroke-width:0.5;" x="412.363636364" xlink:href="#mcb0005524f" y="82.5"/>
      </g>
     </g>
     <g id="text_12">
      <!-- 10 -->
      <g transform="translate(93.0375 85.259375)scale(0.1 -0.1)">
       <use xlink:href="#BitstreamVeraSans-Roman-31"/>
       <use x="63.623046875" xlink:href="#BitstreamVeraSans-Roman-30"/>
      </g>
     </g>
    </g>
    <g id="ytick_7">
     <g id="line2d_35">
      <path clip-path="url(#pa399c4f1e5)" d="
M108 36
L412.364 36" style="fill:none;stroke:#000000;stroke-dasharray:1.000000,3.000000;stroke-dashoffset:0.0;stroke-width:0.5;"/>
     </g>
     <g id="line2d_36">
      <g>
       <use style="stroke:#000000;stroke-width:0.5;" x="108.0" xlink:href="#m728421d6d4" y="36.0"/>
      </g>
     </g>
     <g id="line2d_37">
      <g>
       <use style="stroke:#000000;stroke-width:0.5;" x="412.363636364" xlink:href="#mcb0005524f" y="36.0"/>
      </g>
     </g>
     <g id="text_13">
      <!-- 12 -->
      <g transform="translate(93.375 38.759375)scale(0.1 -0.1)">
       <use xlink:href="#BitstreamVeraSans-Roman-31"/>
       <use x="63.623046875" xlink:href="#BitstreamVeraSans-Roman-32"/>
      </g>
     </g>
    </g>
    <g id="text_14">
     <!-- Instantaneous Misprediction Rate (%) -->
     <defs>
      <path d="
M56.2031 29.5938
L56.2031 25.2031
L14.8906 25.2031
Q15.4844 15.9219 20.4844 11.0625
Q25.4844 6.20312 34.4219 6.20312
Q39.5938 6.20312 44.4531 7.46875
Q49.3125 8.73438 54.1094 11.2812
L54.1094 2.78125
Q49.2656 0.734375 44.1875 -0.34375
Q39.1094 -1.42188 33.8906 -1.42188
Q20.7969 -1.42188 13.1562 6.1875
Q5.51562 13.8125 5.51562 26.8125
Q5.51562 40.2344 12.7656 48.1094
Q20.0156 56 32.3281 56
Q43.3594 56 49.7812 48.8906
Q56.2031 41.7969 56.2031 29.5938
M47.2188 32.2344
Q47.125 39.5938 43.0938 43.9844
Q39.0625 48.3906 32.4219 48.3906
Q24.9062 48.3906 20.3906 44.1406
Q15.875 39.8906 15.1875 32.1719
z
" id="BitstreamVeraSans-Roman-65"/>
      <path d="
M44.3906 34.1875
Q47.5625 33.1094 50.5625 29.5938
Q53.5625 26.0781 56.5938 19.9219
L66.6094 0
L56 0
L46.6875 18.7031
Q43.0625 26.0312 39.6719 28.4219
Q36.2812 30.8125 30.4219 30.8125
L19.6719 30.8125
L19.6719 0
L9.8125 0
L9.8125 72.9062
L32.0781 72.9062
Q44.5781 72.9062 50.7344 67.6719
Q56.8906 62.4531 56.8906 51.9062
Q56.8906 45.0156 53.6875 40.4688
Q50.4844 35.9375 44.3906 34.1875
M19.6719 64.7969
L19.6719 38.9219
L32.0781 38.9219
Q39.2031 38.9219 42.8438 42.2188
Q46.4844 45.5156 46.4844 51.9062
Q46.4844 58.2969 42.8438 61.5469
Q39.2031 64.7969 32.0781 64.7969
z
" id="BitstreamVeraSans-Roman-52"/>
      <path d="
M9.8125 72.9062
L24.5156 72.9062
L43.1094 23.2969
L61.8125 72.9062
L76.5156 72.9062
L76.5156 0
L66.8906 0
L66.8906 64.0156
L48.0938 14.0156
L38.1875 14.0156
L19.3906 64.0156
L19.3906 0
L9.8125 0
z
" id="BitstreamVeraSans-Roman-4d"/>
      <path d="
M72.7031 32.0781
Q68.4531 32.0781 66.0312 28.4688
Q63.625 24.8594 63.625 18.4062
Q63.625 12.0625 66.0312 8.42188
Q68.4531 4.78125 72.7031 4.78125
Q76.8594 4.78125 79.2656 8.42188
Q81.6875 12.0625 81.6875 18.4062
Q81.6875 24.8125 79.2656 28.4375
Q76.8594 32.0781 72.7031 32.0781
M72.7031 38.2812
Q80.4219 38.2812 84.9531 32.9062
Q89.5 27.5469 89.5 18.4062
Q89.5 9.28125 84.9375 3.92188
Q80.375 -1.42188 72.7031 -1.42188
Q64.8906 -1.42188 60.3438 3.92188
Q55.8125 9.28125 55.8125 18.4062
Q55.8125 27.5938 60.375 32.9375
Q64.9375 38.2812 72.7031 38.2812
M22.3125 68.0156
Q18.1094 68.0156 15.6875 64.375
Q13.2812 60.75 13.2812 54.3906
Q13.2812 47.9531 15.6719 44.3281
Q18.0625 40.7188 22.3125 40.7188
Q26.5625 40.7188 28.9688 44.3281
Q31.3906 47.9531 31.3906 54.3906
Q31.3906 60.6875 28.9531 64.3438
Q26.5156 68.0156 22.3125 68.0156
M66.4062 74.2188
L74.2188 74.2188
L28.6094 -1.42188
L20.7969 -1.42188
z

M22.3125 74.2188
Q30.0312 74.2188 34.6094 68.875
Q39.2031 63.5312 39.2031 54.3906
Q39.2031 45.1719 34.6406 39.8438
Q30.0781 34.5156 22.3125 34.5156
Q14.5469 34.5156 10.0312 39.8594
Q5.51562 45.2188 5.51562 54.3906
Q5.51562 63.4844 10.0469 68.8438
Q14.5938 74.2188 22.3125 74.2188" id="BitstreamVeraSans-Roman-25"/>
      <path d="
M18.1094 8.20312
L18.1094 -20.7969
L9.07812 -20.7969
L9.07812 54.6875
L18.1094 54.6875
L18.1094 46.3906
Q20.9531 51.2656 25.2656 53.625
Q29.5938 56 35.5938 56
Q45.5625 56 51.7812 48.0938
Q58.0156 40.1875 58.0156 27.2969
Q58.0156 14.4062 51.7812 6.48438
Q45.5625 -1.42188 35.5938 -1.42188
Q29.5938 -1.42188 25.2656 0.953125
Q20.9531 3.32812 18.1094 8.20312
M48.6875 27.2969
Q48.6875 37.2031 44.6094 42.8438
Q40.5312 48.4844 33.4062 48.4844
Q26.2656 48.4844 22.1875 42.8438
Q18.1094 37.2031 18.1094 27.2969
Q18.1094 17.3906 22.1875 11.75
Q26.2656 6.10938 33.4062 6.10938
Q40.5312 6.10938 44.6094 11.75
Q48.6875 17.3906 48.6875 27.2969" id="BitstreamVeraSans-Roman-70"/>
     </defs>
     <g transform="translate(85.9578125 268.8875)rotate(-90.0)scale(0.1 -0.1)">
      <use xlink:href="#BitstreamVeraSans-Roman-49"/>
      <use x="29.4921875" xlink:href="#BitstreamVeraSans-Roman-6e"/>
      <use x="92.87109375" xlink:href="#BitstreamVeraSans-Roman-73"/>
      <use x="144.970703125" xlink:href="#BitstreamVeraSans-Roman-74"/>
      <use x="184.1796875" xlink:href="#BitstreamVeraSans-Roman-61"/>
      <use x="245.458984375" xlink:href="#BitstreamVeraSans-Roman-6e"/>
      <use x="308.837890625" xlink:href="#BitstreamVeraSans-Roman-74"/>
      <use x="348.046875" xlink:href="#BitstreamVeraSans-Roman-61"/>
      <use x="409.326171875" xlink:href="#BitstreamVeraSans-Roman-6e"/>
      <use x="472.705078125" xlink:href="#BitstreamVeraSans-Roman-65"/>
      <use x="534.228515625" xlink:href="#BitstreamVeraSans-Roman-6f"/>
      <use x="595.41015625" xlink:href="#BitstreamVeraSans-Roman-75"/>
      <use x="658.7890625" xlink:href="#BitstreamVeraSans-Roman-73"/>
      <use x="710.888671875" xlink:href="#BitstreamVeraSans-Roman-20"/>
      <use x="742.67578125" xlink:href="#BitstreamVeraSans-Roman-4d"/>
      <use x="828.955078125" xlink:href="#BitstreamVeraSans-Roman-69"/>
      <use x="856.73828125" xlink:href="#BitstreamVeraSans-Roman-73"/>
      <use x="908.837890625" xlink:href="#BitstreamVeraSans-Roman-70"/>
      <use x="972.314453125" xlink:href="#BitstreamVeraSans-Roman-72"/>
      <use x="1011.17773438" xlink:href="#BitstreamVeraSans-Roman-65"/>
      <use x="1072.70117188" xlink:href="#BitstreamVeraSans-Roman-64"/>
      <use x="1136.17773438" xlink:href="#BitstreamVeraSans-Roman-69"/>
      <use x="1163.9609375" xlink:href="#BitstreamVeraSans-Roman-63"/>
      <use x="1218.94140625" xlink:href="#BitstreamVeraSans-Roman-74"/>
      <use x="1258.15039062" xlink:href="#BitstreamVeraSans-Roman-69"/>
      <use x="1285.93359375" xlink:href="#BitstreamVeraSans-Roman-6f"/>
      <use x="1347.11523438" xlink:href="#BitstreamVeraSans-Roman-6e"/>
      <use x="1410.49414062" xlink:href="#BitstreamVeraSans-Roman-20"/>
      <use x="1442.28125" xlink:href="#BitstreamVeraSans-Roman-52"/>
      <use x="1509.51367188" xlink:href="#BitstreamVeraSans-Roman-61"/>
      <use x="1570.79296875" xlink:href="#BitstreamVeraSans-Roman-74"/>
      <use x="1610.00195312" xlink:href="#BitstreamVeraSans-Roman-65"/>
      <use x="1671.52539062" xlink:href="#BitstreamVeraSans-Roman-20"/>
      <use x="1703.3125" xlink:href="#BitstreamVeraSans-Roman-28"/>
      <use x="1742.32617188" xlink:href="#BitstreamVeraSans-Roman-25"/>
      <use x="1837.34570312" xlink:href="#BitstreamVeraSans-Roman-29"/>
     </g>
    </g>
   </g>
   <g id="text_15">
    <!-- After Inversion -->
    <defs>
     <path d="
M2.98438 54.6875
L12.5 54.6875
L29.5938 8.79688
L46.6875 54.6875
L56.2031 54.6875
L35.6875 0
L23.4844 0
z
" id="BitstreamVeraSans-Roman-76"/>
     <path d="
M37.1094 75.9844
L37.1094 68.5
L28.5156 68.5
Q23.6875 68.5 21.7969 66.5469
Q19.9219 64.5938 19.9219 59.5156
L19.9219 54.6875
L34.7188 54.6875
L34.7188 47.7031
L19.9219 47.7031
L19.9219 0
L10.8906 0
L10.8906 47.7031
L2.29688 47.7031
L2.29688 54.6875
L10.8906 54.6875
L10.8906 58.5
Q10.8906 67.625 15.1406 71.7969
Q19.3906 75.9844 28.6094 75.9844
z
" id="BitstreamVeraSans-Roman-66"/>
     <path d="
M34.1875 63.1875
L20.7969 26.9062
L47.6094 26.9062
z

M28.6094 72.9062
L39.7969 72.9062
L67.5781 0
L57.3281 0
L50.6875 18.7031
L17.8281 18.7031
L11.1875 0
L0.78125 0
z
" id="BitstreamVeraSans-Roman-41"/>
    </defs>
    <g transform="translate(216.830880682 31.0)scale(0.12 -0.12)">
     <use xlink:href="#BitstreamVeraSans-Roman-41"/>
     <use x="64.783203125" xlink:href="#BitstreamVeraSans-Roman-66"/>
     <use x="98.23828125" xlink:href="#BitstreamVeraSans-Roman-74"/>
     <use x="137.447265625" xlink:href="#BitstreamVeraSans-Roman-65"/>
     <use x="198.970703125" xlink:href="#BitstreamVeraSans-Roman-72"/>
     <use x="240.083984375" xlink:href="#BitstreamVeraSans-Roman-20"/>
     <use x="271.87109375" xlink:href="#BitstreamVeraSans-Roman-49"/>
     <use x="301.36328125" xlink:href="#BitstreamVeraSans-Roman-6e"/>
     <use x="364.7421875" xlink:href="#BitstreamVeraSans-Roman-76"/>
     <use x="423.921875" xlink:href="#BitstreamVeraSans-Roman-65"/>
     <use x="485.4453125" xlink:href="#BitstreamVeraSans-Roman-72"/>
     <use x="526.55859375" xlink:href="#BitstreamVeraSans-Roman-73"/>
     <use x="578.658203125" xlink:href="#BitstreamVeraSans-Roman-69"/>
     <use x="606.44140625" xlink:href="#BitstreamVeraSans-Roman-6f"/>
     <use x="667.623046875" xlink:href="#BitstreamVeraSans-Roman-6e"/>
    </g>
   </g>
  </g>
  <g id="axes_2">
   <g id="patch_7">
    <path d="
M473.236 315
L777.6 315
L777.6 36
L473.236 36
z
" style="fill:#ffffff;"/>
   </g>
   <g id="line2d_38">
    <path clip-path="url(#p540445ad68)" d="
M471.853 296.419
L473.236 296.419
L473.236 296.419
L473.236 296.419
L473.236 289.451
L473.236 289.451
L476.003 289.451
L476.003 289.451
L476.003 294.096
L476.003 294.096
L477.387 294.096
L477.387 294.096
L477.387 298.741
L478.77 298.741
L478.77 303.387
L478.77 303.387
L481.537 303.387
L481.537 303.387
L481.537 305.709
L481.537 305.709
L481.537 305.709
L481.537 301.064
L481.537 301.064
L484.304 301.064
L484.304 301.064
L484.304 291.773
L484.304 291.773
L487.071 291.773
L487.071 291.773
L487.071 289.451
L487.071 289.451
L488.455 289.451
L488.455 289.451
L488.455 296.419
L488.455 296.419
L493.988 296.419
L493.988 296.419
L493.988 294.096
L495.372 291.773
L495.372 291.773
L495.372 289.451
L495.372 289.451
L496.755 289.451
L496.755 289.451
L496.755 291.773
L498.139 291.773
L498.139 294.096
L498.139 294.096
L499.522 294.096
L499.522 294.096
L499.522 303.387
L500.906 303.387
L500.906 282.483
L500.906 282.483
L502.289 280.16
L502.289 273.192
L502.289 273.192
L503.673 273.192
L503.673 273.192
L503.673 275.514
L503.673 275.514
L503.673 275.514
L503.673 273.192
L503.673 273.192
L505.056 270.869
L505.056 270.869
L505.056 268.546
L505.056 268.546
L506.44 268.546
L506.44 268.546
L506.44 266.224
L506.44 266.224
L507.823 266.224
L507.823 266.224
L507.823 263.901
L507.823 263.901
L510.59 263.901
L510.59 263.901
L510.59 268.546
L511.974 268.546
L511.974 268.546
L511.974 270.869
L511.974 270.869
L516.124 270.869
L516.124 270.869
L516.124 280.16
L517.507 282.483
L517.507 287.128
L517.507 287.128
L517.507 287.128
L517.507 280.16
L517.507 284.805
L518.891 284.805
L518.891 284.805
L518.891 287.128
L518.891 287.128
L520.274 287.128
L520.274 287.128
L520.274 291.773
L520.274 291.773
L521.658 291.773
L521.658 291.773
L521.658 294.096
L521.658 294.096
L521.658 294.096
L521.658 287.128
L521.658 289.451
L523.041 289.451
L523.041 289.451
L523.041 291.773
L523.041 291.773
L525.808 291.773
L525.808 291.773
L525.808 287.128
L525.808 287.128
L529.959 287.128
L529.959 287.128
L529.959 284.805
L532.726 284.805
L532.726 284.805
L532.726 298.741
L532.726 298.741
L534.109 298.741
L534.109 298.741
L535.493 296.419
L535.493 296.419
L536.876 296.419
L536.876 296.419
L536.876 303.387
L539.643 303.387
L539.643 294.096
L539.643 294.096
L541.026 294.096
L541.026 294.096
L542.41 296.419
L542.41 296.419
L542.41 298.741
L542.41 298.741
L546.56 298.741
L546.56 301.064
L546.56 301.064
L550.711 301.064
L550.711 303.387
L550.711 303.387
L554.861 303.387
L554.861 303.387
L554.861 312.677
L554.861 312.677
L560.395 312.677
L560.395 312.677
L560.395 303.387
L560.395 303.387
L575.613 303.387
L575.613 303.387
L575.613 312.677
L575.613 312.677
L581.147 312.677
L581.147 312.677
L581.147 310.355
L581.147 310.355
L596.365 310.355
L596.365 310.355
L596.365 312.677
L596.365 312.677
L603.283 312.677
L603.283 310.355
L603.283 310.355
L618.501 310.355
L618.501 312.677
L618.501 312.677
L624.035 312.677
L624.035 312.677
L624.035 310.355
L624.035 310.355
L639.253 310.355
L639.253 310.355
L639.253 312.677
L639.253 312.677
L644.787 312.677
L644.787 312.677
L644.787 308.032
L644.787 308.032
L660.005 308.032
L660.005 308.032
L660.005 312.677
L660.005 312.677
L666.922 312.677
L666.922 310.355
L666.922 310.355
L682.14 310.355
L682.14 312.677
L682.14 312.677
L687.674 312.677
L687.674 312.677
L687.674 308.032
L687.674 308.032
L702.893 308.032
L702.893 308.032
L702.893 312.677
L702.893 312.677
L708.426 312.677
L708.426 312.677
L708.426 310.355
L708.426 310.355
L723.645 310.355
L723.645 310.355
L723.645 312.677
L723.645 312.677
L729.179 312.677
L729.179 312.677
L729.179 310.355
L744.397 310.355
L744.397 310.355
L744.397 312.677
L744.397 312.677
L751.314 312.677
L751.314 312.677
L751.314 310.355
L751.314 310.355
L766.532 310.355
L766.532 310.355
L766.532 312.677
L766.532 312.677
L772.066 312.677
L772.066 312.677
L772.066 308.032
L772.066 308.032
L778.983 308.032
L778.983 308.032" style="fill:none;stroke:#0000ff;stroke-linecap:square;stroke-width:0.8;"/>
   </g>
   <g id="patch_8">
    <path d="
M473.236 36
L777.6 36" style="fill:none;stroke:#000000;stroke-linecap:square;stroke-linejoin:miter;"/>
   </g>
   <g id="patch_9">
    <path d="
M777.6 315
L777.6 36" style="fill:none;stroke:#000000;stroke-linecap:square;stroke-linejoin:miter;"/>
   </g>
   <g id="patch_10">
    <path d="
M473.236 315
L777.6 315" style="fill:none;stroke:#000000;stroke-linecap:square;stroke-linejoin:miter;"/>
   </g>
   <g id="patch_11">
    <path d="
M473.236 315
L473.236 36" style="fill:none;stroke:#000000;stroke-linecap:square;stroke-linejoin:miter;"/>
   </g>
   <g id="matplotlib.axis_3">
    <g id="xtick_6">
     <g id="line2d_39">
      <path clip-path="url(#p540445ad68)" d="
M500.906 315
L500.906 36" style="fill:none;stroke:#000000;stroke-dasharray:1.000000,3.000000;stroke-dashoffset:0.0;stroke-width:0.5;"/>
     </g>
     <g id="line2d_40">
      <g>
       <use style="stroke:#000000;stroke-width:0.5;" x="500.905785124" xlink:href="#m93b0483c22" y="315.0"/>
      </g>
     </g>
     <g id="line2d_41">
      <g>
       <use style="stroke:#000000;stroke-width:0.5;" x="500.905785124" xlink:href="#m741efc42ff" y="36.0"/>
      </g>
     </g>
     <g id="text_16">
      <!-- 0 -->
      <g transform="translate(498.386253874 326.5984375)scale(0.1 -0.1)">
       <use xlink:href="#BitstreamVeraSans-Roman-30"/>
      </g>
     </g>
    </g>
    <g id="xtick_7">
     <g id="line2d_42">
      <path clip-path="url(#p540445ad68)" d="
M570.079 315
L570.079 36" style="fill:none;stroke:#000000;stroke-dasharray:1.000000,3.000000;stroke-dashoffset:0.0;stroke-width:0.5;"/>
     </g>
     <g id="line2d_43">
      <g>
       <use style="stroke:#000000;stroke-width:0.5;" x="570.079338843" xlink:href="#m93b0483c22" y="315.0"/>
      </g>
     </g>
     <g id="line2d_44">
      <g>
       <use style="stroke:#000000;stroke-width:0.5;" x="570.079338843" xlink:href="#m741efc42ff" y="36.0"/>
      </g>
     </g>
     <g id="text_17">
      <!-- 50 -->
      <g transform="translate(564.434807593 326.5984375)scale(0.1 -0.1)">
       <use xlink:href="#BitstreamVeraSans-Roman-35"/>
       <use x="63.623046875" xlink:href="#BitstreamVeraSans-Roman-30"/>
      </g>
     </g>
    </g>
    <g id="xtick_8">
     <g id="line2d_45">
      <path clip-path="url(#p540445ad68)" d="
M639.253 315
L639.253 36" style="fill:none;stroke:#000000;stroke-dasharray:1.000000,3.000000;stroke-dashoffset:0.0;stroke-width:0.5;"/>
     </g>
     <g id="line2d_46">
      <g>
       <use style="stroke:#000000;stroke-width:0.5;" x="639.252892562" xlink:href="#m93b0483c22" y="315.0"/>
      </g>
     </g>
     <g id="line2d_47">
      <g>
       <use style="stroke:#000000;stroke-width:0.5;" x="639.252892562" xlink:href="#m741efc42ff" y="36.0"/>
      </g>
     </g>
     <g id="text_18">
      <!-- 100 -->
      <g transform="translate(630.590392562 326.5984375)scale(0.1 -0.1)">
       <use xlink:href="#BitstreamVeraSans-Roman-31"/>
       <use x="63.623046875" xlink:href="#BitstreamVeraSans-Roman-30"/>
       <use x="127.24609375" xlink:href="#BitstreamVeraSans-Roman-30"/>
      </g>
     </g>
    </g>
    <g id="xtick_9">
     <g id="line2d_48">
      <path clip-path="url(#p540445ad68)" d="
M708.426 315
L708.426 36" style="fill:none;stroke:#000000;stroke-dasharray:1.000000,3.000000;stroke-dashoffset:0.0;stroke-width:0.5;"/>
     </g>
     <g id="line2d_49">
      <g>
       <use style="stroke:#000000;stroke-width:0.5;" x="708.426446281" xlink:href="#m93b0483c22" y="315.0"/>
      </g>
     </g>
     <g id="line2d_50">
      <g>
       <use style="stroke:#000000;stroke-width:0.5;" x="708.426446281" xlink:href="#m741efc42ff" y="36.0"/>
      </g>
     </g>
     <g id="text_19">
      <!-- 150 -->
      <g transform="translate(699.763946281 326.5984375)scale(0.1 -0.1)">
       <use xlink:href="#BitstreamVeraSans-Roman-31"/>
       <use x="63.623046875" xlink:href="#BitstreamVeraSans-Roman-35"/>
       <use x="127.24609375" xlink:href="#BitstreamVeraSans-Roman-30"/>
      </g>
     </g>
    </g>
    <g id="xtick_10">
     <g id="line2d_51">
      <path clip-path="url(#p540445ad68)" d="
M777.6 315
L777.6 36" style="fill:none;stroke:#000000;stroke-dasharray:1.000000,3.000000;stroke-dashoffset:0.0;stroke-width:0.5;"/>
     </g>
     <g id="line2d_52">
      <g>
       <use style="stroke:#000000;stroke-width:0.5;" x="777.6" xlink:href="#m93b0483c22" y="315.0"/>
      </g>
     </g>
     <g id="line2d_53">
      <g>
       <use style="stroke:#000000;stroke-width:0.5;" x="777.6" xlink:href="#m741efc42ff" y="36.0"/>
      </g>
     </g>
     <g id="text_20">
      <!-- 200 -->
      <g transform="translate(768.7546875 326.5984375)scale(0.1 -0.1)">
       <use xlink:href="#BitstreamVeraSans-Roman-32"/>
       <use x="63.623046875" xlink:href="#BitstreamVeraSans-Roman-30"/>
       <use x="127.24609375" xlink:href="#BitstreamVeraSans-Roman-30"/>
      </g>
     </g>
    </g>
    <g id="text_21">
     <!-- Instruction (thousands) -->
     <g transform="translate(567.624431818 341.2765625)scale(0.1 -0.1)">
      <use xlink:href="#BitstreamVeraSans-Roman-49"/>
      <use x="29.4921875" xlink:href="#BitstreamVeraSans-Roman-6e"/>
      <use x="92.87109375" xlink:href="#BitstreamVeraSans-Roman-73"/>
      <use x="144.970703125" xlink:href="#BitstreamVeraSans-Roman-74"/>
      <use x="184.1796875" xlink:href="#BitstreamVeraSans-Roman-72"/>
      <use x="225.29296875" xlink:href="#BitstreamVeraSans-Roman-75"/>
      <use x="288.671875" xlink:href="#BitstreamVeraSans-Roman-63"/>
      <use x="343.65234375" xlink:href="#BitstreamVeraSans-Roman-74"/>
      <use x="382.861328125" xlink:href="#BitstreamVeraSans-Roman-69"/>
      <use x="410.64453125" xlink:href="#BitstreamVeraSans-Roman-6f"/>
      <use x="471.826171875" xlink:href="#BitstreamVeraSans-Roman-6e"/>
      <use x="535.205078125" xlink:href="#BitstreamVeraSans-Roman-20"/>
      <use x="566.9921875" xlink:href="#BitstreamVeraSans-Roman-28"/>
      <use x="606.005859375" xlink:href="#BitstreamVeraSans-Roman-74"/>
      <use x="645.21484375" xlink:href="#BitstreamVeraSans-Roman-68"/>
      <use x="708.59375" xlink:href="#BitstreamVeraSans-Roman-6f"/>
      <use x="769.775390625" xlink:href="#BitstreamVeraSans-Roman-75"/>
      <use x="833.154296875" xlink:href="#BitstreamVeraSans-Roman-73"/>
      <use x="885.25390625" xlink:href="#BitstreamVeraSans-Roman-61"/>
      <use x="946.533203125" xlink:href="#BitstreamVeraSans-Roman-6e"/>
      <use x="1009.91210938" xlink:href="#BitstreamVeraSans-Roman-64"/>
      <use x="1073.38867188" xlink:href="#BitstreamVeraSans-Roman-73"/>
      <use x="1125.48828125" xlink:href="#BitstreamVeraSans-Roman-29"/>
     </g>
    </g>
   </g>
   <g id="matplotlib.axis_4">
    <g id="ytick_8">
     <g id="line2d_54">
      <path clip-path="url(#p540445ad68)" d="
M473.236 315
L777.6 315" style="fill:none;stroke:#000000;stroke-dasharray:1.000000,3.000000;stroke-dashoffset:0.0;stroke-width:0.5;"/>
     </g>
     <g id="line2d_55">
      <g>
       <use style="stroke:#000000;stroke-width:0.5;" x="473.236363636" xlink:href="#m728421d6d4" y="315.0"/>
      </g>
     </g>
     <g id="line2d_56">
      <g>
       <use style="stroke:#000000;stroke-width:0.5;" x="777.6" xlink:href="#mcb0005524f" y="315.0"/>
      </g>
     </g>
     <g id="text_22">
      <!-- 0 -->
      <g transform="translate(464.197301136 317.759375)scale(0.1 -0.1)">
       <use xlink:href="#BitstreamVeraSans-Roman-30"/>
      </g>
     </g>
    </g>
    <g id="ytick_9">
     <g id="line2d_57">
      <path clip-path="url(#p540445ad68)" d="
M473.236 268.5
L777.6 268.5" style="fill:none;stroke:#000000;stroke-dasharray:1.000000,3.000000;stroke-dashoffset:0.0;stroke-width:0.5;"/>
     </g>
     <g id="line2d_58">
      <g>
       <use style="stroke:#000000;stroke-width:0.5;" x="473.236363636" xlink:href="#m728421d6d4" y="268.5"/>
      </g>
     </g>
     <g id="line2d_59">
      <g>
       <use style="stroke:#000000;stroke-width:0.5;" x="777.6" xlink:href="#mcb0005524f" y="268.5"/>
      </g>
     </g>
     <g id="text_23">
      <!-- 2 -->
      <g transform="translate(464.608238636 271.259375)scale(0.1 -0.1)">
       <use xlink:href="#BitstreamVeraSans-Roman-32"/>
      </g>
     </g>
    </g>
    <g id="ytick_10">
     <g id="line2d_60">
      <path clip-path="url(#p540445ad68)" d="
M473.236 222
L777.6 222" style="fill:none;stroke:#000000;stroke-dasharray:1.000000,3.000000;stroke-dashoffset:0.0;stroke-width:0.5;"/>
     </g>
     <g id="line2d_61">
      <g>
       <use style="stroke:#000000;stroke-width:0.5;" x="473.236363636" xlink:href="#m728421d6d4" y="222.0"/>
      </g>
     </g>
     <g id="line2d_62">
      <g>
       <use style="stroke:#000000;stroke-width:0.5;" x="777.6" xlink:href="#mcb0005524f" y="222.0"/>
      </g>
     </g>
     <g id="text_24">
      <!-- 4 -->
      <g transform="translate(463.923863636 224.759375)scale(0.1 -0.1)">
       <use xlink:href="#BitstreamVeraSans-Roman-34"/>
      </g>
     </g>
    </g>
    <g id="ytick_11">
     <g id="line2d_63">
      <path clip-path="url(#p540445ad68)" d="
M473.236 175.5
L777.6 175.5" style="fill:none;stroke:#000000;stroke-dasharray:1.000000,3.000000;stroke-dashoffset:0.0;stroke-width:0.5;"/>
     </g>
     <g id="line2d_64">
      <g>
       <use style="stroke:#000000;stroke-width:0.5;" x="473.236363636" xlink:href="#m728421d6d4" y="175.5"/>
      </g>
     </g>
     <g id="line2d_65">
      <g>
       <use style="stroke:#000000;stroke-width:0.5;" x="777.6" xlink:href="#mcb0005524f" y="175.5"/>
      </g>
     </g>
     <g id="text_25">
      <!-- 6 -->
      <g transform="translate(464.201988636 178.259375)scale(0.1 -0.1)">
       <use xlink:href="#BitstreamVeraSans-Roman-36"/>
      </g>
     </g>
    </g>
    <g id="ytick_12">
     <g id="line2d_66">
      <path clip-path="url(#p540445ad68)" d="
M473.236 129
L777.6 129" style="fill:none;stroke:#000000;stroke-dasharray:1.000000,3.000000;stroke-dashoffset:0.0;stroke-width:0.5;"/>
     </g>
     <g id="line2d_67">
      <g>
       <use style="stroke:#000000;stroke-width:0.5;" x="473.236363636" xlink:href="#m728421d6d4" y="129.0"/>
      </g>
     </g>
     <g id="line2d_68">
      <g>
       <use style="stroke:#000000;stroke-width:0.5;" x="777.6" xlink:href="#mcb0005524f" y="129.0"/>
      </g>
     </g>
     <g id="text_26">
      <!-- 8 -->
      <g transform="translate(464.236363636 131.759375)scale(0.1 -0.1)">
       <use xlink:href="#BitstreamVeraSans-Roman-38"/>
      </g>
     </g>
    </g>
    <g id="ytick_13">
     <g id="line2d_69">
      <path clip-path="url(#p540445ad68)" d="
M473.236 82.5
L777.6 82.5" style="fill:none;stroke:#000000;stroke-dasharray:1.000000,3.000000;stroke-dashoffset:0.0;stroke-width:0.5;"/>
     </g>
     <g id="line2d_70">
      <g>
       <use style="stroke:#000000;stroke-width:0.5;" x="473.236363636" xlink:href="#m728421d6d4" y="82.5"/>
      </g>
     </g>
     <g id="line2d_71">
      <g>
       <use style="stroke:#000000;stroke-width:0.5;" x="777.6" xlink:href="#mcb0005524f" y="82.5"/>
      </g>
     </g>
     <g id="text_27">
      <!-- 10 -->
      <g transform="translate(458.273863636 85.259375)scale(0.1 -0.1)">
       <use xlink:href="#BitstreamVeraSans-Roman-31"/>
       <use x="63.623046875" xlink:href="#BitstreamVeraSans-Roman-30"/>
      </g>
     </g>
    </g>
    <g id="ytick_14">
     <g id="line2d_72">
      <path clip-path="url(#p540445ad68)" d="
M473.236 36
L777.6 36" style="fill:none;stroke:#000000;stroke-dasharray:1.000000,3.000000;stroke-dashoffset:0.0;stroke-width:0.5;"/>
     </g>
     <g id="line2d_73">
      <g>
       <use style="stroke:#000000;stroke-width:0.5;" x="473.236363636" xlink:href="#m728421d6d4" y="36.0"/>
      </g>
     </g>
     <g id="line2d_74">
      <g>
       <use style="stroke:#000000;stroke-width:0.5;" x="777.6" xlink:href="#mcb0005524f" y="36.0"/>
      </g>
     </g>
     <g id="text_28">
      <!-- 12 -->
      <g transform="translate(458.611363636 38.759375)scale(0.1 -0.1)">
       <use xlink:href="#BitstreamVeraSans-Roman-31"/>
       <use x="63.623046875" xlink:href="#BitstreamVeraSans-Roman-32"/>
      </g>
     </g>
    </g>
   </g>
   <g id="text_29">
    <!-- After Reset -->
    <g transform="translate(592.489431818 31.0)scale(0.12 -0.12)">
     <use xlink:href="#BitstreamVeraSans-Roman-41"/>
     <use x="64.783203125" xlink:href="#BitstreamVeraSans-Roman-66"/>
     <use x="98.23828125" xlink:href="#BitstreamVeraSans-Roman-74"/>
     <use x="137.447265625" xlink:href="#BitstreamVeraSans-Roman-65"/>
     <use x="198.970703125" xlink:href="#BitstreamVeraSans-Roman-72"/>
     <use x="240.083984375" xlink:href="#BitstreamVeraSans-Roman-20"/>
     <use x="271.87109375" xlink:href="#BitstreamVeraSans-Roman-52"/>
     <use x="336.853515625" xlink:href="#BitstreamVeraSans-Roman-65"/>
     <use x="398.376953125" xlink:href="#BitstreamVeraSans-Roman-73"/>
     <use x="450.4765625" xlink:href="#BitstreamVeraSans-Roman-65"/>
     <use x="512.0" xlink:href="#BitstreamVeraSans-Roman-74"/>
    </g>
   </g>
   <g id="legend_1">
    <g id="patch_12">
     <path d="
M652.871 63.2138
L771.6 63.2138
L771.6 42
L652.871 42
z
" style="fill:#ffffff;stroke:#000000;stroke-linejoin:miter;"/>
    </g>
    <g id="line2d_75">
     <path d="
M661.271 51.7181
L678.071 51.7181" style="fill:none;stroke:#0000ff;stroke-linecap:square;stroke-width:0.8;"/>
    </g>
    <g id="line2d_76"/>
    <g id="text_30">
     <!-- ltage-default -->
     <defs>
      <path d="
M45.4062 27.9844
Q45.4062 37.75 41.375 43.1094
Q37.3594 48.4844 30.0781 48.4844
Q22.8594 48.4844 18.8281 43.1094
Q14.7969 37.75 14.7969 27.9844
Q14.7969 18.2656 18.8281 12.8906
Q22.8594 7.51562 30.0781 7.51562
Q37.3594 7.51562 41.375 12.8906
Q45.4062 18.2656 45.4062 27.9844
M54.3906 6.78125
Q54.3906 -7.17188 48.1875 -13.9844
Q42 -20.7969 29.2031 -20.7969
Q24.4688 -20.7969 20.2656 -20.0938
Q16.0625 -19.3906 12.1094 -17.9219
L12.1094 -9.1875
Q16.0625 -11.3281 19.9219 -12.3438
Q23.7812 -13.375 27.7812 -13.375
Q36.625 -13.375 41.0156 -8.76562
Q45.4062 -4.15625 45.4062 5.17188
L45.4062 9.625
Q42.625 4.78125 38.2812 2.39062
Q33.9375 0 27.875 0
Q17.8281 0 11.6719 7.65625
Q5.51562 15.3281 5.51562 27.9844
Q5.51562 40.6719 11.6719 48.3281
Q17.8281 56 27.875 56
Q33.9375 56 38.2812 53.6094
Q42.625 51.2188 45.4062 46.3906
L45.4062 54.6875
L54.3906 54.6875
z
" id="BitstreamVeraSans-Roman-67"/>
      <path d="
M4.89062 31.3906
L31.2031 31.3906
L31.2031 23.3906
L4.89062 23.3906
z
" id="BitstreamVeraSans-Roman-2d"/>
      <path d="
M9.42188 75.9844
L18.4062 75.9844
L18.4062 0
L9.42188 0
z
" id="BitstreamVeraSans-Roman-6c"/>
     </defs>
     <g transform="translate(691.27125 55.918125)scale(0.12 -0.12)">
      <use xlink:href="#BitstreamVeraSans-Roman-6c"/>
      <use x="27.783203125" xlink:href="#BitstreamVeraSans-Roman-74"/>
      <use x="66.9921875" xlink:href="#BitstreamVeraSans-Roman-61"/>
      <use x="128.271484375" xlink:href="#BitstreamVeraSans-Roman-67"/>
      <use x="191.748046875" xlink:href="#BitstreamVeraSans-Roman-65"/>
      <use x="253.271484375" xlink:href="#BitstreamVeraSans-Roman-2d"/>
      <use x="289.35546875" xlink:href="#BitstreamVeraSans-Roman-64"/>
      <use x="352.83203125" xlink:href="#BitstreamVeraSans-Roman-65"/>
      <use x="414.35546875" xlink:href="#BitstreamVeraSans-Roman-66"/>
      <use x="449.560546875" xlink:href="#BitstreamVeraSans-Roman-61"/>
      <use x="510.83984375" xlink:href="#BitstreamVeraSans-Roman-75"/>
      <use x="574.21875" xlink:href="#BitstreamVeraSans-Roman-6c"/>
      <use x="602.001953125" xlink:href="#BitstreamVeraSans-Roman-74"/>
     </g>
    </g>
   </g>
  </g>
  <g id="text_31">
   <!-- LTAGE Predictor Transient Response (Perm) -->
   <defs>
    <path d="
M19.6719 64.7969
L19.6719 37.4062
L32.0781 37.4062
Q38.9688 37.4062 42.7188 40.9688
Q46.4844 44.5312 46.4844 51.125
Q46.4844 57.6719 42.7188 61.2344
Q38.9688 64.7969 32.0781 64.7969
z

M9.8125 72.9062
L32.0781 72.9062
Q44.3438 72.9062 50.6094 67.3594
Q56.8906 61.8125 56.8906 51.125
Q56.8906 40.3281 50.6094 34.8125
Q44.3438 29.2969 32.0781 29.2969
L19.6719 29.2969
L19.6719 0
L9.8125 0
z
" id="BitstreamVeraSans-Roman-50"/>
    <path d="
M9.8125 72.9062
L19.6719 72.9062
L19.6719 8.29688
L55.1719 8.29688
L55.1719 0
L9.8125 0
z
" id="BitstreamVeraSans-Roman-4c"/>
    <path d="
M52 44.1875
Q55.375 50.25 60.0625 53.125
Q64.75 56 71.0938 56
Q79.6406 56 84.2812 50.0156
Q88.9219 44.0469 88.9219 33.0156
L88.9219 0
L79.8906 0
L79.8906 32.7188
Q79.8906 40.5781 77.0938 44.375
Q74.3125 48.1875 68.6094 48.1875
Q61.625 48.1875 57.5625 43.5469
Q53.5156 38.9219 53.5156 30.9062
L53.5156 0
L44.4844 0
L44.4844 32.7188
Q44.4844 40.625 41.7031 44.4062
Q38.9219 48.1875 33.1094 48.1875
Q26.2188 48.1875 22.1562 43.5312
Q18.1094 38.875 18.1094 30.9062
L18.1094 0
L9.07812 0
L9.07812 54.6875
L18.1094 54.6875
L18.1094 46.1875
Q21.1875 51.2188 25.4844 53.6094
Q29.7812 56 35.6875 56
Q41.6562 56 45.8281 52.9688
Q50 49.9531 52 44.1875" id="BitstreamVeraSans-Roman-6d"/>
    <path d="
M59.5156 10.4062
L59.5156 29.9844
L43.4062 29.9844
L43.4062 38.0938
L69.2812 38.0938
L69.2812 6.78125
Q63.5781 2.73438 56.6875 0.65625
Q49.8125 -1.42188 42 -1.42188
Q24.9062 -1.42188 15.25 8.5625
Q5.60938 18.5625 5.60938 36.375
Q5.60938 54.25 15.25 64.2344
Q24.9062 74.2188 42 74.2188
Q49.125 74.2188 55.5469 72.4531
Q61.9688 70.7031 67.3906 67.2812
L67.3906 56.7812
Q61.9219 61.4219 55.7656 63.7656
Q49.6094 66.1094 42.8281 66.1094
Q29.4375 66.1094 22.7188 58.6406
Q16.0156 51.1719 16.0156 36.375
Q16.0156 21.625 22.7188 14.1562
Q29.4375 6.6875 42.8281 6.6875
Q48.0469 6.6875 52.1406 7.59375
Q56.25 8.5 59.5156 10.4062" id="BitstreamVeraSans-Roman-47"/>
    <path d="
M9.8125 72.9062
L55.9062 72.9062
L55.9062 64.5938
L19.6719 64.5938
L19.6719 43.0156
L54.3906 43.0156
L54.3906 34.7188
L19.6719 34.7188
L19.6719 8.29688
L56.7812 8.29688
L56.7812 0
L9.8125 0
z
" id="BitstreamVeraSans-Roman-45"/>
    <path d="
M-0.296875 72.9062
L61.375 72.9062
L61.375 64.5938
L35.5 64.5938
L35.5 0
L25.5938 0
L25.5938 64.5938
L-0.296875 64.5938
z
" id="BitstreamVeraSans-Roman-54"/>
   </defs>
   <g transform="translate(325.13984375 14.7984375)scale(0.1 -0.1)">
    <use xlink:href="#BitstreamVeraSans-Roman-4c"/>
    <use x="41.962890625" xlink:href="#BitstreamVeraSans-Roman-54"/>
    <use x="95.296875" xlink:href="#BitstreamVeraSans-Roman-41"/>
    <use x="161.955078125" xlink:href="#BitstreamVeraSans-Roman-47"/>
    <use x="239.4453125" xlink:href="#BitstreamVeraSans-Roman-45"/>
    <use x="302.62890625" xlink:href="#BitstreamVeraSans-Roman-20"/>
    <use x="334.416015625" xlink:href="#BitstreamVeraSans-Roman-50"/>
    <use x="392.96875" xlink:href="#BitstreamVeraSans-Roman-72"/>
    <use x="431.83203125" xlink:href="#BitstreamVeraSans-Roman-65"/>
    <use x="493.35546875" xlink:href="#BitstreamVeraSans-Roman-64"/>
    <use x="556.83203125" xlink:href="#BitstreamVeraSans-Roman-69"/>
    <use x="584.615234375" xlink:href="#BitstreamVeraSans-Roman-63"/>
    <use x="639.595703125" xlink:href="#BitstreamVeraSans-Roman-74"/>
    <use x="678.8046875" xlink:href="#BitstreamVeraSans-Roman-6f"/>
    <use x="739.986328125" xlink:href="#BitstreamVeraSans-Roman-72"/>
    <use x="781.099609375" xlink:href="#BitstreamVeraSans-Roman-20"/>
    <use x="812.88671875" xlink:href="#BitstreamVeraSans-Roman-54"/>
    <use x="859.220703125" xlink:href="#BitstreamVeraSans-Roman-72"/>
    <use x="900.333984375" xlink:href="#BitstreamVeraSans-Roman-61"/>
    <use x="961.61328125" xlink:href="#BitstreamVeraSans-Roman-6e"/>
    <use x="1024.9921875" xlink:href="#BitstreamVeraSans-Roman-73"/>
    <use x="1077.09179688" xlink:href="#BitstreamVeraSans-Roman-69"/>
    <use x="1104.875" xlink:href="#BitstreamVeraSans-Roman-65"/>
    <use x="1166.3984375" xlink:href="#BitstreamVeraSans-Roman-6e"/>
    <use x="1229.77734375" xlink:href="#BitstreamVeraSans-Roman-74"/>
    <use x="1268.98632812" xlink:href="#BitstreamVeraSans-Roman-20"/>
    <use x="1300.7734375" xlink:href="#BitstreamVeraSans-Roman-52"/>
    <use x="1365.75585938" xlink:href="#BitstreamVeraSans-Roman-65"/>
    <use x="1427.27929688" xlink:href="#BitstreamVeraSans-Roman-73"/>
    <use x="1479.37890625" xlink:href="#BitstreamVeraSans-Roman-70"/>
    <use x="1542.85546875" xlink:href="#BitstreamVeraSans-Roman-6f"/>
    <use x="1604.03710938" xlink:href="#BitstreamVeraSans-Roman-6e"/>
    <use x="1667.41601562" xlink:href="#BitstreamVeraSans-Roman-73"/>
    <use x="1719.515625" xlink:href="#BitstreamVeraSans-Roman-65"/>
    <use x="1781.0390625" xlink:href="#BitstreamVeraSans-Roman-20"/>
    <use x="1812.82617188" xlink:href="#BitstreamVeraSans-Roman-28"/>
    <use x="1851.83984375" xlink:href="#BitstreamVeraSans-Roman-50"/>
    <use x="1908.51757812" xlink:href="#BitstreamVeraSans-Roman-65"/>
    <use x="1970.04101562" xlink:href="#BitstreamVeraSans-Roman-72"/>
    <use x="2009.40429688" xlink:href="#BitstreamVeraSans-Roman-6d"/>
    <use x="2106.81640625" xlink:href="#BitstreamVeraSans-Roman-29"/>
   </g>
  </g>
 </g>
 <defs>
  <clipPath id="pa399c4f1e5">
   <rect height="279.0" width="304.363636364" x="108.0" y="36.0"/>
  </clipPath>
  <clipPath id="p540445ad68">
   <rect height="279.0" width="304.363636364" x="473.236363636" y="36.0"/>
  </clipPath>
 </defs>
</svg>
