tick=2654441504500 1 cpu_id=0 next_pid=-1 next_tgid=-1 next_task=kernel
tick=2654450269000 0 cpu_id=0 next_pid=698 next_tgid=698 next_task=m5
tick=2654518762500 2 cpu_id=0 next_pid=677 next_tgid=677 next_task=script
tick=2654789974000 3 cpu_id=0 next_pid=699 next_tgid=699 next_task=script
tick=2655314320000 2 cpu_id=0 next_pid=677 next_tgid=677 next_task=script
tick=2655396030000 4 cpu_id=0 next_pid=700 next_tgid=700 next_task=script
tick=2655972060500 2 cpu_id=0 next_pid=677 next_tgid=677 next_task=script
tick=2656649441500 1 cpu_id=0 next_pid=-1 next_tgid=-1 next_task=kernel
tick=2656652138000 1 cpu_id=0 next_pid=-1 next_tgid=-1 next_task=kernel
tick=2656664195500 1 cpu_id=0 next_pid=-1 next_tgid=-1 next_task=kernel
tick=2656666437500 5 cpu_id=0 next_pid=701 next_tgid=701 next_task=sh
tick=2656967752500 1 cpu_id=0 next_pid=-1 next_tgid=-1 next_task=kernel
tick=2656970344500 1 cpu_id=0 next_pid=-1 next_tgid=-1 next_task=kernel
tick=2656980571000 1 cpu_id=0 next_pid=-1 next_tgid=-1 next_task=kernel
tick=2656982395500 5 cpu_id=0 next_pid=701 next_tgid=701 next_task=cat
tick=2657172743000 2 cpu_id=0 next_pid=677 next_tgid=677 next_task=sh
tick=2657344470500 6 cpu_id=0 next_pid=1 next_tgid=1 next_task=init
tick=2657370278500 7 cpu_id=0 next_pid=704 next_tgid=704 next_task=init
tick=2657470395500 6 cpu_id=0 next_pid=1 next_tgid=1 next_task=init
tick=2657478421000 7 cpu_id=0 next_pid=704 next_tgid=704 next_task=getty
tick=2657974762000 1 cpu_id=0 next_pid=-1 next_tgid=-1 next_task=kernel
tick=2657977900500 8 cpu_id=0 next_pid=703 next_tgid=703 next_task=sh
tick=2658198161000 7 cpu_id=0 next_pid=704 next_tgid=704 next_task=getty
tick=2658259119000 8 cpu_id=0 next_pid=703 next_tgid=703 next_task=sh
tick=2658656044000 9 cpu_id=0 next_pid=702 next_tgid=702 next_task=sh
tick=2658849296500 8 cpu_id=0 next_pid=703 next_tgid=703 next_task=Puzzle
tick=2658951382000 9 cpu_id=0 next_pid=702 next_tgid=702 next_task=sh
tick=2659021072000 1 cpu_id=0 next_pid=-1 next_tgid=-1 next_task=kernel
tick=2659023715000 8 cpu_id=0 next_pid=703 next_tgid=703 next_task=Puzzle
tick=2659088233500 9 cpu_id=0 next_pid=702 next_tgid=702 next_task=sh
tick=2659210084000 8 cpu_id=0 next_pid=703 next_tgid=703 next_task=Puzzle
tick=2659418249000 9 cpu_id=0 next_pid=702 next_tgid=702 next_task=Queens
tick=2659475397500 10 cpu_id=0 next_pid=0 next_tgid=0 next_task=swapper/0
tick=2659542352000 8 cpu_id=0 next_pid=703 next_tgid=703 next_task=Puzzle
tick=2659615364000 9 cpu_id=0 next_pid=702 next_tgid=702 next_task=Queens
tick=2659690181500 8 cpu_id=0 next_pid=703 next_tgid=703 next_task=Puzzle
tick=2659727553000 10 cpu_id=0 next_pid=0 next_tgid=0 next_task=swapper/0
tick=2659785729000 9 cpu_id=0 next_pid=702 next_tgid=702 next_task=Queens
tick=2659939932000 8 cpu_id=0 next_pid=703 next_tgid=703 next_task=Puzzle
tick=2660013798000 1 cpu_id=0 next_pid=-1 next_tgid=-1 next_task=kernel
tick=2660016196000 1 cpu_id=0 next_pid=-1 next_tgid=-1 next_task=kernel
tick=2660064704500 1 cpu_id=0 next_pid=-1 next_tgid=-1 next_task=kernel
tick=2660066117500 8 cpu_id=0 next_pid=703 next_tgid=703 next_task=Puzzle
tick=2660195668000 9 cpu_id=0 next_pid=702 next_tgid=702 next_task=Queens
tick=2660279399000 8 cpu_id=0 next_pid=703 next_tgid=703 next_task=Puzzle
tick=2661963487000 1 cpu_id=0 next_pid=-1 next_tgid=-1 next_task=kernel
tick=2661965976500 9 cpu_id=0 next_pid=702 next_tgid=702 next_task=Queens
tick=2662041999000 8 cpu_id=0 next_pid=703 next_tgid=703 next_task=Puzzle
tick=2662102599000 9 cpu_id=0 next_pid=702 next_tgid=702 next_task=Queens
tick=2662783073500 8 cpu_id=0 next_pid=703 next_tgid=703 next_task=Puzzle
tick=2662962514000 1 cpu_id=0 next_pid=-1 next_tgid=-1 next_task=kernel
tick=2662964261500 9 cpu_id=0 next_pid=702 next_tgid=702 next_task=Queens
tick=2666959755500 8 cpu_id=0 next_pid=703 next_tgid=703 next_task=Puzzle
tick=2670960793500 9 cpu_id=0 next_pid=702 next_tgid=702 next_task=Queens
tick=2674958594500 8 cpu_id=0 next_pid=703 next_tgid=703 next_task=Puzzle
tick=2678958619500 9 cpu_id=0 next_pid=702 next_tgid=702 next_task=Queens
tick=2682959515000 8 cpu_id=0 next_pid=703 next_tgid=703 next_task=Puzzle
tick=2686958809000 9 cpu_id=0 next_pid=702 next_tgid=702 next_task=Queens
tick=2690959461500 8 cpu_id=0 next_pid=703 next_tgid=703 next_task=Puzzle
tick=2694958836000 9 cpu_id=0 next_pid=702 next_tgid=702 next_task=Queens
tick=2698959295500 8 cpu_id=0 next_pid=703 next_tgid=703 next_task=Puzzle
tick=2702959967000 9 cpu_id=0 next_pid=702 next_tgid=702 next_task=Queens
tick=2706959170500 8 cpu_id=0 next_pid=703 next_tgid=703 next_task=Puzzle
tick=2710958142000 9 cpu_id=0 next_pid=702 next_tgid=702 next_task=Queens
tick=2714960969000 1 cpu_id=0 next_pid=-1 next_tgid=-1 next_task=kernel
tick=2714964134500 8 cpu_id=0 next_pid=703 next_tgid=703 next_task=Puzzle
