tick=2654441708000 1 cpu_id=0 next_pid=-1 next_tgid=-1 next_task=kernel
tick=2654450757500 0 cpu_id=0 next_pid=698 next_tgid=698 next_task=m5
tick=2654521918500 2 cpu_id=0 next_pid=677 next_tgid=677 next_task=script
tick=2654802745500 3 cpu_id=0 next_pid=699 next_tgid=699 next_task=script
tick=2655338506500 2 cpu_id=0 next_pid=677 next_tgid=677 next_task=script
tick=2655424449000 4 cpu_id=0 next_pid=700 next_tgid=700 next_task=script
tick=2655972915000 1 cpu_id=0 next_pid=-1 next_tgid=-1 next_task=kernel
tick=2655975829500 1 cpu_id=0 next_pid=-1 next_tgid=-1 next_task=kernel
tick=2655986440500 1 cpu_id=0 next_pid=-1 next_tgid=-1 next_task=kernel
tick=2655988600000 4 cpu_id=0 next_pid=700 next_tgid=700 next_task=chmod
tick=2656050497500 2 cpu_id=0 next_pid=677 next_tgid=677 next_task=script
tick=2657353506500 5 cpu_id=0 next_pid=1 next_tgid=1 next_task=init
tick=2657384018000 1 cpu_id=0 next_pid=-1 next_tgid=-1 next_task=kernel
tick=2657387411500 6 cpu_id=0 next_pid=707 next_tgid=707 next_task=sh
tick=2657637277500 7 cpu_id=0 next_pid=711 next_tgid=711 next_task=sh
tick=2657716534500 8 cpu_id=0 next_pid=708 next_tgid=708 next_task=sh
tick=2657793837000 9 cpu_id=0 next_pid=709 next_tgid=709 next_task=sh
tick=2657870626500 10 cpu_id=0 next_pid=710 next_tgid=710 next_task=sh
tick=2657948903500 11 cpu_id=0 next_pid=712 next_tgid=712 next_task=init
tick=2657966690000 1 cpu_id=0 next_pid=-1 next_tgid=-1 next_task=kernel
tick=2657968715000 11 cpu_id=0 next_pid=712 next_tgid=712 next_task=init
tick=2658073900000 5 cpu_id=0 next_pid=1 next_tgid=1 next_task=init
tick=2658082355500 11 cpu_id=0 next_pid=712 next_tgid=712 next_task=getty
tick=2658670150000 12 cpu_id=0 next_pid=706 next_tgid=706 next_task=sh
tick=2658751996500 6 cpu_id=0 next_pid=707 next_tgid=707 next_task=sh
tick=2658809970500 7 cpu_id=0 next_pid=711 next_tgid=711 next_task=sh
tick=2658825835500 8 cpu_id=0 next_pid=708 next_tgid=708 next_task=sh
tick=2658828790000 9 cpu_id=0 next_pid=709 next_tgid=709 next_task=sh
tick=2658831572000 10 cpu_id=0 next_pid=710 next_tgid=710 next_task=sh
tick=2658834288500 12 cpu_id=0 next_pid=706 next_tgid=706 next_task=sh
tick=2658836433500 13 cpu_id=0 next_pid=705 next_tgid=705 next_task=sh
tick=2658919522000 6 cpu_id=0 next_pid=707 next_tgid=707 next_task=sh
tick=2658994787000 1 cpu_id=0 next_pid=-1 next_tgid=-1 next_task=kernel
tick=2658997134500 1 cpu_id=0 next_pid=-1 next_tgid=-1 next_task=kernel
tick=2659010854500 1 cpu_id=0 next_pid=-1 next_tgid=-1 next_task=kernel
tick=2659013369500 6 cpu_id=0 next_pid=707 next_tgid=707 next_task=sh
tick=2659086800000 7 cpu_id=0 next_pid=711 next_tgid=711 next_task=sh
tick=2659314198500 8 cpu_id=0 next_pid=708 next_tgid=708 next_task=sh
tick=2659492024500 9 cpu_id=0 next_pid=709 next_tgid=709 next_task=sh
tick=2659671003000 10 cpu_id=0 next_pid=710 next_tgid=710 next_task=sh
tick=2659749035000 12 cpu_id=0 next_pid=706 next_tgid=706 next_task=sh
tick=2659880075500 10 cpu_id=0 next_pid=710 next_tgid=710 next_task=sh
tick=2659998643000 1 cpu_id=0 next_pid=-1 next_tgid=-1 next_task=kernel
tick=2660000714000 1 cpu_id=0 next_pid=-1 next_tgid=-1 next_task=kernel
tick=2660008001500 10 cpu_id=0 next_pid=710 next_tgid=710 next_task=sh
tick=2660123349500 8 cpu_id=0 next_pid=708 next_tgid=708 next_task=sh
tick=2660297466500 9 cpu_id=0 next_pid=709 next_tgid=709 next_task=sh
tick=2660480729500 12 cpu_id=0 next_pid=706 next_tgid=706 next_task=sh
tick=2660663557000 7 cpu_id=0 next_pid=711 next_tgid=711 next_task=sh
tick=2660841396000 13 cpu_id=0 next_pid=705 next_tgid=705 next_task=sh
tick=2660980950000 10 cpu_id=0 next_pid=710 next_tgid=710 next_task=Oscar
tick=2661026782500 8 cpu_id=0 next_pid=708 next_tgid=708 next_task=IntMM
tick=2661081111500 10 cpu_id=0 next_pid=710 next_tgid=710 next_task=Oscar
tick=2661154042000 9 cpu_id=0 next_pid=709 next_tgid=709 next_task=Perm
tick=2661161557500 6 cpu_id=0 next_pid=707 next_tgid=707 next_task=sh
tick=2661398492000 9 cpu_id=0 next_pid=709 next_tgid=709 next_task=Perm
tick=2661471468500 14 cpu_id=0 next_pid=704 next_tgid=704 next_task=sh
tick=2661685026500 13 cpu_id=0 next_pid=705 next_tgid=705 next_task=sh
tick=2661864782000 8 cpu_id=0 next_pid=708 next_tgid=708 next_task=IntMM
tick=2661938121000 7 cpu_id=0 next_pid=711 next_tgid=711 next_task=Towers
tick=2661949335000 10 cpu_id=0 next_pid=710 next_tgid=710 next_task=Oscar
tick=2662353641000 12 cpu_id=0 next_pid=706 next_tgid=706 next_task=FloatMM
tick=2662364087000 7 cpu_id=0 next_pid=711 next_tgid=711 next_task=Towers
tick=2662486860500 12 cpu_id=0 next_pid=706 next_tgid=706 next_task=FloatMM
tick=2662512606500 9 cpu_id=0 next_pid=709 next_tgid=709 next_task=Perm
tick=2662683573500 12 cpu_id=0 next_pid=706 next_tgid=706 next_task=FloatMM
tick=2662892771500 8 cpu_id=0 next_pid=708 next_tgid=708 next_task=IntMM
tick=2663105133500 7 cpu_id=0 next_pid=711 next_tgid=711 next_task=Towers
tick=2663314112000 13 cpu_id=0 next_pid=705 next_tgid=705 next_task=Bubblesort
tick=2663319951500 14 cpu_id=0 next_pid=704 next_tgid=704 next_task=sh
tick=2663651711500 13 cpu_id=0 next_pid=705 next_tgid=705 next_task=Bubblesort
tick=2663726458000 6 cpu_id=0 next_pid=707 next_tgid=707 next_task=RealMM
tick=2663736827500 9 cpu_id=0 next_pid=709 next_tgid=709 next_task=Perm
tick=2663871585000 6 cpu_id=0 next_pid=707 next_tgid=707 next_task=RealMM
tick=2663947047000 13 cpu_id=0 next_pid=705 next_tgid=705 next_task=Bubblesort
tick=2664068891500 15 cpu_id=0 next_pid=703 next_tgid=703 next_task=sh
tick=2664332821500 12 cpu_id=0 next_pid=706 next_tgid=706 next_task=FloatMM
tick=2664467111500 6 cpu_id=0 next_pid=707 next_tgid=707 next_task=RealMM
tick=2664585283000 8 cpu_id=0 next_pid=708 next_tgid=708 next_task=IntMM
tick=2664767771500 9 cpu_id=0 next_pid=709 next_tgid=709 next_task=Perm
tick=2664859376000 7 cpu_id=0 next_pid=711 next_tgid=711 next_task=Towers
tick=2665005225000 13 cpu_id=0 next_pid=705 next_tgid=705 next_task=Bubblesort
tick=2665094300000 12 cpu_id=0 next_pid=706 next_tgid=706 next_task=FloatMM
tick=2665186460000 6 cpu_id=0 next_pid=707 next_tgid=707 next_task=RealMM
tick=2665324786500 10 cpu_id=0 next_pid=710 next_tgid=710 next_task=Oscar
tick=2665415906500 9 cpu_id=0 next_pid=709 next_tgid=709 next_task=Perm
tick=2665588991000 13 cpu_id=0 next_pid=705 next_tgid=705 next_task=Bubblesort
tick=2665722565000 8 cpu_id=0 next_pid=708 next_tgid=708 next_task=IntMM
tick=2665855901500 12 cpu_id=0 next_pid=706 next_tgid=706 next_task=FloatMM
tick=2666986254000 1 cpu_id=0 next_pid=-1 next_tgid=-1 next_task=kernel
tick=2666993548500 7 cpu_id=0 next_pid=711 next_tgid=711 next_task=Towers
tick=2667189446500 14 cpu_id=0 next_pid=704 next_tgid=704 next_task=Treesort
tick=2667195871500 10 cpu_id=0 next_pid=710 next_tgid=710 next_task=Oscar
tick=2667433071500 14 cpu_id=0 next_pid=704 next_tgid=704 next_task=Treesort
tick=2667508251000 15 cpu_id=0 next_pid=703 next_tgid=703 next_task=sh
tick=2667699349500 6 cpu_id=0 next_pid=707 next_tgid=707 next_task=RealMM
tick=2667789109500 14 cpu_id=0 next_pid=704 next_tgid=704 next_task=Treesort
tick=2667952363000 13 cpu_id=0 next_pid=705 next_tgid=705 next_task=Bubblesort
tick=2668961973000 8 cpu_id=0 next_pid=708 next_tgid=708 next_task=IntMM
tick=2669898321000 9 cpu_id=0 next_pid=709 next_tgid=709 next_task=Perm
tick=2670946306000 6 cpu_id=0 next_pid=707 next_tgid=707 next_task=RealMM
tick=2671962558000 7 cpu_id=0 next_pid=711 next_tgid=711 next_task=Towers
tick=2672962971500 15 cpu_id=0 next_pid=703 next_tgid=703 next_task=Quicksort
tick=2673012340000 10 cpu_id=0 next_pid=710 next_tgid=710 next_task=Oscar
tick=2673961837000 14 cpu_id=0 next_pid=704 next_tgid=704 next_task=Treesort
tick=2674040453500 16 cpu_id=0 next_pid=702 next_tgid=702 next_task=sh
tick=2674270645500 15 cpu_id=0 next_pid=703 next_tgid=703 next_task=Quicksort
tick=2674344247500 14 cpu_id=0 next_pid=704 next_tgid=704 next_task=Treesort
tick=2674548653000 15 cpu_id=0 next_pid=703 next_tgid=703 next_task=Quicksort
tick=2674714442000 16 cpu_id=0 next_pid=702 next_tgid=702 next_task=sh
tick=2675003769500 15 cpu_id=0 next_pid=703 next_tgid=703 next_task=Quicksort
tick=2675090644500 14 cpu_id=0 next_pid=704 next_tgid=704 next_task=Treesort
tick=2675962854000 15 cpu_id=0 next_pid=703 next_tgid=703 next_task=Quicksort
tick=2676046654000 16 cpu_id=0 next_pid=702 next_tgid=702 next_task=Puzzle
tick=2676055844500 8 cpu_id=0 next_pid=708 next_tgid=708 next_task=IntMM
tick=2676961482500 15 cpu_id=0 next_pid=703 next_tgid=703 next_task=Quicksort
tick=2677962087000 16 cpu_id=0 next_pid=702 next_tgid=702 next_task=Puzzle
tick=2678029087000 13 cpu_id=0 next_pid=705 next_tgid=705 next_task=Bubblesort
tick=2678960871500 16 cpu_id=0 next_pid=702 next_tgid=702 next_task=Puzzle
tick=2679168407500 12 cpu_id=0 next_pid=706 next_tgid=706 next_task=FloatMM
tick=2679961619000 16 cpu_id=0 next_pid=702 next_tgid=702 next_task=Puzzle
tick=2680038820500 6 cpu_id=0 next_pid=707 next_tgid=707 next_task=RealMM
tick=2680133862500 16 cpu_id=0 next_pid=702 next_tgid=702 next_task=Puzzle
tick=2680221102500 9 cpu_id=0 next_pid=709 next_tgid=709 next_task=Perm
tick=2681960638000 7 cpu_id=0 next_pid=711 next_tgid=711 next_task=Towers
tick=2682278822500 10 cpu_id=0 next_pid=710 next_tgid=710 next_task=Oscar
tick=2683959814500 16 cpu_id=0 next_pid=702 next_tgid=702 next_task=Puzzle
tick=2684096856500 6 cpu_id=0 next_pid=707 next_tgid=707 next_task=RealMM
tick=2684961812500 17 cpu_id=0 next_pid=701 next_tgid=701 next_task=sh
tick=2685125483000 16 cpu_id=0 next_pid=702 next_tgid=702 next_task=Puzzle
tick=2685966705500 1 cpu_id=0 next_pid=-1 next_tgid=-1 next_task=kernel
tick=2685970070500 14 cpu_id=0 next_pid=704 next_tgid=704 next_task=Treesort
tick=2686964114500 1 cpu_id=0 next_pid=-1 next_tgid=-1 next_task=kernel
tick=2686966513000 17 cpu_id=0 next_pid=701 next_tgid=701 next_task=sh
tick=2687154039500 7 cpu_id=0 next_pid=711 next_tgid=711 next_task=Towers
tick=2687962789500 17 cpu_id=0 next_pid=701 next_tgid=701 next_task=Queens
tick=2688010221000 15 cpu_id=0 next_pid=703 next_tgid=703 next_task=Quicksort
tick=2688303584000 17 cpu_id=0 next_pid=701 next_tgid=701 next_task=Queens
tick=2688378983500 12 cpu_id=0 next_pid=706 next_tgid=706 next_task=FloatMM
tick=2689960681500 17 cpu_id=0 next_pid=701 next_tgid=701 next_task=Queens
tick=2690068809500 8 cpu_id=0 next_pid=708 next_tgid=708 next_task=IntMM
tick=2690964006500 1 cpu_id=0 next_pid=-1 next_tgid=-1 next_task=kernel
tick=2690966561500 17 cpu_id=0 next_pid=701 next_tgid=701 next_task=Queens
tick=2691037338500 15 cpu_id=0 next_pid=703 next_tgid=703 next_task=Quicksort
tick=2691962689000 1 cpu_id=0 next_pid=-1 next_tgid=-1 next_task=kernel
tick=2691965256000 17 cpu_id=0 next_pid=701 next_tgid=701 next_task=Queens
tick=2692045497000 13 cpu_id=0 next_pid=705 next_tgid=705 next_task=Bubblesort
tick=2692331732000 17 cpu_id=0 next_pid=701 next_tgid=701 next_task=Queens
tick=2693360465500 6 cpu_id=0 next_pid=707 next_tgid=707 next_task=RealMM
tick=2693964402500 1 cpu_id=0 next_pid=-1 next_tgid=-1 next_task=kernel
tick=2693967220500 6 cpu_id=0 next_pid=707 next_tgid=707 next_task=RealMM
tick=2694962201000 1 cpu_id=0 next_pid=-1 next_tgid=-1 next_task=kernel
tick=2694964250500 16 cpu_id=0 next_pid=702 next_tgid=702 next_task=Puzzle
tick=2695961989500 13 cpu_id=0 next_pid=705 next_tgid=705 next_task=Bubblesort
tick=2696961394000 7 cpu_id=0 next_pid=711 next_tgid=711 next_task=Towers
tick=2697960779000 14 cpu_id=0 next_pid=704 next_tgid=704 next_task=Treesort
tick=2698237318000 8 cpu_id=0 next_pid=708 next_tgid=708 next_task=IntMM
tick=2699960536000 14 cpu_id=0 next_pid=704 next_tgid=704 next_task=Treesort
tick=2700961672000 10 cpu_id=0 next_pid=710 next_tgid=710 next_task=Oscar
tick=2701959833000 9 cpu_id=0 next_pid=709 next_tgid=709 next_task=Perm
tick=2702959823000 15 cpu_id=0 next_pid=703 next_tgid=703 next_task=Quicksort
tick=2703960290500 17 cpu_id=0 next_pid=701 next_tgid=701 next_task=Queens
tick=2704960745500 16 cpu_id=0 next_pid=702 next_tgid=702 next_task=Puzzle
tick=2705959663500 13 cpu_id=0 next_pid=705 next_tgid=705 next_task=Bubblesort
tick=2706960483000 7 cpu_id=0 next_pid=711 next_tgid=711 next_task=Towers
tick=2707960743500 12 cpu_id=0 next_pid=706 next_tgid=706 next_task=FloatMM
tick=2708960951500 14 cpu_id=0 next_pid=704 next_tgid=704 next_task=Treesort
tick=2709961969000 6 cpu_id=0 next_pid=707 next_tgid=707 next_task=RealMM
tick=2710960559500 10 cpu_id=0 next_pid=710 next_tgid=710 next_task=Oscar
tick=2711959358500 9 cpu_id=0 next_pid=709 next_tgid=709 next_task=Perm
tick=2712959910500 15 cpu_id=0 next_pid=703 next_tgid=703 next_task=Quicksort
tick=2713960242500 17 cpu_id=0 next_pid=701 next_tgid=701 next_task=Queens
tick=2714961816500 1 cpu_id=0 next_pid=-1 next_tgid=-1 next_task=kernel
tick=2714965407500 16 cpu_id=0 next_pid=702 next_tgid=702 next_task=Puzzle
tick=2715960243000 13 cpu_id=0 next_pid=705 next_tgid=705 next_task=Bubblesort
tick=2716962457000 1 cpu_id=0 next_pid=-1 next_tgid=-1 next_task=kernel
tick=2716970687500 7 cpu_id=0 next_pid=711 next_tgid=711 next_task=Towers
tick=2717960871500 12 cpu_id=0 next_pid=706 next_tgid=706 next_task=FloatMM
tick=2718960697500 8 cpu_id=0 next_pid=708 next_tgid=708 next_task=IntMM
tick=2719960671500 14 cpu_id=0 next_pid=704 next_tgid=704 next_task=Treesort
tick=2720960942000 6 cpu_id=0 next_pid=707 next_tgid=707 next_task=RealMM
tick=2721960198500 10 cpu_id=0 next_pid=710 next_tgid=710 next_task=Oscar
tick=2722958448500 9 cpu_id=0 next_pid=709 next_tgid=709 next_task=Perm
tick=2723959581500 15 cpu_id=0 next_pid=703 next_tgid=703 next_task=Quicksort
tick=2724959976500 17 cpu_id=0 next_pid=701 next_tgid=701 next_task=Queens
tick=2725959739500 16 cpu_id=0 next_pid=702 next_tgid=702 next_task=Puzzle
tick=2726959430500 7 cpu_id=0 next_pid=711 next_tgid=711 next_task=Towers
tick=2727959132500 13 cpu_id=0 next_pid=705 next_tgid=705 next_task=Bubblesort
tick=2728960366000 12 cpu_id=0 next_pid=706 next_tgid=706 next_task=FloatMM
tick=2729960640500 8 cpu_id=0 next_pid=708 next_tgid=708 next_task=IntMM
tick=2730960413500 14 cpu_id=0 next_pid=704 next_tgid=704 next_task=Treesort
tick=2731960932500 6 cpu_id=0 next_pid=707 next_tgid=707 next_task=RealMM
tick=2732960225500 10 cpu_id=0 next_pid=710 next_tgid=710 next_task=Oscar
tick=2733959538500 9 cpu_id=0 next_pid=709 next_tgid=709 next_task=Perm
tick=2734959595500 15 cpu_id=0 next_pid=703 next_tgid=703 next_task=Quicksort
tick=2735959402500 17 cpu_id=0 next_pid=701 next_tgid=701 next_task=Queens
tick=2736959712000 16 cpu_id=0 next_pid=702 next_tgid=702 next_task=Puzzle
tick=2737959329000 7 cpu_id=0 next_pid=711 next_tgid=711 next_task=Towers
tick=2738959167500 13 cpu_id=0 next_pid=705 next_tgid=705 next_task=Bubblesort
tick=2739959582000 12 cpu_id=0 next_pid=706 next_tgid=706 next_task=FloatMM
