tick=2654441708000 1 cpu_id=0 next_pid=-1 next_tgid=-1 next_task=kernel
tick=2654450757500 0 cpu_id=0 next_pid=698 next_tgid=698 next_task=m5
tick=2654521918500 2 cpu_id=0 next_pid=677 next_tgid=677 next_task=script
tick=2654802745500 3 cpu_id=0 next_pid=699 next_tgid=699 next_task=script
tick=2655339005500 2 cpu_id=0 next_pid=677 next_tgid=677 next_task=script
tick=2655427294000 4 cpu_id=0 next_pid=700 next_tgid=700 next_task=script
tick=2655974867000 1 cpu_id=0 next_pid=-1 next_tgid=-1 next_task=kernel
tick=2655977924000 1 cpu_id=0 next_pid=-1 next_tgid=-1 next_task=kernel
tick=2655989351500 1 cpu_id=0 next_pid=-1 next_tgid=-1 next_task=kernel
tick=2655991774500 4 cpu_id=0 next_pid=700 next_tgid=700 next_task=chmod
tick=2656052793500 2 cpu_id=0 next_pid=677 next_tgid=677 next_task=script
tick=2657051136500 1 cpu_id=0 next_pid=-1 next_tgid=-1 next_task=kernel
tick=2657054669000 5 cpu_id=0 next_pid=1 next_tgid=1 next_task=init
tick=2657082253000 6 cpu_id=0 next_pid=707 next_tgid=707 next_task=init
tick=2657200683500 5 cpu_id=0 next_pid=1 next_tgid=1 next_task=init
tick=2657209008000 6 cpu_id=0 next_pid=707 next_tgid=707 next_task=getty
tick=2657787612500 7 cpu_id=0 next_pid=706 next_tgid=706 next_task=sh
tick=2658029871500 1 cpu_id=0 next_pid=-1 next_tgid=-1 next_task=kernel
tick=2658033691000 8 cpu_id=0 next_pid=705 next_tgid=705 next_task=sh
tick=2658113858000 7 cpu_id=0 next_pid=706 next_tgid=706 next_task=sh
tick=2658169274500 8 cpu_id=0 next_pid=705 next_tgid=705 next_task=sh
tick=2658182169500 7 cpu_id=0 next_pid=706 next_tgid=706 next_task=sh
tick=2658305529000 8 cpu_id=0 next_pid=705 next_tgid=705 next_task=sh
tick=2658486804500 9 cpu_id=0 next_pid=704 next_tgid=704 next_task=sh
tick=2658697776500 7 cpu_id=0 next_pid=706 next_tgid=706 next_task=sh
tick=2658924268000 8 cpu_id=0 next_pid=705 next_tgid=705 next_task=sh
tick=2658998505500 1 cpu_id=0 next_pid=-1 next_tgid=-1 next_task=kernel
tick=2659001356500 1 cpu_id=0 next_pid=-1 next_tgid=-1 next_task=kernel
tick=2659015943000 1 cpu_id=0 next_pid=-1 next_tgid=-1 next_task=kernel
tick=2659018437000 8 cpu_id=0 next_pid=705 next_tgid=705 next_task=sh
tick=2659131386500 9 cpu_id=0 next_pid=704 next_tgid=704 next_task=sh
tick=2659311968500 7 cpu_id=0 next_pid=706 next_tgid=706 next_task=Bubblesort
tick=2659368647000 8 cpu_id=0 next_pid=705 next_tgid=705 next_task=Towers
tick=2659427217500 7 cpu_id=0 next_pid=706 next_tgid=706 next_task=Bubblesort
tick=2659502919500 10 cpu_id=0 next_pid=703 next_tgid=703 next_task=sh
tick=2659719196500 8 cpu_id=0 next_pid=705 next_tgid=705 next_task=Towers
tick=2659842218000 7 cpu_id=0 next_pid=706 next_tgid=706 next_task=Bubblesort
tick=2659977138500 1 cpu_id=0 next_pid=-1 next_tgid=-1 next_task=kernel
tick=2659979262000 1 cpu_id=0 next_pid=-1 next_tgid=-1 next_task=kernel
tick=2660027360000 9 cpu_id=0 next_pid=704 next_tgid=704 next_task=Oscar
tick=2660083954500 8 cpu_id=0 next_pid=705 next_tgid=705 next_task=Towers
tick=2660245592500 9 cpu_id=0 next_pid=704 next_tgid=704 next_task=Oscar
tick=2660415796500 7 cpu_id=0 next_pid=706 next_tgid=706 next_task=Bubblesort
tick=2660502283500 10 cpu_id=0 next_pid=703 next_tgid=703 next_task=sh
tick=2660691470500 7 cpu_id=0 next_pid=706 next_tgid=706 next_task=Bubblesort
tick=2660781550500 8 cpu_id=0 next_pid=705 next_tgid=705 next_task=Towers
tick=2660921125500 9 cpu_id=0 next_pid=704 next_tgid=704 next_task=Oscar
tick=2661272475000 7 cpu_id=0 next_pid=706 next_tgid=706 next_task=Bubblesort
tick=2662960046500 10 cpu_id=0 next_pid=703 next_tgid=703 next_task=Perm
tick=2663007377000 8 cpu_id=0 next_pid=705 next_tgid=705 next_task=Towers
tick=2663209354000 10 cpu_id=0 next_pid=703 next_tgid=703 next_task=Perm
tick=2663333167500 11 cpu_id=0 next_pid=702 next_tgid=702 next_task=sh
tick=2663544286500 10 cpu_id=0 next_pid=703 next_tgid=703 next_task=Perm
tick=2663656505000 8 cpu_id=0 next_pid=705 next_tgid=705 next_task=Towers
tick=2664959847000 9 cpu_id=0 next_pid=704 next_tgid=704 next_task=Oscar
tick=2665039724500 10 cpu_id=0 next_pid=703 next_tgid=703 next_task=Perm
tick=2665176785000 11 cpu_id=0 next_pid=702 next_tgid=702 next_task=sh
tick=2665363712000 9 cpu_id=0 next_pid=704 next_tgid=704 next_task=Oscar
tick=2665499335500 10 cpu_id=0 next_pid=703 next_tgid=703 next_task=Perm
tick=2665588206000 9 cpu_id=0 next_pid=704 next_tgid=704 next_task=Oscar
tick=2666960310500 11 cpu_id=0 next_pid=702 next_tgid=702 next_task=Puzzle
tick=2667010548500 10 cpu_id=0 next_pid=703 next_tgid=703 next_task=Perm
tick=2667133826500 11 cpu_id=0 next_pid=702 next_tgid=702 next_task=Puzzle
tick=2667255692500 10 cpu_id=0 next_pid=703 next_tgid=703 next_task=Perm
tick=2668327777500 11 cpu_id=0 next_pid=702 next_tgid=702 next_task=Puzzle
tick=2668591089500 12 cpu_id=0 next_pid=701 next_tgid=701 next_task=sh
tick=2668803582500 11 cpu_id=0 next_pid=702 next_tgid=702 next_task=Puzzle
tick=2668938165500 12 cpu_id=0 next_pid=701 next_tgid=701 next_task=sh
tick=2669018219000 1 cpu_id=0 next_pid=-1 next_tgid=-1 next_task=kernel
tick=2669020837000 1 cpu_id=0 next_pid=-1 next_tgid=-1 next_task=kernel
tick=2669026402000 11 cpu_id=0 next_pid=702 next_tgid=702 next_task=Puzzle
tick=2669106772000 12 cpu_id=0 next_pid=701 next_tgid=701 next_task=sh
tick=2669281460500 11 cpu_id=0 next_pid=702 next_tgid=702 next_task=Puzzle
tick=2669430039500 8 cpu_id=0 next_pid=705 next_tgid=705 next_task=Towers
tick=2669563206000 11 cpu_id=0 next_pid=702 next_tgid=702 next_task=Puzzle
tick=2669965064500 1 cpu_id=0 next_pid=-1 next_tgid=-1 next_task=kernel
tick=2669967775500 12 cpu_id=0 next_pid=701 next_tgid=701 next_task=Queens
tick=2670015146000 7 cpu_id=0 next_pid=706 next_tgid=706 next_task=Bubblesort
tick=2670407193500 12 cpu_id=0 next_pid=701 next_tgid=701 next_task=Queens
tick=2670481512500 8 cpu_id=0 next_pid=705 next_tgid=705 next_task=Towers
tick=2671960907500 12 cpu_id=0 next_pid=701 next_tgid=701 next_task=Queens
tick=2672066798000 11 cpu_id=0 next_pid=702 next_tgid=702 next_task=Puzzle
tick=2672964406500 1 cpu_id=0 next_pid=-1 next_tgid=-1 next_task=kernel
tick=2672966875000 10 cpu_id=0 next_pid=703 next_tgid=703 next_task=Perm
tick=2673963590500 1 cpu_id=0 next_pid=-1 next_tgid=-1 next_task=kernel
tick=2673965836000 12 cpu_id=0 next_pid=701 next_tgid=701 next_task=Queens
tick=2674041054000 9 cpu_id=0 next_pid=704 next_tgid=704 next_task=Oscar
tick=2675963530500 1 cpu_id=0 next_pid=-1 next_tgid=-1 next_task=kernel
tick=2675965992500 12 cpu_id=0 next_pid=701 next_tgid=701 next_task=Queens
tick=2676047615500 7 cpu_id=0 next_pid=706 next_tgid=706 next_task=Bubblesort
tick=2676962989500 1 cpu_id=0 next_pid=-1 next_tgid=-1 next_task=kernel
tick=2676965093500 12 cpu_id=0 next_pid=701 next_tgid=701 next_task=Queens
tick=2677976860000 1 cpu_id=0 next_pid=-1 next_tgid=-1 next_task=kernel
tick=2677984000000 11 cpu_id=0 next_pid=702 next_tgid=702 next_task=Puzzle
tick=2679958765500 10 cpu_id=0 next_pid=703 next_tgid=703 next_task=Perm
tick=2681960547500 12 cpu_id=0 next_pid=701 next_tgid=701 next_task=Queens
tick=2683960385500 7 cpu_id=0 next_pid=706 next_tgid=706 next_task=Bubblesort
tick=2685959933500 8 cpu_id=0 next_pid=705 next_tgid=705 next_task=Towers
tick=2687959624500 9 cpu_id=0 next_pid=704 next_tgid=704 next_task=Oscar
tick=2689960697500 11 cpu_id=0 next_pid=702 next_tgid=702 next_task=Puzzle
tick=2691958648000 10 cpu_id=0 next_pid=703 next_tgid=703 next_task=Perm
tick=2693960532500 12 cpu_id=0 next_pid=701 next_tgid=701 next_task=Queens
tick=2695959920500 7 cpu_id=0 next_pid=706 next_tgid=706 next_task=Bubblesort
tick=2697959261000 8 cpu_id=0 next_pid=705 next_tgid=705 next_task=Towers
tick=2699960383500 9 cpu_id=0 next_pid=704 next_tgid=704 next_task=Oscar
tick=2701959379000 11 cpu_id=0 next_pid=702 next_tgid=702 next_task=Puzzle
tick=2703960475000 10 cpu_id=0 next_pid=703 next_tgid=703 next_task=Perm
tick=2705960075500 12 cpu_id=0 next_pid=701 next_tgid=701 next_task=Queens
tick=2707959630500 7 cpu_id=0 next_pid=706 next_tgid=706 next_task=Bubblesort
tick=2709959139000 8 cpu_id=0 next_pid=705 next_tgid=705 next_task=Towers
tick=2711960371500 9 cpu_id=0 next_pid=704 next_tgid=704 next_task=Oscar
tick=2713960527500 11 cpu_id=0 next_pid=702 next_tgid=702 next_task=Puzzle
tick=2714961739000 1 cpu_id=0 next_pid=-1 next_tgid=-1 next_task=kernel
tick=2714965314500 10 cpu_id=0 next_pid=703 next_tgid=703 next_task=Perm
tick=2716963113500 1 cpu_id=0 next_pid=-1 next_tgid=-1 next_task=kernel
tick=2716970874500 12 cpu_id=0 next_pid=701 next_tgid=701 next_task=Queens
tick=2718959618500 7 cpu_id=0 next_pid=706 next_tgid=706 next_task=Bubblesort
tick=2720959106500 8 cpu_id=0 next_pid=705 next_tgid=705 next_task=Towers
tick=2722959258000 11 cpu_id=0 next_pid=702 next_tgid=702 next_task=Puzzle
tick=2724958756500 9 cpu_id=0 next_pid=704 next_tgid=704 next_task=Oscar
tick=2726960378500 10 cpu_id=0 next_pid=703 next_tgid=703 next_task=Perm
tick=2728960009500 12 cpu_id=0 next_pid=701 next_tgid=701 next_task=Queens
tick=2730959356000 7 cpu_id=0 next_pid=706 next_tgid=706 next_task=Bubblesort
tick=2732959006000 8 cpu_id=0 next_pid=705 next_tgid=705 next_task=Towers
tick=2734960001500 11 cpu_id=0 next_pid=702 next_tgid=702 next_task=Puzzle
tick=2736958591500 9 cpu_id=0 next_pid=704 next_tgid=704 next_task=Oscar
tick=2738958854500 10 cpu_id=0 next_pid=703 next_tgid=703 next_task=Perm
