tick=2654441708000 1 cpu_id=0 next_pid=-1 next_tgid=-1 next_task=kernel
tick=2654450757500 0 cpu_id=0 next_pid=698 next_tgid=698 next_task=m5
tick=2654521918500 2 cpu_id=0 next_pid=677 next_tgid=677 next_task=script
tick=2654802745500 3 cpu_id=0 next_pid=699 next_tgid=699 next_task=script
tick=2655339005500 2 cpu_id=0 next_pid=677 next_tgid=677 next_task=script
tick=2655427587000 4 cpu_id=0 next_pid=700 next_tgid=700 next_task=script
tick=2655974658000 1 cpu_id=0 next_pid=-1 next_tgid=-1 next_task=kernel
tick=2655977819000 1 cpu_id=0 next_pid=-1 next_tgid=-1 next_task=kernel
tick=2655989439500 1 cpu_id=0 next_pid=-1 next_tgid=-1 next_task=kernel
tick=2655991862500 4 cpu_id=0 next_pid=700 next_tgid=700 next_task=chmod
tick=2656053930500 2 cpu_id=0 next_pid=677 next_tgid=677 next_task=script
tick=2656773118000 5 cpu_id=0 next_pid=701 next_tgid=701 next_task=sh
tick=2656969430500 1 cpu_id=0 next_pid=-1 next_tgid=-1 next_task=kernel
tick=2656972370500 1 cpu_id=0 next_pid=-1 next_tgid=-1 next_task=kernel
tick=2656979792500 1 cpu_id=0 next_pid=-1 next_tgid=-1 next_task=kernel
tick=2656982277000 5 cpu_id=0 next_pid=701 next_tgid=701 next_task=cat
tick=2657319314500 2 cpu_id=0 next_pid=677 next_tgid=677 next_task=sh
tick=2657504608500 6 cpu_id=0 next_pid=1 next_tgid=1 next_task=init
tick=2657532225000 7 cpu_id=0 next_pid=704 next_tgid=704 next_task=init
tick=2657639610000 6 cpu_id=0 next_pid=1 next_tgid=1 next_task=init
tick=2657648248500 7 cpu_id=0 next_pid=704 next_tgid=704 next_task=getty
tick=2657969411000 1 cpu_id=0 next_pid=-1 next_tgid=-1 next_task=kernel
tick=2657972462500 1 cpu_id=0 next_pid=-1 next_tgid=-1 next_task=kernel
tick=2657978317000 1 cpu_id=0 next_pid=-1 next_tgid=-1 next_task=kernel
tick=2657980727500 7 cpu_id=0 next_pid=704 next_tgid=704 next_task=getty
tick=2658258950500 8 cpu_id=0 next_pid=703 next_tgid=703 next_task=sh
tick=2658538294000 9 cpu_id=0 next_pid=702 next_tgid=702 next_task=sh
tick=2658618565500 8 cpu_id=0 next_pid=703 next_tgid=703 next_task=sh
tick=2658987753000 1 cpu_id=0 next_pid=-1 next_tgid=-1 next_task=kernel
tick=2658990636000 1 cpu_id=0 next_pid=-1 next_tgid=-1 next_task=kernel
tick=2659001298500 1 cpu_id=0 next_pid=-1 next_tgid=-1 next_task=kernel
tick=2659003033000 8 cpu_id=0 next_pid=703 next_tgid=703 next_task=Puzzle
tick=2659052274500 9 cpu_id=0 next_pid=702 next_tgid=702 next_task=sh
tick=2659183378500 8 cpu_id=0 next_pid=703 next_tgid=703 next_task=Puzzle
tick=2659306184000 9 cpu_id=0 next_pid=702 next_tgid=702 next_task=sh
tick=2659489057000 8 cpu_id=0 next_pid=703 next_tgid=703 next_task=Puzzle
tick=2659705076500 9 cpu_id=0 next_pid=702 next_tgid=702 next_task=Queens
tick=2659763329500 10 cpu_id=0 next_pid=0 next_tgid=0 next_task=swapper/0
tick=2659829716000 8 cpu_id=0 next_pid=703 next_tgid=703 next_task=Puzzle
tick=2659905684000 9 cpu_id=0 next_pid=702 next_tgid=702 next_task=Queens
tick=2659991850000 8 cpu_id=0 next_pid=703 next_tgid=703 next_task=Puzzle
tick=2660084960500 9 cpu_id=0 next_pid=702 next_tgid=702 next_task=Queens
tick=2660248410000 8 cpu_id=0 next_pid=703 next_tgid=703 next_task=Puzzle
tick=2660489364500 9 cpu_id=0 next_pid=702 next_tgid=702 next_task=Queens
tick=2660574529500 8 cpu_id=0 next_pid=703 next_tgid=703 next_task=Puzzle
tick=2660966388500 1 cpu_id=0 next_pid=-1 next_tgid=-1 next_task=kernel
tick=2660968984500 9 cpu_id=0 next_pid=702 next_tgid=702 next_task=Queens
tick=2661048735000 8 cpu_id=0 next_pid=703 next_tgid=703 next_task=Puzzle
tick=2661963174500 1 cpu_id=0 next_pid=-1 next_tgid=-1 next_task=kernel
tick=2661965280000 9 cpu_id=0 next_pid=702 next_tgid=702 next_task=Queens
tick=2663964357000 1 cpu_id=0 next_pid=-1 next_tgid=-1 next_task=kernel
tick=2663966821000 8 cpu_id=0 next_pid=703 next_tgid=703 next_task=Puzzle
tick=2664961991500 1 cpu_id=0 next_pid=-1 next_tgid=-1 next_task=kernel
tick=2664963685500 8 cpu_id=0 next_pid=703 next_tgid=703 next_task=Puzzle
tick=2668960601000 9 cpu_id=0 next_pid=702 next_tgid=702 next_task=Queens
tick=2672960002000 8 cpu_id=0 next_pid=703 next_tgid=703 next_task=Puzzle
tick=2676959279000 9 cpu_id=0 next_pid=702 next_tgid=702 next_task=Queens
tick=2680959609500 8 cpu_id=0 next_pid=703 next_tgid=703 next_task=Puzzle
tick=2684959408000 9 cpu_id=0 next_pid=702 next_tgid=702 next_task=Queens
tick=2688959716000 8 cpu_id=0 next_pid=703 next_tgid=703 next_task=Puzzle
tick=2692959134000 9 cpu_id=0 next_pid=702 next_tgid=702 next_task=Queens
tick=2696959474500 8 cpu_id=0 next_pid=703 next_tgid=703 next_task=Puzzle
tick=2700959140000 9 cpu_id=0 next_pid=702 next_tgid=702 next_task=Queens
tick=2704959275500 8 cpu_id=0 next_pid=703 next_tgid=703 next_task=Puzzle
tick=2708959141000 9 cpu_id=0 next_pid=702 next_tgid=702 next_task=Queens
tick=2712959198500 8 cpu_id=0 next_pid=703 next_tgid=703 next_task=Puzzle
tick=2714961401000 1 cpu_id=0 next_pid=-1 next_tgid=-1 next_task=kernel
tick=2714964619500 9 cpu_id=0 next_pid=702 next_tgid=702 next_task=Queens
tick=2716963043000 1 cpu_id=0 next_pid=-1 next_tgid=-1 next_task=kernel
tick=2716970548500 8 cpu_id=0 next_pid=703 next_tgid=703 next_task=Puzzle
tick=2720958940000 9 cpu_id=0 next_pid=702 next_tgid=702 next_task=Queens
tick=2724959145500 8 cpu_id=0 next_pid=703 next_tgid=703 next_task=Puzzle
tick=2728958756000 9 cpu_id=0 next_pid=702 next_tgid=702 next_task=Queens
tick=2732959087500 8 cpu_id=0 next_pid=703 next_tgid=703 next_task=Puzzle
tick=2736958743000 9 cpu_id=0 next_pid=702 next_tgid=702 next_task=Queens
