<?xml version="1.0" encoding="UTF-8" standalone="no"?>
<!DOCTYPE svg PUBLIC "-//W3C//DTD SVG 1.1//EN"
 "http://www.w3.org/Graphics/SVG/1.1/DTD/svg11.dtd">
<!-- Generated by graphviz version 2.40.1 (20161225.0304)
 -->
<!-- Title: G Pages: 1 -->
<svg width="872pt" height="970pt"
 viewBox="0.00 0.00 872.00 970.00" xmlns="http://www.w3.org/2000/svg" xmlns:xlink="http://www.w3.org/1999/xlink">
<g id="graph0" class="graph" transform="scale(1 1) rotate(0) translate(4 966)">
<title>G</title>
<polygon fill="#ffffff" stroke="transparent" points="-4,4 -4,-966 868,-966 868,4 -4,4"/>
<g id="clust1" class="cluster">
<title>cluster_root</title>
<g id="a_clust1"><a xlink:title="eventq_index=0&#10;full_system=false&#10;sim_quantum=0&#10;time_sync_enable=false&#10;time_sync_period=100000000000&#10;time_sync_spin_threshold=100000000">
<path fill="#bab6ae" stroke="#000000" d="M20,-8C20,-8 844,-8 844,-8 850,-8 856,-14 856,-20 856,-20 856,-942 856,-942 856,-948 850,-954 844,-954 844,-954 20,-954 20,-954 14,-954 8,-948 8,-942 8,-942 8,-20 8,-20 8,-14 14,-8 20,-8"/>
<text text-anchor="middle" x="432" y="-938.8" font-family="Arial" font-size="14.00" fill="#000000">root </text>
<text text-anchor="middle" x="432" y="-923.8" font-family="Arial" font-size="14.00" fill="#000000">: Root</text>
</a>
</g>
</g>
<g id="clust2" class="cluster">
<title>cluster_system</title>
<g id="a_clust2"><a xlink:title="boot_osflags=a&#10;cache_line_size=64&#10;clk_domain=system.clk_domain&#10;default_p_state=UNDEFINED&#10;eventq_index=0&#10;exit_on_work_items=false&#10;init_param=0&#10;kernel=&#10;kernel_addr_check=true&#10;load_addr_mask=1099511627775&#10;load_offset=0&#10;mem_mode=timing&#10;mem_ranges=0:536870911:0:0:0:0&#10;memories=system.mem_ctrls&#10;mmap_using_noreserve=false&#10;multi_thread=false&#10;num_work_ids=16&#10;p_state_clk_gate_bins=20&#10;p_state_clk_gate_max=1000000000000&#10;p_state_clk_gate_min=1000&#10;power_model=Null&#10;readfile=&#10;symbolfile=&#10;thermal_components=&#10;thermal_model=Null&#10;work_begin_ckpt_count=0&#10;work_begin_cpu_id_exit=&#45;1&#10;work_begin_exit_count=0&#10;work_cpus_ckpt_count=0&#10;work_end_ckpt_count=0&#10;work_end_exit_count=0&#10;work_item_id=&#45;1">
<path fill="#e4e7eb" stroke="#000000" d="M28,-16C28,-16 836,-16 836,-16 842,-16 848,-22 848,-28 848,-28 848,-896 848,-896 848,-902 842,-908 836,-908 836,-908 28,-908 28,-908 22,-908 16,-902 16,-896 16,-896 16,-28 16,-28 16,-22 22,-16 28,-16"/>
<text text-anchor="middle" x="432" y="-892.8" font-family="Arial" font-size="14.00" fill="#000000">system </text>
<text text-anchor="middle" x="432" y="-877.8" font-family="Arial" font-size="14.00" fill="#000000">: System</text>
</a>
</g>
</g>
<g id="clust3" class="cluster">
<title>cluster_system_membus</title>
<g id="a_clust3"><a xlink:title="clk_domain=system.clk_domain&#10;default_p_state=UNDEFINED&#10;eventq_index=0&#10;forward_latency=4&#10;frontend_latency=3&#10;p_state_clk_gate_bins=20&#10;p_state_clk_gate_max=1000000000000&#10;p_state_clk_gate_min=1000&#10;point_of_coherency=true&#10;power_model=Null&#10;response_latency=2&#10;snoop_filter=system.membus.snoop_filter&#10;snoop_response_latency=4&#10;system=system&#10;use_default_range=false&#10;width=16">
<path fill="#6f798c" stroke="#000000" d="M529,-155C529,-155 655,-155 655,-155 661,-155 667,-161 667,-167 667,-167 667,-234 667,-234 667,-240 661,-246 655,-246 655,-246 529,-246 529,-246 523,-246 517,-240 517,-234 517,-234 517,-167 517,-167 517,-161 523,-155 529,-155"/>
<text text-anchor="middle" x="592" y="-230.8" font-family="Arial" font-size="14.00" fill="#000000">membus </text>
<text text-anchor="middle" x="592" y="-215.8" font-family="Arial" font-size="14.00" fill="#000000">: SystemXBar</text>
</a>
</g>
</g>
<g id="clust5" class="cluster">
<title>cluster_system_tol2bus</title>
<g id="a_clust5"><a xlink:title="clk_domain=system.cpu_clk_domain&#10;default_p_state=UNDEFINED&#10;eventq_index=0&#10;forward_latency=0&#10;frontend_latency=1&#10;p_state_clk_gate_bins=20&#10;p_state_clk_gate_max=1000000000000&#10;p_state_clk_gate_min=1000&#10;point_of_coherency=false&#10;power_model=Null&#10;response_latency=1&#10;snoop_filter=system.tol2bus.snoop_filter&#10;snoop_response_latency=1&#10;system=system&#10;use_default_range=false&#10;width=32">
<path fill="#6f798c" stroke="#000000" d="M456,-417C456,-417 582,-417 582,-417 588,-417 594,-423 594,-429 594,-429 594,-496 594,-496 594,-502 588,-508 582,-508 582,-508 456,-508 456,-508 450,-508 444,-502 444,-496 444,-496 444,-429 444,-429 444,-423 450,-417 456,-417"/>
<text text-anchor="middle" x="519" y="-492.8" font-family="Arial" font-size="14.00" fill="#000000">tol2bus </text>
<text text-anchor="middle" x="519" y="-477.8" font-family="Arial" font-size="14.00" fill="#000000">: L2XBar</text>
</a>
</g>
</g>
<g id="clust9" class="cluster">
<title>cluster_system_l2</title>
<g id="a_clust9"><a xlink:title="addr_ranges=0:18446744073709551615:0:0:0:0&#10;assoc=8&#10;clk_domain=system.cpu_clk_domain&#10;clusivity=mostly_excl&#10;data_latency=12&#10;default_p_state=UNDEFINED&#10;demand_mshr_reserve=1&#10;eventq_index=0&#10;is_read_only=false&#10;max_miss_count=0&#10;mshrs=16&#10;p_state_clk_gate_bins=20&#10;p_state_clk_gate_max=1000000000000&#10;p_state_clk_gate_min=1000&#10;power_model=Null&#10;prefetch_on_access=true&#10;prefetcher=system.l2.prefetcher&#10;response_latency=12&#10;sequential_access=false&#10;size=2097152&#10;system=system&#10;tag_latency=12&#10;tags=system.l2.tags&#10;tgts_per_mshr=8&#10;write_buffers=8&#10;writeback_clean=false">
<path fill="#bab6ae" stroke="#000000" d="M521,-286C521,-286 691,-286 691,-286 697,-286 703,-292 703,-298 703,-298 703,-365 703,-365 703,-371 697,-377 691,-377 691,-377 521,-377 521,-377 515,-377 509,-371 509,-365 509,-365 509,-298 509,-298 509,-292 515,-286 521,-286"/>
<text text-anchor="middle" x="606" y="-361.8" font-family="Arial" font-size="14.00" fill="#000000">l2 </text>
<text text-anchor="middle" x="606" y="-346.8" font-family="Arial" font-size="14.00" fill="#000000">: O3_ARM_v7aL2</text>
</a>
</g>
</g>
<g id="clust13" class="cluster">
<title>cluster_system_mem_ctrls</title>
<g id="a_clust13"><a xlink:title="IDD0=0.055000&#10;IDD02=0.000000&#10;IDD2N=0.032000&#10;IDD2N2=0.000000&#10;IDD2P0=0.000000&#10;IDD2P02=0.000000&#10;IDD2P1=0.032000&#10;IDD2P12=0.000000&#10;IDD3N=0.038000&#10;IDD3N2=0.000000&#10;IDD3P0=0.000000&#10;IDD3P02=0.000000&#10;IDD3P1=0.038000&#10;IDD3P12=0.000000&#10;IDD4R=0.157000&#10;IDD4R2=0.000000&#10;IDD4W=0.125000&#10;IDD4W2=0.000000&#10;IDD5=0.235000&#10;IDD52=0.000000&#10;IDD6=0.020000&#10;IDD62=0.000000&#10;VDD=1.500000&#10;VDD2=0.000000&#10;activation_limit=4&#10;addr_mapping=RoRaBaCoCh&#10;bank_groups_per_rank=0&#10;banks_per_rank=8&#10;burst_length=8&#10;channels=1&#10;clk_domain=system.clk_domain&#10;conf_table_reported=true&#10;default_p_state=UNDEFINED&#10;device_bus_width=8&#10;device_rowbuffer_size=1024&#10;device_size=536870912&#10;devices_per_rank=8&#10;dll=true&#10;eventq_index=0&#10;in_addr_map=true&#10;kvm_map=true&#10;max_accesses_per_row=16&#10;mem_sched_policy=frfcfs&#10;min_writes_per_switch=16&#10;null=false&#10;p_state_clk_gate_bins=20&#10;p_state_clk_gate_max=1000000000000&#10;p_state_clk_gate_min=1000&#10;page_policy=open_adaptive&#10;power_model=Null&#10;range=0:536870911:6:19:0:0&#10;ranks_per_channel=2&#10;read_buffer_size=32&#10;static_backend_latency=10000&#10;static_frontend_latency=10000&#10;tBURST=5000&#10;tCCD_L=0&#10;tCK=1250&#10;tCL=13750&#10;tCS=2500&#10;tRAS=35000&#10;tRCD=13750&#10;tREFI=7800000&#10;tRFC=260000&#10;tRP=13750&#10;tRRD=6000&#10;tRRD_L=0&#10;tRTP=7500&#10;tRTW=2500&#10;tWR=15000&#10;tWTR=7500&#10;tXAW=30000&#10;tXP=6000&#10;tXPDLL=0&#10;tXS=270000&#10;tXSDLL=0&#10;write_buffer_size=64&#10;write_high_thresh_perc=85&#10;write_low_thresh_perc=50">
<path fill="#5e5958" stroke="#000000" d="M572,-24C572,-24 685,-24 685,-24 691,-24 697,-30 697,-36 697,-36 697,-103 697,-103 697,-109 691,-115 685,-115 685,-115 572,-115 572,-115 566,-115 560,-109 560,-103 560,-103 560,-36 560,-36 560,-30 566,-24 572,-24"/>
<text text-anchor="middle" x="628.5" y="-99.8" font-family="Arial" font-size="14.00" fill="#000000">mem_ctrls </text>
<text text-anchor="middle" x="628.5" y="-84.8" font-family="Arial" font-size="14.00" fill="#000000">: DDR3_1600_8x8</text>
</a>
</g>
</g>
<g id="clust16" class="cluster">
<title>cluster_system_cpu</title>
<g id="a_clust16"><a xlink:title="LFSTSize=1024&#10;LQEntries=16&#10;LSQCheckLoads=true&#10;LSQDepCheckShift=0&#10;SQEntries=16&#10;SSITSize=1024&#10;activity=0&#10;backComSize=5&#10;branchPred=system.cpu.branchPred&#10;cacheStorePorts=200&#10;checker=Null&#10;clk_domain=system.cpu_clk_domain&#10;commitToDecodeDelay=1&#10;commitToFetchDelay=1&#10;commitToIEWDelay=1&#10;commitToRenameDelay=1&#10;commitWidth=8&#10;cpu_id=0&#10;decodeToFetchDelay=1&#10;decodeToRenameDelay=2&#10;decodeWidth=3&#10;default_p_state=UNDEFINED&#10;dispatchWidth=6&#10;do_checkpoint_insts=true&#10;do_quiesce=true&#10;do_statistics_insts=true&#10;dstage2_mmu=system.cpu.dstage2_mmu&#10;dtb=system.cpu.dtb&#10;eventq_index=0&#10;fetchBufferSize=16&#10;fetchQueueSize=32&#10;fetchToDecodeDelay=3&#10;fetchTrapLatency=1&#10;fetchWidth=3&#10;forwardComSize=5&#10;fuPool=system.cpu.fuPool&#10;function_trace=false&#10;function_trace_start=0&#10;iewToCommitDelay=1&#10;iewToDecodeDelay=1&#10;iewToFetchDelay=1&#10;iewToRenameDelay=1&#10;interrupts=system.cpu.interrupts&#10;isa=system.cpu.isa&#10;issueToExecuteDelay=1&#10;issueWidth=8&#10;istage2_mmu=system.cpu.istage2_mmu&#10;itb=system.cpu.itb&#10;max_insts_all_threads=0&#10;max_insts_any_thread=2700000&#10;max_loads_all_threads=0&#10;max_loads_any_thread=0&#10;needsTSO=false&#10;numIQEntries=32&#10;numPhysCCRegs=640&#10;numPhysFloatRegs=192&#10;numPhysIntRegs=128&#10;numPhysVecRegs=48&#10;numROBEntries=40&#10;numRobs=1&#10;numThreads=1&#10;p_state_clk_gate_bins=20&#10;p_state_clk_gate_max=1000000000000&#10;p_state_clk_gate_min=1000&#10;power_model=Null&#10;profile=0&#10;progress_interval=0&#10;renameToDecodeDelay=1&#10;renameToFetchDelay=1&#10;renameToIEWDelay=1&#10;renameToROBDelay=1&#10;renameWidth=3&#10;simpoint_start_insts=&#10;smtCommitPolicy=RoundRobin&#10;smtFetchPolicy=SingleThread&#10;smtIQPolicy=Partitioned&#10;smtIQThreshold=100&#10;smtLSQPolicy=Partitioned&#10;smtLSQThreshold=100&#10;smtNumFetchingThreads=1&#10;smtROBPolicy=Partitioned&#10;smtROBThreshold=100&#10;socket_id=0&#10;squashWidth=8&#10;store_set_clear_period=250000&#10;switched_out=false&#10;syscallRetryLatency=10000&#10;system=system&#10;tracer=system.cpu.tracer&#10;trapLatency=13&#10;wait_for_remote_gdb=false&#10;wbWidth=8&#10;workload=system.cpu.workload">
<path fill="#bbc6d9" stroke="#000000" d="M36,-540C36,-540 828,-540 828,-540 834,-540 840,-546 840,-552 840,-552 840,-850 840,-850 840,-856 834,-862 828,-862 828,-862 36,-862 36,-862 30,-862 24,-856 24,-850 24,-850 24,-552 24,-552 24,-546 30,-540 36,-540"/>
<text text-anchor="middle" x="432" y="-846.8" font-family="Arial" font-size="14.00" fill="#000000">cpu </text>
<text text-anchor="middle" x="432" y="-831.8" font-family="Arial" font-size="14.00" fill="#000000">: O3_ARM_v7a_3</text>
</a>
</g>
</g>
<g id="clust17" class="cluster">
<title>cluster_system_cpu_dtb_walker_cache</title>
<g id="a_clust17"><a xlink:title="addr_ranges=0:18446744073709551615:0:0:0:0&#10;assoc=8&#10;clk_domain=system.cpu_clk_domain&#10;clusivity=mostly_incl&#10;data_latency=4&#10;default_p_state=UNDEFINED&#10;demand_mshr_reserve=1&#10;eventq_index=0&#10;is_read_only=true&#10;max_miss_count=0&#10;mshrs=6&#10;p_state_clk_gate_bins=20&#10;p_state_clk_gate_max=1000000000000&#10;p_state_clk_gate_min=1000&#10;power_model=Null&#10;prefetch_on_access=false&#10;prefetcher=Null&#10;response_latency=4&#10;sequential_access=false&#10;size=1024&#10;system=system&#10;tag_latency=4&#10;tags=system.cpu.dtb_walker_cache.tags&#10;tgts_per_mshr=8&#10;write_buffers=16&#10;writeback_clean=true">
<path fill="#bab6ae" stroke="#000000" d="M650,-548C650,-548 820,-548 820,-548 826,-548 832,-554 832,-560 832,-560 832,-627 832,-627 832,-633 826,-639 820,-639 820,-639 650,-639 650,-639 644,-639 638,-633 638,-627 638,-627 638,-560 638,-560 638,-554 644,-548 650,-548"/>
<text text-anchor="middle" x="735" y="-623.8" font-family="Arial" font-size="14.00" fill="#000000">dtb_walker_cache </text>
<text text-anchor="middle" x="735" y="-608.8" font-family="Arial" font-size="14.00" fill="#000000">: O3_ARM_v7aWalkCache</text>
</a>
</g>
</g>
<g id="clust62" class="cluster">
<title>cluster_system_cpu_dtb</title>
<g id="a_clust62"><a xlink:title="eventq_index=0&#10;is_stage2=false&#10;size=64&#10;sys=system&#10;walker=system.cpu.dtb.walker">
<path fill="#bab6ae" stroke="#000000" d="M629,-671C629,-671 750,-671 750,-671 756,-671 762,-677 762,-683 762,-683 762,-804 762,-804 762,-810 756,-816 750,-816 750,-816 629,-816 629,-816 623,-816 617,-810 617,-804 617,-804 617,-683 617,-683 617,-677 623,-671 629,-671"/>
<text text-anchor="middle" x="689.5" y="-800.8" font-family="Arial" font-size="14.00" fill="#000000">dtb </text>
<text text-anchor="middle" x="689.5" y="-785.8" font-family="Arial" font-size="14.00" fill="#000000">: ArmTLB</text>
</a>
</g>
</g>
<g id="clust63" class="cluster">
<title>cluster_system_cpu_dtb_walker</title>
<g id="a_clust63"><a xlink:title="clk_domain=system.cpu_clk_domain&#10;default_p_state=UNDEFINED&#10;eventq_index=0&#10;is_stage2=false&#10;num_squash_per_cycle=2&#10;p_state_clk_gate_bins=20&#10;p_state_clk_gate_max=1000000000000&#10;p_state_clk_gate_min=1000&#10;power_model=Null&#10;sys=system">
<path fill="#9f9c95" stroke="#000000" d="M637,-679C637,-679 742,-679 742,-679 748,-679 754,-685 754,-691 754,-691 754,-758 754,-758 754,-764 748,-770 742,-770 742,-770 637,-770 637,-770 631,-770 625,-764 625,-758 625,-758 625,-691 625,-691 625,-685 631,-679 637,-679"/>
<text text-anchor="middle" x="689.5" y="-754.8" font-family="Arial" font-size="14.00" fill="#000000">walker </text>
<text text-anchor="middle" x="689.5" y="-739.8" font-family="Arial" font-size="14.00" fill="#000000">: ArmTableWalker</text>
</a>
</g>
</g>
<g id="clust65" class="cluster">
<title>cluster_system_cpu_itb_walker_cache</title>
<g id="a_clust65"><a xlink:title="addr_ranges=0:18446744073709551615:0:0:0:0&#10;assoc=8&#10;clk_domain=system.cpu_clk_domain&#10;clusivity=mostly_incl&#10;data_latency=4&#10;default_p_state=UNDEFINED&#10;demand_mshr_reserve=1&#10;eventq_index=0&#10;is_read_only=true&#10;max_miss_count=0&#10;mshrs=6&#10;p_state_clk_gate_bins=20&#10;p_state_clk_gate_max=1000000000000&#10;p_state_clk_gate_min=1000&#10;power_model=Null&#10;prefetch_on_access=false&#10;prefetcher=Null&#10;response_latency=4&#10;sequential_access=false&#10;size=1024&#10;system=system&#10;tag_latency=4&#10;tags=system.cpu.itb_walker_cache.tags&#10;tgts_per_mshr=8&#10;write_buffers=16&#10;writeback_clean=true">
<path fill="#bab6ae" stroke="#000000" d="M448,-548C448,-548 618,-548 618,-548 624,-548 630,-554 630,-560 630,-560 630,-627 630,-627 630,-633 624,-639 618,-639 618,-639 448,-639 448,-639 442,-639 436,-633 436,-627 436,-627 436,-560 436,-560 436,-554 442,-548 448,-548"/>
<text text-anchor="middle" x="533" y="-623.8" font-family="Arial" font-size="14.00" fill="#000000">itb_walker_cache </text>
<text text-anchor="middle" x="533" y="-608.8" font-family="Arial" font-size="14.00" fill="#000000">: O3_ARM_v7aWalkCache</text>
</a>
</g>
</g>
<g id="clust67" class="cluster">
<title>cluster_system_cpu_itb</title>
<g id="a_clust67"><a xlink:title="eventq_index=0&#10;is_stage2=false&#10;size=64&#10;sys=system&#10;walker=system.cpu.itb.walker">
<path fill="#bab6ae" stroke="#000000" d="M422,-671C422,-671 543,-671 543,-671 549,-671 555,-677 555,-683 555,-683 555,-804 555,-804 555,-810 549,-816 543,-816 543,-816 422,-816 422,-816 416,-816 410,-810 410,-804 410,-804 410,-683 410,-683 410,-677 416,-671 422,-671"/>
<text text-anchor="middle" x="482.5" y="-800.8" font-family="Arial" font-size="14.00" fill="#000000">itb </text>
<text text-anchor="middle" x="482.5" y="-785.8" font-family="Arial" font-size="14.00" fill="#000000">: ArmTLB</text>
</a>
</g>
</g>
<g id="clust68" class="cluster">
<title>cluster_system_cpu_itb_walker</title>
<g id="a_clust68"><a xlink:title="clk_domain=system.cpu_clk_domain&#10;default_p_state=UNDEFINED&#10;eventq_index=0&#10;is_stage2=false&#10;num_squash_per_cycle=2&#10;p_state_clk_gate_bins=20&#10;p_state_clk_gate_max=1000000000000&#10;p_state_clk_gate_min=1000&#10;power_model=Null&#10;sys=system">
<path fill="#9f9c95" stroke="#000000" d="M430,-679C430,-679 535,-679 535,-679 541,-679 547,-685 547,-691 547,-691 547,-758 547,-758 547,-764 541,-770 535,-770 535,-770 430,-770 430,-770 424,-770 418,-764 418,-758 418,-758 418,-691 418,-691 418,-685 424,-679 430,-679"/>
<text text-anchor="middle" x="482.5" y="-754.8" font-family="Arial" font-size="14.00" fill="#000000">walker </text>
<text text-anchor="middle" x="482.5" y="-739.8" font-family="Arial" font-size="14.00" fill="#000000">: ArmTableWalker</text>
</a>
</g>
</g>
<g id="clust75" class="cluster">
<title>cluster_system_cpu_icache</title>
<g id="a_clust75"><a xlink:title="addr_ranges=0:18446744073709551615:0:0:0:0&#10;assoc=2&#10;clk_domain=system.cpu_clk_domain&#10;clusivity=mostly_incl&#10;data_latency=1&#10;default_p_state=UNDEFINED&#10;demand_mshr_reserve=1&#10;eventq_index=0&#10;is_read_only=true&#10;max_miss_count=0&#10;mshrs=2&#10;p_state_clk_gate_bins=20&#10;p_state_clk_gate_max=1000000000000&#10;p_state_clk_gate_min=1000&#10;power_model=Null&#10;prefetch_on_access=false&#10;prefetcher=Null&#10;response_latency=1&#10;sequential_access=false&#10;size=32768&#10;system=system&#10;tag_latency=1&#10;tags=system.cpu.icache.tags&#10;tgts_per_mshr=8&#10;write_buffers=8&#10;writeback_clean=true">
<path fill="#bab6ae" stroke="#000000" d="M246,-548C246,-548 416,-548 416,-548 422,-548 428,-554 428,-560 428,-560 428,-627 428,-627 428,-633 422,-639 416,-639 416,-639 246,-639 246,-639 240,-639 234,-633 234,-627 234,-627 234,-560 234,-560 234,-554 240,-548 246,-548"/>
<text text-anchor="middle" x="331" y="-623.8" font-family="Arial" font-size="14.00" fill="#000000">icache </text>
<text text-anchor="middle" x="331" y="-608.8" font-family="Arial" font-size="14.00" fill="#000000">: O3_ARM_v7a_ICache</text>
</a>
</g>
</g>
<g id="clust77" class="cluster">
<title>cluster_system_cpu_dcache</title>
<g id="a_clust77"><a xlink:title="addr_ranges=0:18446744073709551615:0:0:0:0&#10;assoc=2&#10;clk_domain=system.cpu_clk_domain&#10;clusivity=mostly_incl&#10;data_latency=2&#10;default_p_state=UNDEFINED&#10;demand_mshr_reserve=1&#10;eventq_index=0&#10;is_read_only=false&#10;max_miss_count=0&#10;mshrs=6&#10;p_state_clk_gate_bins=20&#10;p_state_clk_gate_max=1000000000000&#10;p_state_clk_gate_min=1000&#10;power_model=Null&#10;prefetch_on_access=false&#10;prefetcher=Null&#10;response_latency=2&#10;sequential_access=false&#10;size=65536&#10;system=system&#10;tag_latency=2&#10;tags=system.cpu.dcache.tags&#10;tgts_per_mshr=8&#10;write_buffers=16&#10;writeback_clean=true">
<path fill="#bab6ae" stroke="#000000" d="M44,-548C44,-548 214,-548 214,-548 220,-548 226,-554 226,-560 226,-560 226,-627 226,-627 226,-633 220,-639 214,-639 214,-639 44,-639 44,-639 38,-639 32,-633 32,-627 32,-627 32,-560 32,-560 32,-554 38,-548 44,-548"/>
<text text-anchor="middle" x="129" y="-623.8" font-family="Arial" font-size="14.00" fill="#000000">dcache </text>
<text text-anchor="middle" x="129" y="-608.8" font-family="Arial" font-size="14.00" fill="#000000">: O3_ARM_v7a_DCache</text>
</a>
</g>
</g>
<!-- system_system_port -->
<g id="node1" class="node">
<title>system_system_port</title>
<path fill="#b6b8bc" stroke="#000000" d="M415,-294.5C415,-294.5 487,-294.5 487,-294.5 493,-294.5 499,-300.5 499,-306.5 499,-306.5 499,-318.5 499,-318.5 499,-324.5 493,-330.5 487,-330.5 487,-330.5 415,-330.5 415,-330.5 409,-330.5 403,-324.5 403,-318.5 403,-318.5 403,-306.5 403,-306.5 403,-300.5 409,-294.5 415,-294.5"/>
<text text-anchor="middle" x="451" y="-308.8" font-family="Arial" font-size="14.00" fill="#000000">system_port</text>
</g>
<!-- system_membus_slave -->
<g id="node3" class="node">
<title>system_membus_slave</title>
<path fill="#586070" stroke="#000000" d="M537,-163.5C537,-163.5 567,-163.5 567,-163.5 573,-163.5 579,-169.5 579,-175.5 579,-175.5 579,-187.5 579,-187.5 579,-193.5 573,-199.5 567,-199.5 567,-199.5 537,-199.5 537,-199.5 531,-199.5 525,-193.5 525,-187.5 525,-187.5 525,-175.5 525,-175.5 525,-169.5 531,-163.5 537,-163.5"/>
<text text-anchor="middle" x="552" y="-177.8" font-family="Arial" font-size="14.00" fill="#000000">slave</text>
</g>
<!-- system_system_port&#45;&gt;system_membus_slave -->
<g id="edge1" class="edge">
<title>system_system_port&#45;&gt;system_membus_slave</title>
<path fill="none" stroke="#000000" d="M465.0436,-294.285C482.3802,-271.799 511.9908,-233.3931 531.7749,-207.7326"/>
<polygon fill="#000000" stroke="#000000" points="534.7416,-209.6169 538.0757,-199.5603 529.1979,-205.3427 534.7416,-209.6169"/>
</g>
<!-- system_membus_master -->
<g id="node2" class="node">
<title>system_membus_master</title>
<path fill="#586070" stroke="#000000" d="M609.5,-163.5C609.5,-163.5 646.5,-163.5 646.5,-163.5 652.5,-163.5 658.5,-169.5 658.5,-175.5 658.5,-175.5 658.5,-187.5 658.5,-187.5 658.5,-193.5 652.5,-199.5 646.5,-199.5 646.5,-199.5 609.5,-199.5 609.5,-199.5 603.5,-199.5 597.5,-193.5 597.5,-187.5 597.5,-187.5 597.5,-175.5 597.5,-175.5 597.5,-169.5 603.5,-163.5 609.5,-163.5"/>
<text text-anchor="middle" x="628" y="-177.8" font-family="Arial" font-size="14.00" fill="#000000">master</text>
</g>
<!-- system_mem_ctrls_port -->
<g id="node8" class="node">
<title>system_mem_ctrls_port</title>
<path fill="#4b4746" stroke="#000000" d="M613,-32.5C613,-32.5 643,-32.5 643,-32.5 649,-32.5 655,-38.5 655,-44.5 655,-44.5 655,-56.5 655,-56.5 655,-62.5 649,-68.5 643,-68.5 643,-68.5 613,-68.5 613,-68.5 607,-68.5 601,-62.5 601,-56.5 601,-56.5 601,-44.5 601,-44.5 601,-38.5 607,-32.5 613,-32.5"/>
<text text-anchor="middle" x="628" y="-46.8" font-family="Arial" font-size="14.00" fill="#000000">port</text>
</g>
<!-- system_membus_master&#45;&gt;system_mem_ctrls_port -->
<g id="edge2" class="edge">
<title>system_membus_master&#45;&gt;system_mem_ctrls_port</title>
<path fill="none" stroke="#000000" d="M628,-163.285C628,-141.3856 628,-104.3861 628,-78.7663"/>
<polygon fill="#000000" stroke="#000000" points="631.5001,-78.5603 628,-68.5603 624.5001,-78.5603 631.5001,-78.5603"/>
</g>
<!-- system_tol2bus_master -->
<g id="node4" class="node">
<title>system_tol2bus_master</title>
<path fill="#586070" stroke="#000000" d="M536.5,-425.5C536.5,-425.5 573.5,-425.5 573.5,-425.5 579.5,-425.5 585.5,-431.5 585.5,-437.5 585.5,-437.5 585.5,-449.5 585.5,-449.5 585.5,-455.5 579.5,-461.5 573.5,-461.5 573.5,-461.5 536.5,-461.5 536.5,-461.5 530.5,-461.5 524.5,-455.5 524.5,-449.5 524.5,-449.5 524.5,-437.5 524.5,-437.5 524.5,-431.5 530.5,-425.5 536.5,-425.5"/>
<text text-anchor="middle" x="555" y="-439.8" font-family="Arial" font-size="14.00" fill="#000000">master</text>
</g>
<!-- system_l2_cpu_side -->
<g id="node7" class="node">
<title>system_l2_cpu_side</title>
<path fill="#94918b" stroke="#000000" d="M529,-294.5C529,-294.5 581,-294.5 581,-294.5 587,-294.5 593,-300.5 593,-306.5 593,-306.5 593,-318.5 593,-318.5 593,-324.5 587,-330.5 581,-330.5 581,-330.5 529,-330.5 529,-330.5 523,-330.5 517,-324.5 517,-318.5 517,-318.5 517,-306.5 517,-306.5 517,-300.5 523,-294.5 529,-294.5"/>
<text text-anchor="middle" x="555" y="-308.8" font-family="Arial" font-size="14.00" fill="#000000">cpu_side</text>
</g>
<!-- system_tol2bus_master&#45;&gt;system_l2_cpu_side -->
<g id="edge3" class="edge">
<title>system_tol2bus_master&#45;&gt;system_l2_cpu_side</title>
<path fill="none" stroke="#000000" d="M555,-425.285C555,-403.3856 555,-366.3861 555,-340.7663"/>
<polygon fill="#000000" stroke="#000000" points="558.5001,-340.5603 555,-330.5603 551.5001,-340.5603 558.5001,-340.5603"/>
</g>
<!-- system_tol2bus_slave -->
<g id="node5" class="node">
<title>system_tol2bus_slave</title>
<path fill="#586070" stroke="#000000" d="M464,-425.5C464,-425.5 494,-425.5 494,-425.5 500,-425.5 506,-431.5 506,-437.5 506,-437.5 506,-449.5 506,-449.5 506,-455.5 500,-461.5 494,-461.5 494,-461.5 464,-461.5 464,-461.5 458,-461.5 452,-455.5 452,-449.5 452,-449.5 452,-437.5 452,-437.5 452,-431.5 458,-425.5 464,-425.5"/>
<text text-anchor="middle" x="479" y="-439.8" font-family="Arial" font-size="14.00" fill="#000000">slave</text>
</g>
<!-- system_l2_mem_side -->
<g id="node6" class="node">
<title>system_l2_mem_side</title>
<path fill="#94918b" stroke="#000000" d="M623,-294.5C623,-294.5 683,-294.5 683,-294.5 689,-294.5 695,-300.5 695,-306.5 695,-306.5 695,-318.5 695,-318.5 695,-324.5 689,-330.5 683,-330.5 683,-330.5 623,-330.5 623,-330.5 617,-330.5 611,-324.5 611,-318.5 611,-318.5 611,-306.5 611,-306.5 611,-300.5 617,-294.5 623,-294.5"/>
<text text-anchor="middle" x="653" y="-308.8" font-family="Arial" font-size="14.00" fill="#000000">mem_side</text>
</g>
<!-- system_l2_mem_side&#45;&gt;system_membus_slave -->
<g id="edge4" class="edge">
<title>system_l2_mem_side&#45;&gt;system_membus_slave</title>
<path fill="none" stroke="#000000" d="M633.1991,-294.4136C619.8289,-281.6315 602.2678,-263.6894 589,-246 580.3208,-234.4285 572.1512,-220.6302 565.7076,-208.7712"/>
<polygon fill="#000000" stroke="#000000" points="568.7064,-206.9551 560.9333,-199.7558 562.5203,-210.2311 568.7064,-206.9551"/>
</g>
<!-- system_cpu_icache_port -->
<g id="node9" class="node">
<title>system_cpu_icache_port</title>
<path fill="#959ead" stroke="#000000" d="M246,-687.5C246,-687.5 314,-687.5 314,-687.5 320,-687.5 326,-693.5 326,-699.5 326,-699.5 326,-711.5 326,-711.5 326,-717.5 320,-723.5 314,-723.5 314,-723.5 246,-723.5 246,-723.5 240,-723.5 234,-717.5 234,-711.5 234,-711.5 234,-699.5 234,-699.5 234,-693.5 240,-687.5 246,-687.5"/>
<text text-anchor="middle" x="280" y="-701.8" font-family="Arial" font-size="14.00" fill="#000000">icache_port</text>
</g>
<!-- system_cpu_icache_cpu_side -->
<g id="node18" class="node">
<title>system_cpu_icache_cpu_side</title>
<path fill="#94918b" stroke="#000000" d="M254,-556.5C254,-556.5 306,-556.5 306,-556.5 312,-556.5 318,-562.5 318,-568.5 318,-568.5 318,-580.5 318,-580.5 318,-586.5 312,-592.5 306,-592.5 306,-592.5 254,-592.5 254,-592.5 248,-592.5 242,-586.5 242,-580.5 242,-580.5 242,-568.5 242,-568.5 242,-562.5 248,-556.5 254,-556.5"/>
<text text-anchor="middle" x="280" y="-570.8" font-family="Arial" font-size="14.00" fill="#000000">cpu_side</text>
</g>
<!-- system_cpu_icache_port&#45;&gt;system_cpu_icache_cpu_side -->
<g id="edge5" class="edge">
<title>system_cpu_icache_port&#45;&gt;system_cpu_icache_cpu_side</title>
<path fill="none" stroke="#000000" d="M280,-687.285C280,-665.3856 280,-628.3861 280,-602.7663"/>
<polygon fill="#000000" stroke="#000000" points="283.5001,-602.5603 280,-592.5603 276.5001,-602.5603 283.5001,-602.5603"/>
</g>
<!-- system_cpu_dcache_port -->
<g id="node10" class="node">
<title>system_cpu_dcache_port</title>
<path fill="#959ead" stroke="#000000" d="M44,-687.5C44,-687.5 118,-687.5 118,-687.5 124,-687.5 130,-693.5 130,-699.5 130,-699.5 130,-711.5 130,-711.5 130,-717.5 124,-723.5 118,-723.5 118,-723.5 44,-723.5 44,-723.5 38,-723.5 32,-717.5 32,-711.5 32,-711.5 32,-699.5 32,-699.5 32,-693.5 38,-687.5 44,-687.5"/>
<text text-anchor="middle" x="81" y="-701.8" font-family="Arial" font-size="14.00" fill="#000000">dcache_port</text>
</g>
<!-- system_cpu_dcache_cpu_side -->
<g id="node20" class="node">
<title>system_cpu_dcache_cpu_side</title>
<path fill="#94918b" stroke="#000000" d="M52,-556.5C52,-556.5 104,-556.5 104,-556.5 110,-556.5 116,-562.5 116,-568.5 116,-568.5 116,-580.5 116,-580.5 116,-586.5 110,-592.5 104,-592.5 104,-592.5 52,-592.5 52,-592.5 46,-592.5 40,-586.5 40,-580.5 40,-580.5 40,-568.5 40,-568.5 40,-562.5 46,-556.5 52,-556.5"/>
<text text-anchor="middle" x="78" y="-570.8" font-family="Arial" font-size="14.00" fill="#000000">cpu_side</text>
</g>
<!-- system_cpu_dcache_port&#45;&gt;system_cpu_dcache_cpu_side -->
<g id="edge6" class="edge">
<title>system_cpu_dcache_port&#45;&gt;system_cpu_dcache_cpu_side</title>
<path fill="none" stroke="#000000" d="M80.5829,-687.285C80.0813,-665.3856 79.234,-628.3861 78.6473,-602.7663"/>
<polygon fill="#000000" stroke="#000000" points="82.1417,-602.4775 78.4136,-592.5603 75.1436,-602.6378 82.1417,-602.4775"/>
</g>
<!-- system_cpu_dtb_walker_cache_mem_side -->
<g id="node11" class="node">
<title>system_cpu_dtb_walker_cache_mem_side</title>
<path fill="#94918b" stroke="#000000" d="M752,-556.5C752,-556.5 812,-556.5 812,-556.5 818,-556.5 824,-562.5 824,-568.5 824,-568.5 824,-580.5 824,-580.5 824,-586.5 818,-592.5 812,-592.5 812,-592.5 752,-592.5 752,-592.5 746,-592.5 740,-586.5 740,-580.5 740,-580.5 740,-568.5 740,-568.5 740,-562.5 746,-556.5 752,-556.5"/>
<text text-anchor="middle" x="782" y="-570.8" font-family="Arial" font-size="14.00" fill="#000000">mem_side</text>
</g>
<!-- system_cpu_dtb_walker_cache_mem_side&#45;&gt;system_tol2bus_slave -->
<g id="edge7" class="edge">
<title>system_cpu_dtb_walker_cache_mem_side&#45;&gt;system_tol2bus_slave</title>
<path fill="none" stroke="#000000" d="M759.8682,-556.3608C751.321,-550.2361 741.1607,-543.9557 731,-540 640.9735,-504.9519 595.7959,-562.4587 516,-508 503.1695,-499.2435 494.2261,-484.4687 488.3503,-471.2677"/>
<polygon fill="#000000" stroke="#000000" points="491.4362,-469.563 484.4414,-461.6054 484.9471,-472.1882 491.4362,-469.563"/>
</g>
<!-- system_cpu_dtb_walker_cache_cpu_side -->
<g id="node12" class="node">
<title>system_cpu_dtb_walker_cache_cpu_side</title>
<path fill="#94918b" stroke="#000000" d="M658,-556.5C658,-556.5 710,-556.5 710,-556.5 716,-556.5 722,-562.5 722,-568.5 722,-568.5 722,-580.5 722,-580.5 722,-586.5 716,-592.5 710,-592.5 710,-592.5 658,-592.5 658,-592.5 652,-592.5 646,-586.5 646,-580.5 646,-580.5 646,-568.5 646,-568.5 646,-562.5 652,-556.5 658,-556.5"/>
<text text-anchor="middle" x="684" y="-570.8" font-family="Arial" font-size="14.00" fill="#000000">cpu_side</text>
</g>
<!-- system_cpu_dtb_walker_port -->
<g id="node13" class="node">
<title>system_cpu_dtb_walker_port</title>
<path fill="#7f7c77" stroke="#000000" d="M669,-687.5C669,-687.5 699,-687.5 699,-687.5 705,-687.5 711,-693.5 711,-699.5 711,-699.5 711,-711.5 711,-711.5 711,-717.5 705,-723.5 699,-723.5 699,-723.5 669,-723.5 669,-723.5 663,-723.5 657,-717.5 657,-711.5 657,-711.5 657,-699.5 657,-699.5 657,-693.5 663,-687.5 669,-687.5"/>
<text text-anchor="middle" x="684" y="-701.8" font-family="Arial" font-size="14.00" fill="#000000">port</text>
</g>
<!-- system_cpu_dtb_walker_port&#45;&gt;system_cpu_dtb_walker_cache_cpu_side -->
<g id="edge8" class="edge">
<title>system_cpu_dtb_walker_port&#45;&gt;system_cpu_dtb_walker_cache_cpu_side</title>
<path fill="none" stroke="#000000" d="M684,-687.285C684,-665.3856 684,-628.3861 684,-602.7663"/>
<polygon fill="#000000" stroke="#000000" points="687.5001,-602.5603 684,-592.5603 680.5001,-602.5603 687.5001,-602.5603"/>
</g>
<!-- system_cpu_itb_walker_cache_mem_side -->
<g id="node14" class="node">
<title>system_cpu_itb_walker_cache_mem_side</title>
<path fill="#94918b" stroke="#000000" d="M550,-556.5C550,-556.5 610,-556.5 610,-556.5 616,-556.5 622,-562.5 622,-568.5 622,-568.5 622,-580.5 622,-580.5 622,-586.5 616,-592.5 610,-592.5 610,-592.5 550,-592.5 550,-592.5 544,-592.5 538,-586.5 538,-580.5 538,-580.5 538,-568.5 538,-568.5 538,-562.5 544,-556.5 550,-556.5"/>
<text text-anchor="middle" x="580" y="-570.8" font-family="Arial" font-size="14.00" fill="#000000">mem_side</text>
</g>
<!-- system_cpu_itb_walker_cache_mem_side&#45;&gt;system_tol2bus_slave -->
<g id="edge9" class="edge">
<title>system_cpu_itb_walker_cache_mem_side&#45;&gt;system_tol2bus_slave</title>
<path fill="none" stroke="#000000" d="M560.1991,-556.4136C546.8289,-543.6315 529.2678,-525.6894 516,-508 507.3208,-496.4285 499.1512,-482.6302 492.7076,-470.7712"/>
<polygon fill="#000000" stroke="#000000" points="495.7064,-468.9551 487.9333,-461.7558 489.5203,-472.2311 495.7064,-468.9551"/>
</g>
<!-- system_cpu_itb_walker_cache_cpu_side -->
<g id="node15" class="node">
<title>system_cpu_itb_walker_cache_cpu_side</title>
<path fill="#94918b" stroke="#000000" d="M456,-556.5C456,-556.5 508,-556.5 508,-556.5 514,-556.5 520,-562.5 520,-568.5 520,-568.5 520,-580.5 520,-580.5 520,-586.5 514,-592.5 508,-592.5 508,-592.5 456,-592.5 456,-592.5 450,-592.5 444,-586.5 444,-580.5 444,-580.5 444,-568.5 444,-568.5 444,-562.5 450,-556.5 456,-556.5"/>
<text text-anchor="middle" x="482" y="-570.8" font-family="Arial" font-size="14.00" fill="#000000">cpu_side</text>
</g>
<!-- system_cpu_itb_walker_port -->
<g id="node16" class="node">
<title>system_cpu_itb_walker_port</title>
<path fill="#7f7c77" stroke="#000000" d="M467,-687.5C467,-687.5 497,-687.5 497,-687.5 503,-687.5 509,-693.5 509,-699.5 509,-699.5 509,-711.5 509,-711.5 509,-717.5 503,-723.5 497,-723.5 497,-723.5 467,-723.5 467,-723.5 461,-723.5 455,-717.5 455,-711.5 455,-711.5 455,-699.5 455,-699.5 455,-693.5 461,-687.5 467,-687.5"/>
<text text-anchor="middle" x="482" y="-701.8" font-family="Arial" font-size="14.00" fill="#000000">port</text>
</g>
<!-- system_cpu_itb_walker_port&#45;&gt;system_cpu_itb_walker_cache_cpu_side -->
<g id="edge10" class="edge">
<title>system_cpu_itb_walker_port&#45;&gt;system_cpu_itb_walker_cache_cpu_side</title>
<path fill="none" stroke="#000000" d="M482,-687.285C482,-665.3856 482,-628.3861 482,-602.7663"/>
<polygon fill="#000000" stroke="#000000" points="485.5001,-602.5603 482,-592.5603 478.5001,-602.5603 485.5001,-602.5603"/>
</g>
<!-- system_cpu_icache_mem_side -->
<g id="node17" class="node">
<title>system_cpu_icache_mem_side</title>
<path fill="#94918b" stroke="#000000" d="M348,-556.5C348,-556.5 408,-556.5 408,-556.5 414,-556.5 420,-562.5 420,-568.5 420,-568.5 420,-580.5 420,-580.5 420,-586.5 414,-592.5 408,-592.5 408,-592.5 348,-592.5 348,-592.5 342,-592.5 336,-586.5 336,-580.5 336,-580.5 336,-568.5 336,-568.5 336,-562.5 342,-556.5 348,-556.5"/>
<text text-anchor="middle" x="378" y="-570.8" font-family="Arial" font-size="14.00" fill="#000000">mem_side</text>
</g>
<!-- system_cpu_icache_mem_side&#45;&gt;system_tol2bus_slave -->
<g id="edge11" class="edge">
<title>system_cpu_icache_mem_side&#45;&gt;system_tol2bus_slave</title>
<path fill="none" stroke="#000000" d="M392.0436,-556.285C409.3802,-533.799 438.9908,-495.3931 458.7749,-469.7326"/>
<polygon fill="#000000" stroke="#000000" points="461.7416,-471.6169 465.0757,-461.5603 456.1979,-467.3427 461.7416,-471.6169"/>
</g>
<!-- system_cpu_dcache_mem_side -->
<g id="node19" class="node">
<title>system_cpu_dcache_mem_side</title>
<path fill="#94918b" stroke="#000000" d="M146,-556.5C146,-556.5 206,-556.5 206,-556.5 212,-556.5 218,-562.5 218,-568.5 218,-568.5 218,-580.5 218,-580.5 218,-586.5 212,-592.5 206,-592.5 206,-592.5 146,-592.5 146,-592.5 140,-592.5 134,-586.5 134,-580.5 134,-580.5 134,-568.5 134,-568.5 134,-562.5 140,-556.5 146,-556.5"/>
<text text-anchor="middle" x="176" y="-570.8" font-family="Arial" font-size="14.00" fill="#000000">mem_side</text>
</g>
<!-- system_cpu_dcache_mem_side&#45;&gt;system_tol2bus_slave -->
<g id="edge12" class="edge">
<title>system_cpu_dcache_mem_side&#45;&gt;system_tol2bus_slave</title>
<path fill="none" stroke="#000000" d="M202.0243,-556.3966C210.7063,-550.7611 220.5731,-544.7782 230,-540 302.5398,-503.2319 392.5793,-471.5433 442.0775,-455.2364"/>
<polygon fill="#000000" stroke="#000000" points="443.2932,-458.5213 451.7115,-452.0885 441.119,-451.8675 443.2932,-458.5213"/>
</g>
</g>
</svg>
