tick=2654441708000 1 cpu_id=0 next_pid=-1 next_tgid=-1 next_task=kernel
tick=2654450757500 0 cpu_id=0 next_pid=698 next_tgid=698 next_task=m5
tick=2654525305500 2 cpu_id=0 next_pid=677 next_tgid=677 next_task=script
tick=2654835748500 3 cpu_id=0 next_pid=699 next_tgid=699 next_task=script
tick=2655430273000 2 cpu_id=0 next_pid=677 next_tgid=677 next_task=script
tick=2655525292000 4 cpu_id=0 next_pid=700 next_tgid=700 next_task=script
tick=2655973449000 1 cpu_id=0 next_pid=-1 next_tgid=-1 next_task=kernel
tick=2655976555500 1 cpu_id=0 next_pid=-1 next_tgid=-1 next_task=kernel
tick=2655987951500 1 cpu_id=0 next_pid=-1 next_tgid=-1 next_task=kernel
tick=2655990354500 4 cpu_id=0 next_pid=700 next_tgid=700 next_task=chmod
tick=2656252489000 2 cpu_id=0 next_pid=677 next_tgid=677 next_task=script
tick=2657145200000 1 cpu_id=0 next_pid=-1 next_tgid=-1 next_task=kernel
tick=2657148605500 5 cpu_id=0 next_pid=701 next_tgid=701 next_task=sh
tick=2657758546500 2 cpu_id=0 next_pid=677 next_tgid=677 next_task=sh
tick=2657983377000 1 cpu_id=0 next_pid=-1 next_tgid=-1 next_task=kernel
tick=2657986804000 6 cpu_id=0 next_pid=1 next_tgid=1 next_task=init
tick=2658013936000 7 cpu_id=0 next_pid=704 next_tgid=704 next_task=init
tick=2658128387000 6 cpu_id=0 next_pid=1 next_tgid=1 next_task=init
tick=2658136810000 7 cpu_id=0 next_pid=704 next_tgid=704 next_task=getty
tick=2658834008500 8 cpu_id=0 next_pid=703 next_tgid=703 next_task=sh
tick=2659016258500 1 cpu_id=0 next_pid=-1 next_tgid=-1 next_task=kernel
tick=2659019235000 1 cpu_id=0 next_pid=-1 next_tgid=-1 next_task=kernel
tick=2659042065000 1 cpu_id=0 next_pid=-1 next_tgid=-1 next_task=kernel
tick=2659044615500 8 cpu_id=0 next_pid=703 next_tgid=703 next_task=sh
tick=2659162519000 9 cpu_id=0 next_pid=702 next_tgid=702 next_task=sh
tick=2659255221000 8 cpu_id=0 next_pid=703 next_tgid=703 next_task=sh
tick=2659625381000 9 cpu_id=0 next_pid=702 next_tgid=702 next_task=sh
tick=2659756839000 8 cpu_id=0 next_pid=703 next_tgid=703 next_task=Puzzle
tick=2659861385000 9 cpu_id=0 next_pid=702 next_tgid=702 next_task=sh
tick=2659969529500 1 cpu_id=0 next_pid=-1 next_tgid=-1 next_task=kernel
tick=2659972415000 1 cpu_id=0 next_pid=-1 next_tgid=-1 next_task=kernel
tick=2659977065000 1 cpu_id=0 next_pid=-1 next_tgid=-1 next_task=kernel
tick=2659978810500 8 cpu_id=0 next_pid=703 next_tgid=703 next_task=Puzzle
tick=2660052625000 9 cpu_id=0 next_pid=702 next_tgid=702 next_task=sh
tick=2660166818000 8 cpu_id=0 next_pid=703 next_tgid=703 next_task=Puzzle
tick=2660391935500 9 cpu_id=0 next_pid=702 next_tgid=702 next_task=Queens
tick=2660450506500 10 cpu_id=0 next_pid=0 next_tgid=0 next_task=swapper/0
tick=2660517308000 8 cpu_id=0 next_pid=703 next_tgid=703 next_task=Puzzle
tick=2660600046000 9 cpu_id=0 next_pid=702 next_tgid=702 next_task=Queens
tick=2660684322500 8 cpu_id=0 next_pid=703 next_tgid=703 next_task=Puzzle
tick=2660785453500 9 cpu_id=0 next_pid=702 next_tgid=702 next_task=Queens
tick=2660973124000 1 cpu_id=0 next_pid=-1 next_tgid=-1 next_task=kernel
tick=2660975290000 1 cpu_id=0 next_pid=-1 next_tgid=-1 next_task=kernel
tick=2661070872500 8 cpu_id=0 next_pid=703 next_tgid=703 next_task=Puzzle
tick=2661224203500 9 cpu_id=0 next_pid=702 next_tgid=702 next_task=Queens
tick=2661317166500 8 cpu_id=0 next_pid=703 next_tgid=703 next_task=Puzzle
tick=2661964122500 1 cpu_id=0 next_pid=-1 next_tgid=-1 next_task=kernel
tick=2661966518000 9 cpu_id=0 next_pid=702 next_tgid=702 next_task=Queens
tick=2662053666500 8 cpu_id=0 next_pid=703 next_tgid=703 next_task=Puzzle
tick=2663962883500 1 cpu_id=0 next_pid=-1 next_tgid=-1 next_task=kernel
tick=2663965120000 9 cpu_id=0 next_pid=702 next_tgid=702 next_task=Queens
tick=2664964502000 1 cpu_id=0 next_pid=-1 next_tgid=-1 next_task=kernel
tick=2664966626500 9 cpu_id=0 next_pid=702 next_tgid=702 next_task=Queens
tick=2665075285000 8 cpu_id=0 next_pid=703 next_tgid=703 next_task=Puzzle
tick=2667959869500 9 cpu_id=0 next_pid=702 next_tgid=702 next_task=Queens
tick=2671960726500 8 cpu_id=0 next_pid=703 next_tgid=703 next_task=Puzzle
tick=2675959842000 9 cpu_id=0 next_pid=702 next_tgid=702 next_task=Queens
tick=2679960432000 8 cpu_id=0 next_pid=703 next_tgid=703 next_task=Puzzle
tick=2683959519000 9 cpu_id=0 next_pid=702 next_tgid=702 next_task=Queens
tick=2687960362500 8 cpu_id=0 next_pid=703 next_tgid=703 next_task=Puzzle
tick=2691959623500 9 cpu_id=0 next_pid=702 next_tgid=702 next_task=Queens
tick=2695960286500 8 cpu_id=0 next_pid=703 next_tgid=703 next_task=Puzzle
tick=2699959539500 9 cpu_id=0 next_pid=702 next_tgid=702 next_task=Queens
tick=2703960200000 8 cpu_id=0 next_pid=703 next_tgid=703 next_task=Puzzle
tick=2707959246000 9 cpu_id=0 next_pid=702 next_tgid=702 next_task=Queens
tick=2711960205500 8 cpu_id=0 next_pid=703 next_tgid=703 next_task=Puzzle
tick=2714961477000 1 cpu_id=0 next_pid=-1 next_tgid=-1 next_task=kernel
tick=2714964846500 9 cpu_id=0 next_pid=702 next_tgid=702 next_task=Queens
tick=2716963266500 1 cpu_id=0 next_pid=-1 next_tgid=-1 next_task=kernel
tick=2716970855000 9 cpu_id=0 next_pid=702 next_tgid=702 next_task=Queens
tick=2720959894000 8 cpu_id=0 next_pid=703 next_tgid=703 next_task=Puzzle
tick=2724959051000 9 cpu_id=0 next_pid=702 next_tgid=702 next_task=Queens
tick=2728959942500 8 cpu_id=0 next_pid=703 next_tgid=703 next_task=Puzzle
tick=2732959147500 9 cpu_id=0 next_pid=702 next_tgid=702 next_task=Queens
tick=2736959842500 8 cpu_id=0 next_pid=703 next_tgid=703 next_task=Puzzle
tick=2740960361000 9 cpu_id=0 next_pid=702 next_tgid=702 next_task=Queens
