tick=2654441708000 1 cpu_id=0 next_pid=-1 next_tgid=-1 next_task=kernel
tick=2654450757500 0 cpu_id=0 next_pid=698 next_tgid=698 next_task=m5
tick=2654521918500 2 cpu_id=0 next_pid=677 next_tgid=677 next_task=script
tick=2654802745500 3 cpu_id=0 next_pid=699 next_tgid=699 next_task=script
tick=2655338506500 2 cpu_id=0 next_pid=677 next_tgid=677 next_task=script
tick=2655427088000 4 cpu_id=0 next_pid=700 next_tgid=700 next_task=script
tick=2655975117000 1 cpu_id=0 next_pid=-1 next_tgid=-1 next_task=kernel
tick=2655978257500 1 cpu_id=0 next_pid=-1 next_tgid=-1 next_task=kernel
tick=2655989780500 1 cpu_id=0 next_pid=-1 next_tgid=-1 next_task=kernel
tick=2655992344500 4 cpu_id=0 next_pid=700 next_tgid=700 next_task=chmod
tick=2656054348500 2 cpu_id=0 next_pid=677 next_tgid=677 next_task=script
tick=2657364433500 5 cpu_id=0 next_pid=1 next_tgid=1 next_task=init
tick=2657395061000 1 cpu_id=0 next_pid=-1 next_tgid=-1 next_task=kernel
tick=2657398516000 6 cpu_id=0 next_pid=707 next_tgid=707 next_task=sh
tick=2657647685500 7 cpu_id=0 next_pid=711 next_tgid=711 next_task=sh
tick=2657726689500 8 cpu_id=0 next_pid=708 next_tgid=708 next_task=sh
tick=2657804540000 9 cpu_id=0 next_pid=709 next_tgid=709 next_task=sh
tick=2657880344000 10 cpu_id=0 next_pid=710 next_tgid=710 next_task=sh
tick=2657967962000 1 cpu_id=0 next_pid=-1 next_tgid=-1 next_task=kernel
tick=2657970297500 11 cpu_id=0 next_pid=712 next_tgid=712 next_task=init
tick=2658082214500 5 cpu_id=0 next_pid=1 next_tgid=1 next_task=init
tick=2658090715000 11 cpu_id=0 next_pid=712 next_tgid=712 next_task=getty
tick=2658680250500 12 cpu_id=0 next_pid=706 next_tgid=706 next_task=sh
tick=2658763126000 6 cpu_id=0 next_pid=707 next_tgid=707 next_task=sh
tick=2658830801500 7 cpu_id=0 next_pid=711 next_tgid=711 next_task=sh
tick=2658835028000 8 cpu_id=0 next_pid=708 next_tgid=708 next_task=sh
tick=2658838011000 9 cpu_id=0 next_pid=709 next_tgid=709 next_task=sh
tick=2658840807500 10 cpu_id=0 next_pid=710 next_tgid=710 next_task=sh
tick=2658843490500 12 cpu_id=0 next_pid=706 next_tgid=706 next_task=sh
tick=2658845511500 13 cpu_id=0 next_pid=705 next_tgid=705 next_task=sh
tick=2658928923500 6 cpu_id=0 next_pid=707 next_tgid=707 next_task=sh
tick=2659002988000 1 cpu_id=0 next_pid=-1 next_tgid=-1 next_task=kernel
tick=2659005349500 1 cpu_id=0 next_pid=-1 next_tgid=-1 next_task=kernel
tick=2659019040000 1 cpu_id=0 next_pid=-1 next_tgid=-1 next_task=kernel
tick=2659021594000 6 cpu_id=0 next_pid=707 next_tgid=707 next_task=sh
tick=2659095565500 7 cpu_id=0 next_pid=711 next_tgid=711 next_task=sh
tick=2659323856500 8 cpu_id=0 next_pid=708 next_tgid=708 next_task=sh
tick=2659506118500 9 cpu_id=0 next_pid=709 next_tgid=709 next_task=sh
tick=2659684826000 10 cpu_id=0 next_pid=710 next_tgid=710 next_task=sh
tick=2659765262500 12 cpu_id=0 next_pid=706 next_tgid=706 next_task=sh
tick=2659944908000 10 cpu_id=0 next_pid=710 next_tgid=710 next_task=sh
tick=2660020286500 1 cpu_id=0 next_pid=-1 next_tgid=-1 next_task=kernel
tick=2660022461500 1 cpu_id=0 next_pid=-1 next_tgid=-1 next_task=kernel
tick=2660023636500 10 cpu_id=0 next_pid=710 next_tgid=710 next_task=sh
tick=2660140379500 9 cpu_id=0 next_pid=709 next_tgid=709 next_task=sh
tick=2660323110500 8 cpu_id=0 next_pid=708 next_tgid=708 next_task=sh
tick=2660502011500 10 cpu_id=0 next_pid=710 next_tgid=710 next_task=Oscar
tick=2660558227500 7 cpu_id=0 next_pid=711 next_tgid=711 next_task=sh
tick=2660737187500 13 cpu_id=0 next_pid=705 next_tgid=705 next_task=sh
tick=2660865360000 10 cpu_id=0 next_pid=710 next_tgid=710 next_task=Oscar
tick=2660938611000 12 cpu_id=0 next_pid=706 next_tgid=706 next_task=sh
tick=2661130047500 10 cpu_id=0 next_pid=710 next_tgid=710 next_task=Oscar
tick=2661477184000 9 cpu_id=0 next_pid=709 next_tgid=709 next_task=Perm
tick=2661485222000 8 cpu_id=0 next_pid=708 next_tgid=708 next_task=IntMM
tick=2661490574000 14 cpu_id=0 next_pid=704 next_tgid=704 next_task=sh
tick=2661752524500 8 cpu_id=0 next_pid=708 next_tgid=708 next_task=IntMM
tick=2661872663500 9 cpu_id=0 next_pid=709 next_tgid=709 next_task=Perm
tick=2661898566000 6 cpu_id=0 next_pid=707 next_tgid=707 next_task=sh
tick=2662143909500 13 cpu_id=0 next_pid=705 next_tgid=705 next_task=sh
tick=2662329341500 9 cpu_id=0 next_pid=709 next_tgid=709 next_task=Perm
tick=2662440820500 7 cpu_id=0 next_pid=711 next_tgid=711 next_task=Towers
tick=2662449093000 12 cpu_id=0 next_pid=706 next_tgid=706 next_task=FloatMM
tick=2662456054500 8 cpu_id=0 next_pid=708 next_tgid=708 next_task=IntMM
tick=2662766718000 7 cpu_id=0 next_pid=711 next_tgid=711 next_task=Towers
tick=2662932906500 12 cpu_id=0 next_pid=706 next_tgid=706 next_task=FloatMM
tick=2663012667500 9 cpu_id=0 next_pid=709 next_tgid=709 next_task=Perm
tick=2663100896500 13 cpu_id=0 next_pid=705 next_tgid=705 next_task=Bubblesort
tick=2663108571500 12 cpu_id=0 next_pid=706 next_tgid=706 next_task=FloatMM
tick=2663269603500 13 cpu_id=0 next_pid=705 next_tgid=705 next_task=Bubblesort
tick=2663439007500 7 cpu_id=0 next_pid=711 next_tgid=711 next_task=Towers
tick=2663549872500 9 cpu_id=0 next_pid=709 next_tgid=709 next_task=Perm
tick=2663730280000 6 cpu_id=0 next_pid=707 next_tgid=707 next_task=RealMM
tick=2663739421000 14 cpu_id=0 next_pid=704 next_tgid=704 next_task=sh
tick=2664027029500 6 cpu_id=0 next_pid=707 next_tgid=707 next_task=RealMM
tick=2664105618500 15 cpu_id=0 next_pid=703 next_tgid=703 next_task=sh
tick=2664321603500 7 cpu_id=0 next_pid=711 next_tgid=711 next_task=Towers
tick=2664405124500 10 cpu_id=0 next_pid=710 next_tgid=710 next_task=Oscar
tick=2664501583500 6 cpu_id=0 next_pid=707 next_tgid=707 next_task=RealMM
tick=2664663362000 12 cpu_id=0 next_pid=706 next_tgid=706 next_task=FloatMM
tick=2664847638000 13 cpu_id=0 next_pid=705 next_tgid=705 next_task=Bubblesort
tick=2665011756500 9 cpu_id=0 next_pid=709 next_tgid=709 next_task=Perm
tick=2665186224000 7 cpu_id=0 next_pid=711 next_tgid=711 next_task=Towers
tick=2665435962000 10 cpu_id=0 next_pid=710 next_tgid=710 next_task=Oscar
tick=2665623662000 8 cpu_id=0 next_pid=708 next_tgid=708 next_task=IntMM
tick=2665710110000 6 cpu_id=0 next_pid=707 next_tgid=707 next_task=RealMM
tick=2665797029000 8 cpu_id=0 next_pid=708 next_tgid=708 next_task=IntMM
tick=2665888543500 15 cpu_id=0 next_pid=703 next_tgid=703 next_task=sh
tick=2666129820500 13 cpu_id=0 next_pid=705 next_tgid=705 next_task=Bubblesort
tick=2666214581500 12 cpu_id=0 next_pid=706 next_tgid=706 next_task=FloatMM
tick=2666303993500 14 cpu_id=0 next_pid=704 next_tgid=704 next_task=Treesort
tick=2666310521500 9 cpu_id=0 next_pid=709 next_tgid=709 next_task=Perm
tick=2667461149000 14 cpu_id=0 next_pid=704 next_tgid=704 next_task=Treesort
tick=2667535708000 6 cpu_id=0 next_pid=707 next_tgid=707 next_task=RealMM
tick=2667575438000 8 cpu_id=0 next_pid=708 next_tgid=708 next_task=IntMM
tick=2668632900500 10 cpu_id=0 next_pid=710 next_tgid=710 next_task=Oscar
tick=2669988926500 13 cpu_id=0 next_pid=705 next_tgid=705 next_task=Bubblesort
tick=2670071376000 6 cpu_id=0 next_pid=707 next_tgid=707 next_task=RealMM
tick=2670963067000 14 cpu_id=0 next_pid=704 next_tgid=704 next_task=Treesort
tick=2671069259000 12 cpu_id=0 next_pid=706 next_tgid=706 next_task=FloatMM
tick=2671963291500 7 cpu_id=0 next_pid=711 next_tgid=711 next_task=Towers
tick=2672962573000 13 cpu_id=0 next_pid=705 next_tgid=705 next_task=Bubblesort
tick=2673962101500 14 cpu_id=0 next_pid=704 next_tgid=704 next_task=Treesort
tick=2674040351500 15 cpu_id=0 next_pid=703 next_tgid=703 next_task=Quicksort
tick=2674048547500 16 cpu_id=0 next_pid=702 next_tgid=702 next_task=sh
tick=2674330924500 15 cpu_id=0 next_pid=703 next_tgid=703 next_task=Quicksort
tick=2674404611500 14 cpu_id=0 next_pid=704 next_tgid=704 next_task=Treesort
tick=2674611101500 15 cpu_id=0 next_pid=703 next_tgid=703 next_task=Quicksort
tick=2674778464000 14 cpu_id=0 next_pid=704 next_tgid=704 next_task=Treesort
tick=2675962436500 15 cpu_id=0 next_pid=703 next_tgid=703 next_task=Quicksort
tick=2676039918500 16 cpu_id=0 next_pid=702 next_tgid=702 next_task=sh
tick=2676233765500 15 cpu_id=0 next_pid=703 next_tgid=703 next_task=Quicksort
tick=2676323578500 16 cpu_id=0 next_pid=702 next_tgid=702 next_task=Puzzle
tick=2676385960500 15 cpu_id=0 next_pid=703 next_tgid=703 next_task=Quicksort
tick=2677719821500 16 cpu_id=0 next_pid=702 next_tgid=702 next_task=Puzzle
tick=2677794687500 6 cpu_id=0 next_pid=707 next_tgid=707 next_task=RealMM
tick=2678096439500 16 cpu_id=0 next_pid=702 next_tgid=702 next_task=Puzzle
tick=2678315295500 12 cpu_id=0 next_pid=706 next_tgid=706 next_task=FloatMM
tick=2678664649000 16 cpu_id=0 next_pid=702 next_tgid=702 next_task=Puzzle
tick=2678750879500 7 cpu_id=0 next_pid=711 next_tgid=711 next_task=Towers
tick=2679088343500 8 cpu_id=0 next_pid=708 next_tgid=708 next_task=IntMM
tick=2679961942000 16 cpu_id=0 next_pid=702 next_tgid=702 next_task=Puzzle
tick=2680041266000 13 cpu_id=0 next_pid=705 next_tgid=705 next_task=Bubblesort
tick=2680961090500 9 cpu_id=0 next_pid=709 next_tgid=709 next_task=Perm
tick=2681960131000 16 cpu_id=0 next_pid=702 next_tgid=702 next_task=Puzzle
tick=2682091935000 17 cpu_id=0 next_pid=701 next_tgid=701 next_task=sh
tick=2682263951500 6 cpu_id=0 next_pid=707 next_tgid=707 next_task=RealMM
tick=2682966167500 1 cpu_id=0 next_pid=-1 next_tgid=-1 next_task=kernel
tick=2682969810000 6 cpu_id=0 next_pid=707 next_tgid=707 next_task=RealMM
tick=2683963339500 1 cpu_id=0 next_pid=-1 next_tgid=-1 next_task=kernel
tick=2683965830000 12 cpu_id=0 next_pid=706 next_tgid=706 next_task=FloatMM
tick=2684962549000 16 cpu_id=0 next_pid=702 next_tgid=702 next_task=Puzzle
tick=2685961460500 10 cpu_id=0 next_pid=710 next_tgid=710 next_task=Oscar
tick=2686959817000 17 cpu_id=0 next_pid=701 next_tgid=701 next_task=sh
tick=2687144460500 7 cpu_id=0 next_pid=711 next_tgid=711 next_task=Towers
tick=2687961632500 17 cpu_id=0 next_pid=701 next_tgid=701 next_task=Queens
tick=2688009181500 14 cpu_id=0 next_pid=704 next_tgid=704 next_task=Treesort
tick=2688961521500 17 cpu_id=0 next_pid=701 next_tgid=701 next_task=Queens
tick=2689029727500 15 cpu_id=0 next_pid=703 next_tgid=703 next_task=Quicksort
tick=2689961033000 17 cpu_id=0 next_pid=701 next_tgid=701 next_task=Queens
tick=2690072124500 8 cpu_id=0 next_pid=708 next_tgid=708 next_task=IntMM
tick=2690964706500 1 cpu_id=0 next_pid=-1 next_tgid=-1 next_task=kernel
tick=2690967338500 17 cpu_id=0 next_pid=701 next_tgid=701 next_task=Queens
tick=2691040176500 13 cpu_id=0 next_pid=705 next_tgid=705 next_task=Bubblesort
tick=2691243224500 17 cpu_id=0 next_pid=701 next_tgid=701 next_task=Queens
tick=2691328664500 9 cpu_id=0 next_pid=709 next_tgid=709 next_task=Perm
tick=2691963480000 1 cpu_id=0 next_pid=-1 next_tgid=-1 next_task=kernel
tick=2691965530500 9 cpu_id=0 next_pid=709 next_tgid=709 next_task=Perm
tick=2692961575000 17 cpu_id=0 next_pid=701 next_tgid=701 next_task=Queens
tick=2693987435500 1 cpu_id=0 next_pid=-1 next_tgid=-1 next_task=kernel
tick=2693989539500 1 cpu_id=0 next_pid=-1 next_tgid=-1 next_task=kernel
tick=2693997423500 7 cpu_id=0 next_pid=711 next_tgid=711 next_task=Towers
tick=2694962792000 1 cpu_id=0 next_pid=-1 next_tgid=-1 next_task=kernel
tick=2694964861500 13 cpu_id=0 next_pid=705 next_tgid=705 next_task=Bubblesort
tick=2695962731000 12 cpu_id=0 next_pid=706 next_tgid=706 next_task=FloatMM
tick=2696960988000 16 cpu_id=0 next_pid=702 next_tgid=702 next_task=Puzzle
tick=2697959387000 10 cpu_id=0 next_pid=710 next_tgid=710 next_task=Oscar
tick=2698959959000 14 cpu_id=0 next_pid=704 next_tgid=704 next_task=Treesort
tick=2699083738000 8 cpu_id=0 next_pid=708 next_tgid=708 next_task=IntMM
tick=2699960909000 14 cpu_id=0 next_pid=704 next_tgid=704 next_task=Treesort
tick=2700961318000 15 cpu_id=0 next_pid=703 next_tgid=703 next_task=Quicksort
tick=2701960455500 6 cpu_id=0 next_pid=707 next_tgid=707 next_task=RealMM
tick=2702960847000 17 cpu_id=0 next_pid=701 next_tgid=701 next_task=Queens
tick=2703961171000 7 cpu_id=0 next_pid=711 next_tgid=711 next_task=Towers
tick=2704960340500 13 cpu_id=0 next_pid=705 next_tgid=705 next_task=Bubblesort
tick=2705960288000 12 cpu_id=0 next_pid=706 next_tgid=706 next_task=FloatMM
tick=2706960685500 16 cpu_id=0 next_pid=702 next_tgid=702 next_task=Puzzle
tick=2707959051000 10 cpu_id=0 next_pid=710 next_tgid=710 next_task=Oscar
tick=2708983831000 14 cpu_id=0 next_pid=704 next_tgid=704 next_task=Treesort
tick=2709961584500 8 cpu_id=0 next_pid=708 next_tgid=708 next_task=IntMM
tick=2710966496000 9 cpu_id=0 next_pid=709 next_tgid=709 next_task=Perm
tick=2711959825500 15 cpu_id=0 next_pid=703 next_tgid=703 next_task=Quicksort
tick=2712959745500 6 cpu_id=0 next_pid=707 next_tgid=707 next_task=RealMM
tick=2713961072000 17 cpu_id=0 next_pid=701 next_tgid=701 next_task=Queens
tick=2714961786000 1 cpu_id=0 next_pid=-1 next_tgid=-1 next_task=kernel
tick=2714965417500 7 cpu_id=0 next_pid=711 next_tgid=711 next_task=Towers
tick=2715960495000 13 cpu_id=0 next_pid=705 next_tgid=705 next_task=Bubblesort
tick=2716962449500 1 cpu_id=0 next_pid=-1 next_tgid=-1 next_task=kernel
tick=2716970394500 12 cpu_id=0 next_pid=706 next_tgid=706 next_task=FloatMM
tick=2717961041000 16 cpu_id=0 next_pid=702 next_tgid=702 next_task=Puzzle
tick=2718959354000 10 cpu_id=0 next_pid=710 next_tgid=710 next_task=Oscar
tick=2719960297000 14 cpu_id=0 next_pid=704 next_tgid=704 next_task=Treesort
tick=2720961408500 8 cpu_id=0 next_pid=708 next_tgid=708 next_task=IntMM
tick=2721960313000 9 cpu_id=0 next_pid=709 next_tgid=709 next_task=Perm
tick=2722959954500 15 cpu_id=0 next_pid=703 next_tgid=703 next_task=Quicksort
tick=2723960082000 6 cpu_id=0 next_pid=707 next_tgid=707 next_task=RealMM
tick=2724960822500 17 cpu_id=0 next_pid=701 next_tgid=701 next_task=Queens
tick=2725960116500 7 cpu_id=0 next_pid=711 next_tgid=711 next_task=Towers
tick=2726959182500 13 cpu_id=0 next_pid=705 next_tgid=705 next_task=Bubblesort
tick=2727960126500 12 cpu_id=0 next_pid=706 next_tgid=706 next_task=FloatMM
tick=2728960552000 16 cpu_id=0 next_pid=702 next_tgid=702 next_task=Puzzle
tick=2729958795500 10 cpu_id=0 next_pid=710 next_tgid=710 next_task=Oscar
tick=2730960172000 14 cpu_id=0 next_pid=704 next_tgid=704 next_task=Treesort
tick=2731961208500 8 cpu_id=0 next_pid=708 next_tgid=708 next_task=IntMM
tick=2732960000500 9 cpu_id=0 next_pid=709 next_tgid=709 next_task=Perm
tick=2733959361000 15 cpu_id=0 next_pid=703 next_tgid=703 next_task=Quicksort
tick=2734959405500 6 cpu_id=0 next_pid=707 next_tgid=707 next_task=RealMM
tick=2735960791500 17 cpu_id=0 next_pid=701 next_tgid=701 next_task=Queens
tick=2736960175500 7 cpu_id=0 next_pid=711 next_tgid=711 next_task=Towers
tick=2737959875000 13 cpu_id=0 next_pid=705 next_tgid=705 next_task=Bubblesort
tick=2738959142500 12 cpu_id=0 next_pid=706 next_tgid=706 next_task=FloatMM
tick=2739961060500 16 cpu_id=0 next_pid=702 next_tgid=702 next_task=Puzzle
tick=2740959208000 10 cpu_id=0 next_pid=710 next_tgid=710 next_task=Oscar
