tick=2654441708000 1 cpu_id=0 next_pid=-1 next_tgid=-1 next_task=kernel
tick=2654450757500 0 cpu_id=0 next_pid=698 next_tgid=698 next_task=m5
tick=2654521908500 2 cpu_id=0 next_pid=677 next_tgid=677 next_task=script
tick=2654802101500 3 cpu_id=0 next_pid=699 next_tgid=699 next_task=script
tick=2655332408500 2 cpu_id=0 next_pid=677 next_tgid=677 next_task=script
tick=2655416213000 4 cpu_id=0 next_pid=700 next_tgid=700 next_task=script
tick=2655973547000 1 cpu_id=0 next_pid=-1 next_tgid=-1 next_task=kernel
tick=2655976339500 1 cpu_id=0 next_pid=-1 next_tgid=-1 next_task=kernel
tick=2655987103500 1 cpu_id=0 next_pid=-1 next_tgid=-1 next_task=kernel
tick=2655989005000 1 cpu_id=0 next_pid=-1 next_tgid=-1 next_task=kernel
tick=2656020654000 2 cpu_id=0 next_pid=677 next_tgid=677 next_task=script
tick=2656860870000 5 cpu_id=0 next_pid=1 next_tgid=1 next_task=init
tick=2656887550000 6 cpu_id=0 next_pid=705 next_tgid=705 next_task=init
tick=2656971955500 1 cpu_id=0 next_pid=-1 next_tgid=-1 next_task=kernel
tick=2656974623500 1 cpu_id=0 next_pid=-1 next_tgid=-1 next_task=kernel
tick=2656981316000 1 cpu_id=0 next_pid=-1 next_tgid=-1 next_task=kernel
tick=2656983461000 6 cpu_id=0 next_pid=705 next_tgid=705 next_task=init
tick=2657025897500 5 cpu_id=0 next_pid=1 next_tgid=1 next_task=init
tick=2657034070500 6 cpu_id=0 next_pid=705 next_tgid=705 next_task=getty
tick=2657589655500 7 cpu_id=0 next_pid=704 next_tgid=704 next_task=sh
tick=2658016740000 1 cpu_id=0 next_pid=-1 next_tgid=-1 next_task=kernel
tick=2658019689500 1 cpu_id=0 next_pid=-1 next_tgid=-1 next_task=kernel
tick=2658081535000 1 cpu_id=0 next_pid=-1 next_tgid=-1 next_task=kernel
tick=2658084088000 8 cpu_id=0 next_pid=703 next_tgid=703 next_task=sh
tick=2658278471000 7 cpu_id=0 next_pid=704 next_tgid=704 next_task=sh
tick=2658446004500 8 cpu_id=0 next_pid=703 next_tgid=703 next_task=Oscar
tick=2658569225000 7 cpu_id=0 next_pid=704 next_tgid=704 next_task=Oscar
tick=2658587077500 9 cpu_id=0 next_pid=702 next_tgid=702 next_task=sh
tick=2658778893000 7 cpu_id=0 next_pid=704 next_tgid=704 next_task=Oscar
tick=2658932883500 8 cpu_id=0 next_pid=703 next_tgid=703 next_task=Oscar
tick=2659005501000 1 cpu_id=0 next_pid=-1 next_tgid=-1 next_task=kernel
tick=2659055254000 1 cpu_id=0 next_pid=-1 next_tgid=-1 next_task=kernel
tick=2659063563000 8 cpu_id=0 next_pid=703 next_tgid=703 next_task=Oscar
tick=2659144422500 7 cpu_id=0 next_pid=704 next_tgid=704 next_task=Oscar
tick=2659152951500 9 cpu_id=0 next_pid=702 next_tgid=702 next_task=sh
tick=2659232917000 7 cpu_id=0 next_pid=704 next_tgid=704 next_task=Oscar
tick=2659359556000 8 cpu_id=0 next_pid=703 next_tgid=703 next_task=Oscar
tick=2659365360000 9 cpu_id=0 next_pid=702 next_tgid=702 next_task=sh
tick=2659587109500 8 cpu_id=0 next_pid=703 next_tgid=703 next_task=Oscar
tick=2659721915500 7 cpu_id=0 next_pid=704 next_tgid=704 next_task=Oscar
tick=2661960752000 8 cpu_id=0 next_pid=703 next_tgid=703 next_task=Oscar
tick=2663960492500 9 cpu_id=0 next_pid=702 next_tgid=702 next_task=Queens
tick=2664007478500 10 cpu_id=0 next_pid=701 next_tgid=701 next_task=sh
tick=2664967006500 1 cpu_id=0 next_pid=-1 next_tgid=-1 next_task=kernel
tick=2664969443500 9 cpu_id=0 next_pid=702 next_tgid=702 next_task=Queens
tick=2665034445000 10 cpu_id=0 next_pid=701 next_tgid=701 next_task=Oscar
tick=2665076332500 9 cpu_id=0 next_pid=702 next_tgid=702 next_task=Queens
tick=2665172772500 10 cpu_id=0 next_pid=701 next_tgid=701 next_task=Oscar
tick=2665297464500 9 cpu_id=0 next_pid=702 next_tgid=702 next_task=Queens
tick=2665371046000 8 cpu_id=0 next_pid=703 next_tgid=703 next_task=Oscar
tick=2665397159000 9 cpu_id=0 next_pid=702 next_tgid=702 next_task=Queens
tick=2665471079500 10 cpu_id=0 next_pid=701 next_tgid=701 next_task=Oscar
tick=2665530003000 9 cpu_id=0 next_pid=702 next_tgid=702 next_task=Queens
tick=2665963766000 1 cpu_id=0 next_pid=-1 next_tgid=-1 next_task=kernel
tick=2665965703500 9 cpu_id=0 next_pid=702 next_tgid=702 next_task=Queens
tick=2666546179000 8 cpu_id=0 next_pid=703 next_tgid=703 next_task=Oscar
tick=2667963162500 1 cpu_id=0 next_pid=-1 next_tgid=-1 next_task=kernel
tick=2667965509000 9 cpu_id=0 next_pid=702 next_tgid=702 next_task=Queens
tick=2668962591500 1 cpu_id=0 next_pid=-1 next_tgid=-1 next_task=kernel
tick=2668964374500 10 cpu_id=0 next_pid=701 next_tgid=701 next_task=Oscar
tick=2670983155000 7 cpu_id=0 next_pid=704 next_tgid=704 next_task=Oscar
tick=2672958995500 9 cpu_id=0 next_pid=702 next_tgid=702 next_task=Queens
tick=2674959663000 8 cpu_id=0 next_pid=703 next_tgid=703 next_task=Oscar
tick=2676960149000 10 cpu_id=0 next_pid=701 next_tgid=701 next_task=Oscar
tick=2678960199500 7 cpu_id=0 next_pid=704 next_tgid=704 next_task=Oscar
tick=2680959979000 9 cpu_id=0 next_pid=702 next_tgid=702 next_task=Queens
tick=2682959565500 8 cpu_id=0 next_pid=703 next_tgid=703 next_task=Oscar
tick=2684963775000 10 cpu_id=0 next_pid=701 next_tgid=701 next_task=Oscar
tick=2686960033000 7 cpu_id=0 next_pid=704 next_tgid=704 next_task=Oscar
tick=2688959914000 9 cpu_id=0 next_pid=702 next_tgid=702 next_task=Queens
tick=2690963230500 8 cpu_id=0 next_pid=703 next_tgid=703 next_task=Oscar
tick=2692960018000 10 cpu_id=0 next_pid=701 next_tgid=701 next_task=Oscar
tick=2694974344500 7 cpu_id=0 next_pid=704 next_tgid=704 next_task=Oscar
tick=2696958613500 9 cpu_id=0 next_pid=702 next_tgid=702 next_task=Queens
tick=2698959293000 8 cpu_id=0 next_pid=703 next_tgid=703 next_task=Oscar
tick=2700959957500 10 cpu_id=0 next_pid=701 next_tgid=701 next_task=Oscar
tick=2702959887000 7 cpu_id=0 next_pid=704 next_tgid=704 next_task=Oscar
tick=2704959878500 9 cpu_id=0 next_pid=702 next_tgid=702 next_task=Queens
tick=2706959361000 8 cpu_id=0 next_pid=703 next_tgid=703 next_task=Oscar
tick=2708970963500 10 cpu_id=0 next_pid=701 next_tgid=701 next_task=Oscar
tick=2710959858500 7 cpu_id=0 next_pid=704 next_tgid=704 next_task=Oscar
tick=2712959784000 9 cpu_id=0 next_pid=702 next_tgid=702 next_task=Queens
tick=2714961074500 1 cpu_id=0 next_pid=-1 next_tgid=-1 next_task=kernel
tick=2714964123500 8 cpu_id=0 next_pid=703 next_tgid=703 next_task=Oscar
tick=2716553772000 10 cpu_id=0 next_pid=701 next_tgid=701 next_task=Oscar
tick=2716966141000 1 cpu_id=0 next_pid=-1 next_tgid=-1 next_task=kernel
tick=2716973473000 1 cpu_id=0 next_pid=-1 next_tgid=-1 next_task=kernel
tick=2716975269500 7 cpu_id=0 next_pid=704 next_tgid=704 next_task=Oscar
tick=2717878297000 10 cpu_id=0 next_pid=701 next_tgid=701 next_task=Oscar
tick=2717985009000 1 cpu_id=0 next_pid=-1 next_tgid=-1 next_task=kernel
tick=2717987484000 10 cpu_id=0 next_pid=701 next_tgid=701 next_task=Oscar
tick=2718962153500 1 cpu_id=0 next_pid=-1 next_tgid=-1 next_task=kernel
tick=2718964682000 9 cpu_id=0 next_pid=702 next_tgid=702 next_task=Queens
tick=2719971438000 1 cpu_id=0 next_pid=-1 next_tgid=-1 next_task=kernel
tick=2719973519500 10 cpu_id=0 next_pid=701 next_tgid=701 next_task=Oscar
tick=2720718676500 9 cpu_id=0 next_pid=702 next_tgid=702 next_task=Queens
tick=2720962931500 1 cpu_id=0 next_pid=-1 next_tgid=-1 next_task=kernel
tick=2720965165500 9 cpu_id=0 next_pid=702 next_tgid=702 next_task=Queens
tick=2721961666500 1 cpu_id=0 next_pid=-1 next_tgid=-1 next_task=kernel
tick=2721963147000 9 cpu_id=0 next_pid=702 next_tgid=702 next_task=Queens
tick=2723961624500 1 cpu_id=0 next_pid=-1 next_tgid=-1 next_task=kernel
tick=2723963372500 9 cpu_id=0 next_pid=702 next_tgid=702 next_task=Queens
tick=2724961289500 1 cpu_id=0 next_pid=-1 next_tgid=-1 next_task=kernel
tick=2724962616000 9 cpu_id=0 next_pid=702 next_tgid=702 next_task=Queens
