tick=2654441504500 1 cpu_id=0 next_pid=-1 next_tgid=-1 next_task=kernel
tick=2654450269000 0 cpu_id=0 next_pid=698 next_tgid=698 next_task=m5
tick=2654518762500 2 cpu_id=0 next_pid=677 next_tgid=677 next_task=script
tick=2654789974000 3 cpu_id=0 next_pid=699 next_tgid=699 next_task=script
tick=2655314367000 2 cpu_id=0 next_pid=677 next_tgid=677 next_task=script
tick=2655396061000 4 cpu_id=0 next_pid=700 next_tgid=700 next_task=script
tick=2655972357500 2 cpu_id=0 next_pid=677 next_tgid=677 next_task=script
tick=2656792442500 1 cpu_id=0 next_pid=-1 next_tgid=-1 next_task=kernel
tick=2656795017000 1 cpu_id=0 next_pid=-1 next_tgid=-1 next_task=kernel
tick=2656806645500 5 cpu_id=0 next_pid=1 next_tgid=1 next_task=init
tick=2656832191500 1 cpu_id=0 next_pid=-1 next_tgid=-1 next_task=kernel
tick=2656834811000 6 cpu_id=0 next_pid=704 next_tgid=704 next_task=sh
tick=2657011924000 1 cpu_id=0 next_pid=-1 next_tgid=-1 next_task=kernel
tick=2657014285000 1 cpu_id=0 next_pid=-1 next_tgid=-1 next_task=kernel
tick=2657038162000 1 cpu_id=0 next_pid=-1 next_tgid=-1 next_task=kernel
tick=2657040365500 7 cpu_id=0 next_pid=705 next_tgid=705 next_task=init
tick=2657143431500 5 cpu_id=0 next_pid=1 next_tgid=1 next_task=init
tick=2657151290500 7 cpu_id=0 next_pid=705 next_tgid=705 next_task=getty
tick=2657694931500 8 cpu_id=0 next_pid=703 next_tgid=703 next_task=sh
tick=2657770778000 6 cpu_id=0 next_pid=704 next_tgid=704 next_task=sh
tick=2657834461500 8 cpu_id=0 next_pid=703 next_tgid=703 next_task=sh
tick=2657836799500 6 cpu_id=0 next_pid=704 next_tgid=704 next_task=sh
tick=2657897668000 8 cpu_id=0 next_pid=703 next_tgid=703 next_task=sh
tick=2657899726500 6 cpu_id=0 next_pid=704 next_tgid=704 next_task=sh
tick=2657964386500 1 cpu_id=0 next_pid=-1 next_tgid=-1 next_task=kernel
tick=2657967184000 9 cpu_id=0 next_pid=702 next_tgid=702 next_task=sh
tick=2658044571500 6 cpu_id=0 next_pid=704 next_tgid=704 next_task=sh
tick=2658114592000 8 cpu_id=0 next_pid=703 next_tgid=703 next_task=sh
tick=2658290982000 9 cpu_id=0 next_pid=702 next_tgid=702 next_task=sh
tick=2658356307500 8 cpu_id=0 next_pid=703 next_tgid=703 next_task=Oscar
tick=2658401107000 6 cpu_id=0 next_pid=704 next_tgid=704 next_task=sh
tick=2658585075000 8 cpu_id=0 next_pid=703 next_tgid=703 next_task=Oscar
tick=2658601894000 9 cpu_id=0 next_pid=702 next_tgid=702 next_task=sh
tick=2658624130000 10 cpu_id=0 next_pid=701 next_tgid=701 next_task=sh
tick=2659009901000 1 cpu_id=0 next_pid=-1 next_tgid=-1 next_task=kernel
tick=2659012547000 1 cpu_id=0 next_pid=-1 next_tgid=-1 next_task=kernel
tick=2659059490000 8 cpu_id=0 next_pid=703 next_tgid=703 next_task=Oscar
tick=2659256441500 9 cpu_id=0 next_pid=702 next_tgid=702 next_task=sh
tick=2659431197000 6 cpu_id=0 next_pid=704 next_tgid=704 next_task=Oscar
tick=2659540474000 8 cpu_id=0 next_pid=703 next_tgid=703 next_task=Oscar
tick=2659546387500 9 cpu_id=0 next_pid=702 next_tgid=702 next_task=Queens
tick=2659604086000 8 cpu_id=0 next_pid=703 next_tgid=703 next_task=Oscar
tick=2659779716500 6 cpu_id=0 next_pid=704 next_tgid=704 next_task=Oscar
tick=2659966772500 1 cpu_id=0 next_pid=-1 next_tgid=-1 next_task=kernel
tick=2659968720500 1 cpu_id=0 next_pid=-1 next_tgid=-1 next_task=kernel
tick=2659970729500 9 cpu_id=0 next_pid=702 next_tgid=702 next_task=Queens
tick=2660034931000 8 cpu_id=0 next_pid=703 next_tgid=703 next_task=Oscar
tick=2661960660500 9 cpu_id=0 next_pid=702 next_tgid=702 next_task=Queens
tick=2662059672500 6 cpu_id=0 next_pid=704 next_tgid=704 next_task=Oscar
tick=2662964271000 1 cpu_id=0 next_pid=-1 next_tgid=-1 next_task=kernel
tick=2662966586500 9 cpu_id=0 next_pid=702 next_tgid=702 next_task=Queens
tick=2663037328000 10 cpu_id=0 next_pid=701 next_tgid=701 next_task=Oscar
tick=2663963684000 1 cpu_id=0 next_pid=-1 next_tgid=-1 next_task=kernel
tick=2663965901500 9 cpu_id=0 next_pid=702 next_tgid=702 next_task=Queens
tick=2664042665500 6 cpu_id=0 next_pid=704 next_tgid=704 next_task=Oscar
tick=2664962635500 9 cpu_id=0 next_pid=702 next_tgid=702 next_task=Queens
tick=2665636695500 10 cpu_id=0 next_pid=701 next_tgid=701 next_task=Oscar
tick=2665963499500 1 cpu_id=0 next_pid=-1 next_tgid=-1 next_task=kernel
tick=2665965522500 9 cpu_id=0 next_pid=702 next_tgid=702 next_task=Queens
tick=2666962450000 1 cpu_id=0 next_pid=-1 next_tgid=-1 next_task=kernel
tick=2666964198500 10 cpu_id=0 next_pid=701 next_tgid=701 next_task=Oscar
tick=2668960539500 9 cpu_id=0 next_pid=702 next_tgid=702 next_task=Queens
tick=2670959563000 6 cpu_id=0 next_pid=704 next_tgid=704 next_task=Oscar
tick=2672959940000 8 cpu_id=0 next_pid=703 next_tgid=703 next_task=Oscar
tick=2674959947500 10 cpu_id=0 next_pid=701 next_tgid=701 next_task=Oscar
tick=2676959874500 9 cpu_id=0 next_pid=702 next_tgid=702 next_task=Queens
tick=2678959352500 6 cpu_id=0 next_pid=704 next_tgid=704 next_task=Oscar
tick=2680959012000 8 cpu_id=0 next_pid=703 next_tgid=703 next_task=Oscar
tick=2682967524500 10 cpu_id=0 next_pid=701 next_tgid=701 next_task=Oscar
tick=2684958830500 9 cpu_id=0 next_pid=702 next_tgid=702 next_task=Queens
tick=2686959247500 6 cpu_id=0 next_pid=704 next_tgid=704 next_task=Oscar
tick=2688959852000 8 cpu_id=0 next_pid=703 next_tgid=703 next_task=Oscar
tick=2690959712000 10 cpu_id=0 next_pid=701 next_tgid=701 next_task=Oscar
tick=2692959903500 9 cpu_id=0 next_pid=702 next_tgid=702 next_task=Queens
tick=2694959250500 6 cpu_id=0 next_pid=704 next_tgid=704 next_task=Oscar
tick=2696959683000 8 cpu_id=0 next_pid=703 next_tgid=703 next_task=Oscar
tick=2698959324500 10 cpu_id=0 next_pid=701 next_tgid=701 next_task=Oscar
tick=2700959737500 9 cpu_id=0 next_pid=702 next_tgid=702 next_task=Queens
tick=2702959177500 6 cpu_id=0 next_pid=704 next_tgid=704 next_task=Oscar
tick=2704983429500 8 cpu_id=0 next_pid=703 next_tgid=703 next_task=Oscar
tick=2706968074000 10 cpu_id=0 next_pid=701 next_tgid=701 next_task=Oscar
tick=2708982193500 9 cpu_id=0 next_pid=702 next_tgid=702 next_task=Queens
tick=2710959091000 6 cpu_id=0 next_pid=704 next_tgid=704 next_task=Oscar
tick=2712959592000 8 cpu_id=0 next_pid=703 next_tgid=703 next_task=Oscar
tick=2714961382000 1 cpu_id=0 next_pid=-1 next_tgid=-1 next_task=kernel
tick=2714964379000 10 cpu_id=0 next_pid=701 next_tgid=701 next_task=Oscar
tick=2716698898500 9 cpu_id=0 next_pid=702 next_tgid=702 next_task=Queens
tick=2716966385000 1 cpu_id=0 next_pid=-1 next_tgid=-1 next_task=kernel
tick=2716973666000 1 cpu_id=0 next_pid=-1 next_tgid=-1 next_task=kernel
tick=2716975508500 6 cpu_id=0 next_pid=704 next_tgid=704 next_task=Oscar
tick=2717976754000 1 cpu_id=0 next_pid=-1 next_tgid=-1 next_task=kernel
tick=2717978610000 8 cpu_id=0 next_pid=703 next_tgid=703 next_task=Oscar
tick=2718973412000 9 cpu_id=0 next_pid=702 next_tgid=702 next_task=Queens
tick=2719963022000 1 cpu_id=0 next_pid=-1 next_tgid=-1 next_task=kernel
tick=2719964957000 6 cpu_id=0 next_pid=704 next_tgid=704 next_task=Oscar
tick=2720089974000 9 cpu_id=0 next_pid=702 next_tgid=702 next_task=Queens
tick=2720961276000 1 cpu_id=0 next_pid=-1 next_tgid=-1 next_task=kernel
tick=2720963401000 9 cpu_id=0 next_pid=702 next_tgid=702 next_task=Queens
tick=2721962013000 1 cpu_id=0 next_pid=-1 next_tgid=-1 next_task=kernel
tick=2721963966000 9 cpu_id=0 next_pid=702 next_tgid=702 next_task=Queens
tick=2722961734000 1 cpu_id=0 next_pid=-1 next_tgid=-1 next_task=kernel
tick=2722963650000 9 cpu_id=0 next_pid=702 next_tgid=702 next_task=Queens
tick=2723961376000 1 cpu_id=0 next_pid=-1 next_tgid=-1 next_task=kernel
tick=2723962762000 9 cpu_id=0 next_pid=702 next_tgid=702 next_task=Queens
