tick=2654441491500 1 cpu_id=0 next_pid=-1 next_tgid=-1 next_task=kernel
tick=2654450064000 0 cpu_id=0 next_pid=698 next_tgid=698 next_task=m5
tick=2654519068500 2 cpu_id=0 next_pid=677 next_tgid=677 next_task=script
tick=2654796004000 3 cpu_id=0 next_pid=699 next_tgid=699 next_task=script
tick=2655328696500 2 cpu_id=0 next_pid=677 next_tgid=677 next_task=script
tick=2655413493000 4 cpu_id=0 next_pid=700 next_tgid=700 next_task=script
tick=2655973930500 1 cpu_id=0 next_pid=-1 next_tgid=-1 next_task=kernel
tick=2655976780500 1 cpu_id=0 next_pid=-1 next_tgid=-1 next_task=kernel
tick=2655987836500 1 cpu_id=0 next_pid=-1 next_tgid=-1 next_task=kernel
tick=2655989828000 4 cpu_id=0 next_pid=700 next_tgid=700 next_task=chmod
tick=2656042686000 2 cpu_id=0 next_pid=677 next_tgid=677 next_task=script
tick=2656925819500 5 cpu_id=0 next_pid=1 next_tgid=1 next_task=init
tick=2656952826000 6 cpu_id=0 next_pid=705 next_tgid=705 next_task=init
tick=2656968634500 1 cpu_id=0 next_pid=-1 next_tgid=-1 next_task=kernel
tick=2656971075500 1 cpu_id=0 next_pid=-1 next_tgid=-1 next_task=kernel
tick=2656977720500 1 cpu_id=0 next_pid=-1 next_tgid=-1 next_task=kernel
tick=2656979995500 6 cpu_id=0 next_pid=705 next_tgid=705 next_task=init
tick=2657091483000 5 cpu_id=0 next_pid=1 next_tgid=1 next_task=init
tick=2657100131000 6 cpu_id=0 next_pid=705 next_tgid=705 next_task=getty
tick=2657686852000 7 cpu_id=0 next_pid=704 next_tgid=704 next_task=sh
tick=2657986159000 1 cpu_id=0 next_pid=-1 next_tgid=-1 next_task=kernel
tick=2657988717500 1 cpu_id=0 next_pid=-1 next_tgid=-1 next_task=kernel
tick=2658000513000 1 cpu_id=0 next_pid=-1 next_tgid=-1 next_task=kernel
tick=2658002648000 7 cpu_id=0 next_pid=704 next_tgid=704 next_task=sh
tick=2658129036000 8 cpu_id=0 next_pid=703 next_tgid=703 next_task=sh
tick=2658383665500 7 cpu_id=0 next_pid=704 next_tgid=704 next_task=sh
tick=2658553000000 8 cpu_id=0 next_pid=703 next_tgid=703 next_task=Oscar
tick=2658676809500 7 cpu_id=0 next_pid=704 next_tgid=704 next_task=Oscar
tick=2658694789000 9 cpu_id=0 next_pid=702 next_tgid=702 next_task=sh
tick=2658892961000 7 cpu_id=0 next_pid=704 next_tgid=704 next_task=Oscar
tick=2659003284000 1 cpu_id=0 next_pid=-1 next_tgid=-1 next_task=kernel
tick=2659005302500 1 cpu_id=0 next_pid=-1 next_tgid=-1 next_task=kernel
tick=2659053770500 8 cpu_id=0 next_pid=703 next_tgid=703 next_task=Oscar
tick=2659254628500 7 cpu_id=0 next_pid=704 next_tgid=704 next_task=Oscar
tick=2659357637000 8 cpu_id=0 next_pid=703 next_tgid=703 next_task=Oscar
tick=2659364342500 9 cpu_id=0 next_pid=702 next_tgid=702 next_task=sh
tick=2659486469500 7 cpu_id=0 next_pid=704 next_tgid=704 next_task=Oscar
tick=2659668433000 8 cpu_id=0 next_pid=703 next_tgid=703 next_task=Oscar
tick=2661960765500 7 cpu_id=0 next_pid=704 next_tgid=704 next_task=Oscar
tick=2663960817500 9 cpu_id=0 next_pid=702 next_tgid=702 next_task=sh
tick=2664131189500 10 cpu_id=0 next_pid=701 next_tgid=701 next_task=sh
tick=2664966677000 1 cpu_id=0 next_pid=-1 next_tgid=-1 next_task=kernel
tick=2664969090000 9 cpu_id=0 next_pid=702 next_tgid=702 next_task=Queens
tick=2665016082500 10 cpu_id=0 next_pid=701 next_tgid=701 next_task=Oscar
tick=2665026981500 9 cpu_id=0 next_pid=702 next_tgid=702 next_task=Queens
tick=2665092052500 10 cpu_id=0 next_pid=701 next_tgid=701 next_task=Oscar
tick=2665132328500 9 cpu_id=0 next_pid=702 next_tgid=702 next_task=Queens
tick=2665229424500 10 cpu_id=0 next_pid=701 next_tgid=701 next_task=Oscar
tick=2665355292000 9 cpu_id=0 next_pid=702 next_tgid=702 next_task=Queens
tick=2665429252500 10 cpu_id=0 next_pid=701 next_tgid=701 next_task=Oscar
tick=2665455298500 9 cpu_id=0 next_pid=702 next_tgid=702 next_task=Queens
tick=2665530970500 10 cpu_id=0 next_pid=701 next_tgid=701 next_task=Oscar
tick=2665590064500 9 cpu_id=0 next_pid=702 next_tgid=702 next_task=Queens
tick=2665963802000 1 cpu_id=0 next_pid=-1 next_tgid=-1 next_task=kernel
tick=2665965735000 9 cpu_id=0 next_pid=702 next_tgid=702 next_task=Queens
tick=2666667363500 10 cpu_id=0 next_pid=701 next_tgid=701 next_task=Oscar
tick=2667963934500 1 cpu_id=0 next_pid=-1 next_tgid=-1 next_task=kernel
tick=2667966283500 9 cpu_id=0 next_pid=702 next_tgid=702 next_task=Queens
tick=2668962335000 1 cpu_id=0 next_pid=-1 next_tgid=-1 next_task=kernel
tick=2668964270500 7 cpu_id=0 next_pid=704 next_tgid=704 next_task=Oscar
tick=2670960587000 8 cpu_id=0 next_pid=703 next_tgid=703 next_task=Oscar
tick=2672959176500 9 cpu_id=0 next_pid=702 next_tgid=702 next_task=Queens
tick=2674959804500 10 cpu_id=0 next_pid=701 next_tgid=701 next_task=Oscar
tick=2676960440500 7 cpu_id=0 next_pid=704 next_tgid=704 next_task=Oscar
tick=2678977140000 8 cpu_id=0 next_pid=703 next_tgid=703 next_task=Oscar
tick=2680960362000 9 cpu_id=0 next_pid=702 next_tgid=702 next_task=Queens
tick=2682959691500 10 cpu_id=0 next_pid=701 next_tgid=701 next_task=Oscar
tick=2684969456000 7 cpu_id=0 next_pid=704 next_tgid=704 next_task=Oscar
tick=2686960240500 8 cpu_id=0 next_pid=703 next_tgid=703 next_task=Oscar
tick=2688959915500 9 cpu_id=0 next_pid=702 next_tgid=702 next_task=Queens
tick=2690959581000 10 cpu_id=0 next_pid=701 next_tgid=701 next_task=Oscar
tick=2692960460500 7 cpu_id=0 next_pid=704 next_tgid=704 next_task=Oscar
tick=2694960312000 8 cpu_id=0 next_pid=703 next_tgid=703 next_task=Oscar
tick=2696958931500 9 cpu_id=0 next_pid=702 next_tgid=702 next_task=Queens
tick=2698959500500 10 cpu_id=0 next_pid=701 next_tgid=701 next_task=Oscar
tick=2700960421500 7 cpu_id=0 next_pid=704 next_tgid=704 next_task=Oscar
tick=2702978149500 8 cpu_id=0 next_pid=703 next_tgid=703 next_task=Oscar
tick=2704960206000 9 cpu_id=0 next_pid=702 next_tgid=702 next_task=Queens
tick=2706959516000 10 cpu_id=0 next_pid=701 next_tgid=701 next_task=Oscar
tick=2708971367000 7 cpu_id=0 next_pid=704 next_tgid=704 next_task=Oscar
tick=2710960062500 8 cpu_id=0 next_pid=703 next_tgid=703 next_task=Oscar
tick=2712959974000 9 cpu_id=0 next_pid=702 next_tgid=702 next_task=Queens
tick=2714961170000 1 cpu_id=0 next_pid=-1 next_tgid=-1 next_task=kernel
tick=2714964116000 10 cpu_id=0 next_pid=701 next_tgid=701 next_task=Oscar
tick=2716963393000 1 cpu_id=0 next_pid=-1 next_tgid=-1 next_task=kernel
tick=2716971324500 7 cpu_id=0 next_pid=704 next_tgid=704 next_task=Oscar
tick=2718049018500 8 cpu_id=0 next_pid=703 next_tgid=703 next_task=Oscar
tick=2718969840500 1 cpu_id=0 next_pid=-1 next_tgid=-1 next_task=kernel
tick=2718972194000 9 cpu_id=0 next_pid=702 next_tgid=702 next_task=Queens
tick=2719961745000 1 cpu_id=0 next_pid=-1 next_tgid=-1 next_task=kernel
tick=2719963363500 1 cpu_id=0 next_pid=-1 next_tgid=-1 next_task=kernel
tick=2719968500500 10 cpu_id=0 next_pid=701 next_tgid=701 next_task=Oscar
tick=2720975205000 1 cpu_id=0 next_pid=-1 next_tgid=-1 next_task=kernel
tick=2720977316000 9 cpu_id=0 next_pid=702 next_tgid=702 next_task=Queens
tick=2721961727000 1 cpu_id=0 next_pid=-1 next_tgid=-1 next_task=kernel
tick=2721964156500 10 cpu_id=0 next_pid=701 next_tgid=701 next_task=Oscar
tick=2722125089500 9 cpu_id=0 next_pid=702 next_tgid=702 next_task=Queens
tick=2722962396500 1 cpu_id=0 next_pid=-1 next_tgid=-1 next_task=kernel
tick=2722964895000 9 cpu_id=0 next_pid=702 next_tgid=702 next_task=Queens
tick=2723961366000 1 cpu_id=0 next_pid=-1 next_tgid=-1 next_task=kernel
tick=2723962927500 9 cpu_id=0 next_pid=702 next_tgid=702 next_task=Queens
tick=2725961556000 1 cpu_id=0 next_pid=-1 next_tgid=-1 next_task=kernel
tick=2725963572500 9 cpu_id=0 next_pid=702 next_tgid=702 next_task=Queens
tick=2726961476500 1 cpu_id=0 next_pid=-1 next_tgid=-1 next_task=kernel
tick=2726963028500 9 cpu_id=0 next_pid=702 next_tgid=702 next_task=Queens
