tick=2654441504500 1 cpu_id=0 next_pid=-1 next_tgid=-1 next_task=kernel
tick=2654450350500 0 cpu_id=0 next_pid=698 next_tgid=698 next_task=m5
tick=2654519876500 2 cpu_id=0 next_pid=677 next_tgid=677 next_task=script
tick=2654792255000 3 cpu_id=0 next_pid=699 next_tgid=699 next_task=script
tick=2655317029500 2 cpu_id=0 next_pid=677 next_tgid=677 next_task=script
tick=2655400625000 4 cpu_id=0 next_pid=700 next_tgid=700 next_task=script
tick=2655974971000 1 cpu_id=0 next_pid=-1 next_tgid=-1 next_task=kernel
tick=2655977895000 1 cpu_id=0 next_pid=-1 next_tgid=-1 next_task=kernel
tick=2655989429500 1 cpu_id=0 next_pid=-1 next_tgid=-1 next_task=kernel
tick=2655991699500 1 cpu_id=0 next_pid=-1 next_tgid=-1 next_task=kernel
tick=2655998235500 2 cpu_id=0 next_pid=677 next_tgid=677 next_task=script
tick=2656947154500 5 cpu_id=0 next_pid=1 next_tgid=1 next_task=init
tick=2656988433500 1 cpu_id=0 next_pid=-1 next_tgid=-1 next_task=kernel
tick=2656991320500 6 cpu_id=0 next_pid=707 next_tgid=707 next_task=init
tick=2657103937000 5 cpu_id=0 next_pid=1 next_tgid=1 next_task=init
tick=2657112082000 6 cpu_id=0 next_pid=707 next_tgid=707 next_task=getty
tick=2657665491000 7 cpu_id=0 next_pid=706 next_tgid=706 next_task=sh
tick=2657895017000 8 cpu_id=0 next_pid=705 next_tgid=705 next_task=sh
tick=2657965249500 1 cpu_id=0 next_pid=-1 next_tgid=-1 next_task=kernel
tick=2657968203500 8 cpu_id=0 next_pid=705 next_tgid=705 next_task=sh
tick=2657988881500 7 cpu_id=0 next_pid=706 next_tgid=706 next_task=sh
tick=2658043744000 8 cpu_id=0 next_pid=705 next_tgid=705 next_task=sh
tick=2658057413000 7 cpu_id=0 next_pid=706 next_tgid=706 next_task=sh
tick=2658178726000 8 cpu_id=0 next_pid=705 next_tgid=705 next_task=sh
tick=2658353190500 9 cpu_id=0 next_pid=704 next_tgid=704 next_task=sh
tick=2658496363000 7 cpu_id=0 next_pid=706 next_tgid=706 next_task=sh
tick=2658659704000 8 cpu_id=0 next_pid=705 next_tgid=705 next_task=sh
tick=2658828646500 9 cpu_id=0 next_pid=704 next_tgid=704 next_task=sh
tick=2658906193500 7 cpu_id=0 next_pid=706 next_tgid=706 next_task=Bubblesort
tick=2658974933500 1 cpu_id=0 next_pid=-1 next_tgid=-1 next_task=kernel
tick=2658977666000 1 cpu_id=0 next_pid=-1 next_tgid=-1 next_task=kernel
tick=2658985961500 1 cpu_id=0 next_pid=-1 next_tgid=-1 next_task=kernel
tick=2658988117500 9 cpu_id=0 next_pid=704 next_tgid=704 next_task=sh
tick=2659152714500 8 cpu_id=0 next_pid=705 next_tgid=705 next_task=Towers
tick=2659210416000 7 cpu_id=0 next_pid=706 next_tgid=706 next_task=Bubblesort
tick=2659266652000 10 cpu_id=0 next_pid=703 next_tgid=703 next_task=sh
tick=2659516541000 8 cpu_id=0 next_pid=705 next_tgid=705 next_task=Towers
tick=2659586765500 7 cpu_id=0 next_pid=706 next_tgid=706 next_task=Bubblesort
tick=2659614175500 9 cpu_id=0 next_pid=704 next_tgid=704 next_task=Oscar
tick=2659676253000 8 cpu_id=0 next_pid=705 next_tgid=705 next_task=Towers
tick=2659840109000 7 cpu_id=0 next_pid=706 next_tgid=706 next_task=Bubblesort
tick=2659970622500 1 cpu_id=0 next_pid=-1 next_tgid=-1 next_task=kernel
tick=2659972740500 9 cpu_id=0 next_pid=704 next_tgid=704 next_task=Oscar
tick=2660036268000 7 cpu_id=0 next_pid=706 next_tgid=706 next_task=Bubblesort
tick=2660138247500 9 cpu_id=0 next_pid=704 next_tgid=704 next_task=Oscar
tick=2660570587000 8 cpu_id=0 next_pid=705 next_tgid=705 next_task=Towers
tick=2660658300000 10 cpu_id=0 next_pid=703 next_tgid=703 next_task=sh
tick=2660840739000 7 cpu_id=0 next_pid=706 next_tgid=706 next_task=Bubblesort
tick=2660925461000 8 cpu_id=0 next_pid=705 next_tgid=705 next_task=Towers
tick=2661128848500 7 cpu_id=0 next_pid=706 next_tgid=706 next_task=Bubblesort
tick=2661259062000 10 cpu_id=0 next_pid=703 next_tgid=703 next_task=Perm
tick=2661265271500 11 cpu_id=0 next_pid=702 next_tgid=702 next_task=sh
tick=2661565789000 10 cpu_id=0 next_pid=703 next_tgid=703 next_task=Perm
tick=2661634974500 7 cpu_id=0 next_pid=706 next_tgid=706 next_task=Bubblesort
tick=2662959375500 10 cpu_id=0 next_pid=703 next_tgid=703 next_task=Perm
tick=2663058135500 8 cpu_id=0 next_pid=705 next_tgid=705 next_task=Towers
tick=2664380103500 10 cpu_id=0 next_pid=703 next_tgid=703 next_task=Perm
tick=2664461934500 9 cpu_id=0 next_pid=704 next_tgid=704 next_task=Oscar
tick=2664553004000 10 cpu_id=0 next_pid=703 next_tgid=703 next_task=Perm
tick=2664685381500 9 cpu_id=0 next_pid=704 next_tgid=704 next_task=Oscar
tick=2664867278500 11 cpu_id=0 next_pid=702 next_tgid=702 next_task=sh
tick=2665048525000 10 cpu_id=0 next_pid=703 next_tgid=703 next_task=Perm
tick=2665165950500 9 cpu_id=0 next_pid=704 next_tgid=704 next_task=Oscar
tick=2666960602500 10 cpu_id=0 next_pid=703 next_tgid=703 next_task=Perm
tick=2667916140500 11 cpu_id=0 next_pid=702 next_tgid=702 next_task=Puzzle
tick=2668051101500 12 cpu_id=0 next_pid=701 next_tgid=701 next_task=sh
tick=2668263487000 11 cpu_id=0 next_pid=702 next_tgid=702 next_task=Puzzle
tick=2668564138000 12 cpu_id=0 next_pid=701 next_tgid=701 next_task=sh
tick=2668745134500 11 cpu_id=0 next_pid=702 next_tgid=702 next_task=Puzzle
tick=2668827309500 7 cpu_id=0 next_pid=706 next_tgid=706 next_task=Bubblesort
tick=2668965181500 1 cpu_id=0 next_pid=-1 next_tgid=-1 next_task=kernel
tick=2668967610500 11 cpu_id=0 next_pid=702 next_tgid=702 next_task=Puzzle
tick=2669045914500 8 cpu_id=0 next_pid=705 next_tgid=705 next_task=Towers
tick=2669963001500 1 cpu_id=0 next_pid=-1 next_tgid=-1 next_task=kernel
tick=2669965089500 11 cpu_id=0 next_pid=702 next_tgid=702 next_task=Puzzle
tick=2670098782000 10 cpu_id=0 next_pid=703 next_tgid=703 next_task=Perm
tick=2670962591500 11 cpu_id=0 next_pid=702 next_tgid=702 next_task=Puzzle
tick=2672958883500 12 cpu_id=0 next_pid=701 next_tgid=701 next_task=Queens
tick=2673006246500 7 cpu_id=0 next_pid=706 next_tgid=706 next_task=Bubblesort
tick=2673367589500 12 cpu_id=0 next_pid=701 next_tgid=701 next_task=Queens
tick=2673441382000 7 cpu_id=0 next_pid=706 next_tgid=706 next_task=Bubblesort
tick=2674959310500 12 cpu_id=0 next_pid=701 next_tgid=701 next_task=Queens
tick=2675061509000 9 cpu_id=0 next_pid=704 next_tgid=704 next_task=Oscar
tick=2675964236500 1 cpu_id=0 next_pid=-1 next_tgid=-1 next_task=kernel
tick=2675966586000 12 cpu_id=0 next_pid=701 next_tgid=701 next_task=Queens
tick=2676038282500 10 cpu_id=0 next_pid=703 next_tgid=703 next_task=Perm
tick=2676961711000 1 cpu_id=0 next_pid=-1 next_tgid=-1 next_task=kernel
tick=2676963643000 12 cpu_id=0 next_pid=701 next_tgid=701 next_task=Queens
tick=2677041455000 8 cpu_id=0 next_pid=705 next_tgid=705 next_task=Towers
tick=2677962406500 12 cpu_id=0 next_pid=701 next_tgid=701 next_task=Queens
tick=2678638984000 9 cpu_id=0 next_pid=704 next_tgid=704 next_task=Oscar
tick=2678977098500 1 cpu_id=0 next_pid=-1 next_tgid=-1 next_task=kernel
tick=2678979302500 12 cpu_id=0 next_pid=701 next_tgid=701 next_task=Queens
tick=2679962131500 1 cpu_id=0 next_pid=-1 next_tgid=-1 next_task=kernel
tick=2679963886000 10 cpu_id=0 next_pid=703 next_tgid=703 next_task=Perm
tick=2681959806000 8 cpu_id=0 next_pid=705 next_tgid=705 next_task=Towers
tick=2683959587500 11 cpu_id=0 next_pid=702 next_tgid=702 next_task=Puzzle
tick=2685958758000 7 cpu_id=0 next_pid=706 next_tgid=706 next_task=Bubblesort
tick=2687959813000 12 cpu_id=0 next_pid=701 next_tgid=701 next_task=Queens
tick=2689959544000 9 cpu_id=0 next_pid=704 next_tgid=704 next_task=Oscar
tick=2691959814500 10 cpu_id=0 next_pid=703 next_tgid=703 next_task=Perm
tick=2693959363000 8 cpu_id=0 next_pid=705 next_tgid=705 next_task=Towers
tick=2695959540500 11 cpu_id=0 next_pid=702 next_tgid=702 next_task=Puzzle
tick=2697960624500 7 cpu_id=0 next_pid=706 next_tgid=706 next_task=Bubblesort
tick=2699959622500 12 cpu_id=0 next_pid=701 next_tgid=701 next_task=Queens
tick=2701959477000 9 cpu_id=0 next_pid=704 next_tgid=704 next_task=Oscar
tick=2703959881500 10 cpu_id=0 next_pid=703 next_tgid=703 next_task=Perm
tick=2705959265500 8 cpu_id=0 next_pid=705 next_tgid=705 next_task=Towers
tick=2707958500000 11 cpu_id=0 next_pid=702 next_tgid=702 next_task=Puzzle
tick=2709958451500 7 cpu_id=0 next_pid=706 next_tgid=706 next_task=Bubblesort
tick=2711958822500 12 cpu_id=0 next_pid=701 next_tgid=701 next_task=Queens
tick=2713959302500 9 cpu_id=0 next_pid=704 next_tgid=704 next_task=Oscar
tick=2714962009000 1 cpu_id=0 next_pid=-1 next_tgid=-1 next_task=kernel
tick=2714965392000 9 cpu_id=0 next_pid=704 next_tgid=704 next_task=Oscar
tick=2716962587500 1 cpu_id=0 next_pid=-1 next_tgid=-1 next_task=kernel
tick=2716970209500 10 cpu_id=0 next_pid=703 next_tgid=703 next_task=Perm
tick=2718959371000 8 cpu_id=0 next_pid=705 next_tgid=705 next_task=Towers
tick=2720959255000 11 cpu_id=0 next_pid=702 next_tgid=702 next_task=Puzzle
tick=2722958346000 7 cpu_id=0 next_pid=706 next_tgid=706 next_task=Bubblesort
tick=2724959370500 12 cpu_id=0 next_pid=701 next_tgid=701 next_task=Queens
tick=2726958709500 9 cpu_id=0 next_pid=704 next_tgid=704 next_task=Oscar
tick=2728981887500 10 cpu_id=0 next_pid=703 next_tgid=703 next_task=Perm
