tick=2654441708000 1 cpu_id=0 next_pid=-1 next_tgid=-1 next_task=kernel
tick=2654450757500 0 cpu_id=0 next_pid=698 next_tgid=698 next_task=m5
tick=2654525305500 2 cpu_id=0 next_pid=677 next_tgid=677 next_task=script
tick=2654835748500 3 cpu_id=0 next_pid=699 next_tgid=699 next_task=script
tick=2655428506000 2 cpu_id=0 next_pid=677 next_tgid=677 next_task=script
tick=2655523459000 4 cpu_id=0 next_pid=700 next_tgid=700 next_task=script
tick=2655974553000 1 cpu_id=0 next_pid=-1 next_tgid=-1 next_task=kernel
tick=2655977609500 1 cpu_id=0 next_pid=-1 next_tgid=-1 next_task=kernel
tick=2655989568500 1 cpu_id=0 next_pid=-1 next_tgid=-1 next_task=kernel
tick=2655991957000 4 cpu_id=0 next_pid=700 next_tgid=700 next_task=chmod
tick=2656236110500 2 cpu_id=0 next_pid=677 next_tgid=677 next_task=script
tick=2657259117500 5 cpu_id=0 next_pid=1 next_tgid=1 next_task=init
tick=2657287520500 1 cpu_id=0 next_pid=-1 next_tgid=-1 next_task=kernel
tick=2657290642000 6 cpu_id=0 next_pid=705 next_tgid=705 next_task=init
tick=2657413565500 5 cpu_id=0 next_pid=1 next_tgid=1 next_task=init
tick=2657421797500 6 cpu_id=0 next_pid=705 next_tgid=705 next_task=getty
tick=2657965216000 1 cpu_id=0 next_pid=-1 next_tgid=-1 next_task=kernel
tick=2657968749000 7 cpu_id=0 next_pid=704 next_tgid=704 next_task=sh
tick=2658205061000 8 cpu_id=0 next_pid=703 next_tgid=703 next_task=sh
tick=2658286129500 7 cpu_id=0 next_pid=704 next_tgid=704 next_task=sh
tick=2658352429000 8 cpu_id=0 next_pid=703 next_tgid=703 next_task=sh
tick=2658354695500 7 cpu_id=0 next_pid=704 next_tgid=704 next_task=sh
tick=2658486717000 8 cpu_id=0 next_pid=703 next_tgid=703 next_task=sh
tick=2658677148000 7 cpu_id=0 next_pid=704 next_tgid=704 next_task=sh
tick=2658859171000 8 cpu_id=0 next_pid=703 next_tgid=703 next_task=Oscar
tick=2659005130000 1 cpu_id=0 next_pid=-1 next_tgid=-1 next_task=kernel
tick=2659008136500 1 cpu_id=0 next_pid=-1 next_tgid=-1 next_task=kernel
tick=2659017489500 1 cpu_id=0 next_pid=-1 next_tgid=-1 next_task=kernel
tick=2659020525000 9 cpu_id=0 next_pid=702 next_tgid=702 next_task=sh
tick=2659241808500 6 cpu_id=0 next_pid=705 next_tgid=705 next_task=getty
tick=2659393354000 8 cpu_id=0 next_pid=703 next_tgid=703 next_task=Oscar
tick=2659743449500 7 cpu_id=0 next_pid=704 next_tgid=704 next_task=Oscar
tick=2659926080500 9 cpu_id=0 next_pid=702 next_tgid=702 next_task=sh
tick=2660069607500 1 cpu_id=0 next_pid=-1 next_tgid=-1 next_task=kernel
tick=2660072607500 7 cpu_id=0 next_pid=704 next_tgid=704 next_task=Oscar
tick=2660206528500 9 cpu_id=0 next_pid=702 next_tgid=702 next_task=sh
tick=2660322485500 7 cpu_id=0 next_pid=704 next_tgid=704 next_task=Oscar
tick=2660964897500 1 cpu_id=0 next_pid=-1 next_tgid=-1 next_task=kernel
tick=2660967224000 9 cpu_id=0 next_pid=702 next_tgid=702 next_task=Queens
tick=2661014310500 8 cpu_id=0 next_pid=703 next_tgid=703 next_task=Oscar
tick=2662961892000 9 cpu_id=0 next_pid=702 next_tgid=702 next_task=Queens
tick=2663030394000 7 cpu_id=0 next_pid=704 next_tgid=704 next_task=Oscar
tick=2664961649500 9 cpu_id=0 next_pid=702 next_tgid=702 next_task=Queens
tick=2665066319000 10 cpu_id=0 next_pid=701 next_tgid=701 next_task=sh
tick=2665966640000 1 cpu_id=0 next_pid=-1 next_tgid=-1 next_task=kernel
tick=2665969352000 9 cpu_id=0 next_pid=702 next_tgid=702 next_task=Queens
tick=2666047188000 10 cpu_id=0 next_pid=701 next_tgid=701 next_task=Oscar
tick=2666076429000 9 cpu_id=0 next_pid=702 next_tgid=702 next_task=Queens
tick=2666157547500 8 cpu_id=0 next_pid=703 next_tgid=703 next_task=Oscar
tick=2666216714500 9 cpu_id=0 next_pid=702 next_tgid=702 next_task=Queens
tick=2666964898000 1 cpu_id=0 next_pid=-1 next_tgid=-1 next_task=kernel
tick=2666967115000 9 cpu_id=0 next_pid=702 next_tgid=702 next_task=Queens
tick=2667301769500 10 cpu_id=0 next_pid=701 next_tgid=701 next_task=Oscar
tick=2668964443500 1 cpu_id=0 next_pid=-1 next_tgid=-1 next_task=kernel
tick=2668967115000 9 cpu_id=0 next_pid=702 next_tgid=702 next_task=Queens
tick=2669963595000 1 cpu_id=0 next_pid=-1 next_tgid=-1 next_task=kernel
tick=2669965697000 8 cpu_id=0 next_pid=703 next_tgid=703 next_task=Oscar
tick=2671961613500 9 cpu_id=0 next_pid=702 next_tgid=702 next_task=Queens
tick=2673960592000 7 cpu_id=0 next_pid=704 next_tgid=704 next_task=Oscar
tick=2675980068000 10 cpu_id=0 next_pid=701 next_tgid=701 next_task=Oscar
tick=2677959175000 8 cpu_id=0 next_pid=703 next_tgid=703 next_task=Oscar
tick=2679959619000 9 cpu_id=0 next_pid=702 next_tgid=702 next_task=Queens
tick=2681960375000 7 cpu_id=0 next_pid=704 next_tgid=704 next_task=Oscar
tick=2683961049500 10 cpu_id=0 next_pid=701 next_tgid=701 next_task=Oscar
tick=2685961063000 8 cpu_id=0 next_pid=703 next_tgid=703 next_task=Oscar
tick=2687961377000 9 cpu_id=0 next_pid=702 next_tgid=702 next_task=Queens
tick=2689960339000 7 cpu_id=0 next_pid=704 next_tgid=704 next_task=Oscar
tick=2691960909000 10 cpu_id=0 next_pid=701 next_tgid=701 next_task=Oscar
tick=2693960801000 8 cpu_id=0 next_pid=703 next_tgid=703 next_task=Oscar
tick=2695961129000 9 cpu_id=0 next_pid=702 next_tgid=702 next_task=Queens
tick=2697960187000 7 cpu_id=0 next_pid=704 next_tgid=704 next_task=Oscar
tick=2699960186500 10 cpu_id=0 next_pid=701 next_tgid=701 next_task=Oscar
tick=2701959301000 8 cpu_id=0 next_pid=703 next_tgid=703 next_task=Oscar
tick=2703959332500 9 cpu_id=0 next_pid=702 next_tgid=702 next_task=Queens
tick=2705959984000 7 cpu_id=0 next_pid=704 next_tgid=704 next_task=Oscar
tick=2707960684500 10 cpu_id=0 next_pid=701 next_tgid=701 next_task=Oscar
tick=2709960678500 8 cpu_id=0 next_pid=703 next_tgid=703 next_task=Oscar
tick=2711961014500 9 cpu_id=0 next_pid=702 next_tgid=702 next_task=Queens
tick=2713959975500 7 cpu_id=0 next_pid=704 next_tgid=704 next_task=Oscar
tick=2714969470500 1 cpu_id=0 next_pid=-1 next_tgid=-1 next_task=kernel
tick=2714972583000 7 cpu_id=0 next_pid=704 next_tgid=704 next_task=Oscar
tick=2716629879000 10 cpu_id=0 next_pid=701 next_tgid=701 next_task=Oscar
tick=2716967003000 1 cpu_id=0 next_pid=-1 next_tgid=-1 next_task=kernel
tick=2716974716000 1 cpu_id=0 next_pid=-1 next_tgid=-1 next_task=kernel
tick=2716976680000 10 cpu_id=0 next_pid=701 next_tgid=701 next_task=Oscar
tick=2717962177000 1 cpu_id=0 next_pid=-1 next_tgid=-1 next_task=kernel
tick=2717964575500 8 cpu_id=0 next_pid=703 next_tgid=703 next_task=Oscar
tick=2719311512000 9 cpu_id=0 next_pid=702 next_tgid=702 next_task=Queens
tick=2719964185500 1 cpu_id=0 next_pid=-1 next_tgid=-1 next_task=kernel
tick=2719966270000 10 cpu_id=0 next_pid=701 next_tgid=701 next_task=Oscar
tick=2720962332500 1 cpu_id=0 next_pid=-1 next_tgid=-1 next_task=kernel
tick=2720964618000 9 cpu_id=0 next_pid=702 next_tgid=702 next_task=Queens
tick=2722962573000 1 cpu_id=0 next_pid=-1 next_tgid=-1 next_task=kernel
tick=2722964809000 10 cpu_id=0 next_pid=701 next_tgid=701 next_task=Oscar
tick=2723621031000 9 cpu_id=0 next_pid=702 next_tgid=702 next_task=Queens
tick=2723962909500 1 cpu_id=0 next_pid=-1 next_tgid=-1 next_task=kernel
tick=2723965509500 9 cpu_id=0 next_pid=702 next_tgid=702 next_task=Queens
tick=2724962293500 1 cpu_id=0 next_pid=-1 next_tgid=-1 next_task=kernel
tick=2724963963500 9 cpu_id=0 next_pid=702 next_tgid=702 next_task=Queens
tick=2726962235500 1 cpu_id=0 next_pid=-1 next_tgid=-1 next_task=kernel
tick=2726964195000 9 cpu_id=0 next_pid=702 next_tgid=702 next_task=Queens
tick=2727961657500 1 cpu_id=0 next_pid=-1 next_tgid=-1 next_task=kernel
tick=2727963271000 9 cpu_id=0 next_pid=702 next_tgid=702 next_task=Queens
